"2047-12-02","De la férie","violet","Is 2,1-5 / Ps 122,1-9 / Mt 8,5-11 "
"2047-12-03","St François Xavier, jésuite, missionnaire, †1552 à Sancian (Chine)","blanc","Is 11,1-10 / Ps 72,1-2.7-8.12-13.17 / Lc 10,21-24 "
"2047-12-04","St Jean Damascène (Mansour ibn Sarjoun), prêtre, docteur de l'Église, †749 à Jérusalem (État de Palestine / Israël)","blanc","Is 25,6-10a / Ps 23,1-6 / Mt 15,29-37 "
"2047-12-05","De la férie","violet","Is 26,1-6 / Ps 118,1.8.19-21.25 / Mt 7,21.24-27 "
"2047-12-06","St Nicolas, évêque de Myre, †350 à Myre (Turquie)","blanc","Is 29,17-24 / Ps 27,1.4.13-14 / Mt 9,27-31 "
"2047-12-07","St Ambroise, évêque de Milan, docteur de l'Église, †397 à Milan (Italie)","blanc","Is 30,19-21.23-26 / Ps 147,1-6 / Mt 9,35-10,1;10,6-8 "
"2047-12-08","2ème dimanche de l'Avent","violet","Is 40,1-5.9-11 (Préparez le chemin du Seigneur) / Ps 85,9-14 (Son salut est proche) / 2P 3,8-14 (Ciel nouveau et terre nouvelle) / Mc 1,1-8 (Il vient) "
"2047-12-09","Immaculée conception de la Vierge Marie","blanc","Gn 3,9-15.20 (La descendance d'Eve) / Ps 98,1-4.6 (Le Seigneur a fait pour toi des merveilles) / Ep 1,3-6.11-12 (Le choix de Dieu) / Lc 1,26-38 (Réjouis-toi, Marie, pleine de grâce) "
"2047-12-10","De la férie","violet","Is 40,1-11 / Ps 96,1-3.10-13 / Mt 18,12-14 "
"2047-12-11","St Damase I, pape, †384 à Rome (Italie)","blanc","Is 40,25-31 / Ps 103,1-4.8.10 / Mt 11,28-30 "
"2047-12-12","Notre Dame de Guadalupe","blanc","Is 41,13-20 / Ps 145,1.9-13 / Mt 11,11-15 "
"2047-12-13","Ste Lucie, martyre, †304 à Syracuse (Italie)","rouge","Is 48,17-19 / Ps 1,1-4.6 / Mt 11,16-19 "
"2047-12-14","St Jean de la Croix (Juan de Yepes Álvarez), prêtre, docteur de l'Église, †1591 à Ubeda (Espagne)","blanc","Si 48,1-4.9-11 / Ps 80,2-3.15-16.18-19 / Mt 17,10-13 "
"2047-12-15","3ème dimanche de l'Avent","violet","Is 61,1-2a.10-11 (L'Esprit repose sur moi) / Lc 1,46-50.53-54 (Magnificat) / 1Th 5,16-24 (Préparer la venue du Seigneur) / Jn 1,6-8.19-28 (Il est au milieu de vous) "
"2047-12-16","De la férie","violet","Nb 24,2-7.15-17a / Ps 25,4-10.14 / Mt 21,23-27 "
"2047-12-17","De la férie","violet","Gn 49,2.8-10 / Ps 72,1-4.7-8.17 / Mt 1,1-17 / Mt 2,1-12 (La visite des mages) "
"2047-12-18","De la férie","violet","Jr 23,5-8 / Ps 72,1-2.12-13.18-19 / Mt 1,18-24 "
"2047-12-19","De la férie","violet","Jg 13,2-7.24-25 / Ps 71,1-3.5-6.16-17 / Lc 1,5-25 "
"2047-12-20","De la férie","violet","Is 7,10-16 / Ps 24,1-6 / Lc 1,26-38 "
"2047-12-21","[sauf Suisse] St Pierre Canisius, jésuite, docteur de l'Église, †1597 à Fribourg (Suisse)","violet","Ct 2,8-14 ou So 3,14-18a / Ps 33,2-3.11-12.20-21 / Lc 1,39-45 "
"2047-12-22","4ème dimanche de l'Avent","violet","2S 7,1-5.8b-12.14a.16 (Le Messie sera Fils de David) / Ps 89,4-5.27-30 (Je lui garderai mon amour) / Rm 16,25-27 (Christ aujourd'hui révélé aux nations) / Lc 1,26-38 (L'annonce à Marie) "
"2047-12-23","St Jean de Kenty, prêtre, †1473 à Cracovie (Pologne)","violet","Ml 3,1-4.23-24 / Ps 25,4-10.14 / Lc 1,57-66 / Lc 1,26-38 (L'annonce à Marie) "
"2047-12-24","De la férie","violet","2S 7,1-5.8-12.14.16 / Ps 89,2-5.27.29 / Lc 1,67-79 / Lc 1,26-38 (L'annonce à Marie) "
"2047-12-25","Nativité du Seigneur","blanc","Messe de la veille Is 62,1-5 (Tu seras la joie de ton Dieu) / Ps 89,4-5.16-17.27.29 / Ac 13,16-17.22-25 (Le témoignage de Paul au sujet du Christ, fils de David) / Mt 1,1-25 (Généalogie de Jésus, Christ, fils de David) / Messe de la nuit Is 9,1-6 (Un enfant nous est né) / Ps 96,1-3.11-13 / Tt 2,11-14 (La grâce de Dieu s’est manifestée pour tous les hommes) / Lc 2,1-14 (Aujourd’hui vous est né un Sauveur) / Messe de l'aurore Is 62,11-12 (Voici ton Sauveur qui vient) / Ps 97,1.6.11-12 / Tt 3,4-7 (Dieu nous a sauvés par sa miséricorde) / Lc 2,15-20 (Les bergers découvrirent Marie et Joseph, avec le nouveau-né) / Messe du jour Is 52,7-10 (Toutes les nations le verront) / Ps 98,1-6 (Il se souvient de son amour) / He 1,1-6 (Le Fils, révélation de Dieu) / Jn 1,1-18 (Le Verbe s'est fait chair) "
"2047-12-26","St Etienne, diacre, premier martyr, †34 à Jérusalem (État de Palestine / Israël)","rouge","Ac 6,8-10;7,54-60 / Ps 31,3-4.6-9.17.20 / Mt 10,17-22 / Lc 1,26-38 (L'annonce à Marie) "
"2047-12-27","St Jean, apôtre, †101 à Éphèse (Turquie)","blanc","1Jn 1,1-4 / Ps 97,1-2.5-6.11-12 / Jn 20,2-8 / Lc 1,26-38 (L'annonce à Marie) "
"2047-12-28","Sts Innocents, enfants martyrs","rouge","1Jn 1,5-2,2 / Ps 124,2-8 / Mt 2,13-18 / Lc 1,26-38 (L'annonce à Marie) "
"2047-12-29","La Sainte Famille","blanc","Gn 15,1-6;21,1-3 (L'enfant, don de Dieu) / Ps 105,1-6.8-9 (Il s'est souvenu de son alliance) / He 11,8.11-12.17-19 (La foi des parents) / Lc 2,22-40 (La sainte famille au temple) "
"2047-12-30","6e jour dans l'octave de Noël","blanc","1Jn 2,12-17 / Ps 96,7-10 / Lc 2,36-40 / Lc 1,26-38 (L'annonce à Marie) "
"2047-12-31","St Sylvestre I, pape, †335 à Rome (Italie)","blanc","1Jn 2,18-21 / Ps 96,1-2.11-13 / Jn 1,1-18 / Lc 1,26-38 (L'annonce à Marie) "
"2048-01-01","Ste Marie, mère de Dieu","blanc","Nb 6,22-27 (Paix et bonheur) / Ps 67,2-3.5.7-8 (Que Dieu nous bénisse) / Ga 4,4-7 (Le Fils de Dieu né d'une femme) / Lc 2,16-21 (Jésus est fils de Marie) "
"2048-01-02","St Basile le Grand, évêque de Césarée, docteur de l'Église, †379 à Kayseri (Turquie), et St Grégoire de Nazianze, évêque de Istanbul, docteur de l'Église, †390 à Nazianze (Turquie)","blanc","1Jn 2,22-28 / Ps 98,1-4 / Jn 1,19-28 / Lc 1,26-38 (L'annonce à Marie) "
"2048-01-03","Le Saint Nom de Jésus, et [France] Ste Geneviève, †512 à Paris (France), et [Luxembourg] Ste Irmine d'Oeren, abesse, co-fondatrice de l'abbaye d'Echternach, †704 à Trèves (Allemagne)","blanc","1Jn 2,29-3,6 / Ps 98,1.3-6 / Jn 1,29-34 / Lc 1,26-38 (L'annonce à Marie) "
"2048-01-04","De la férie","blanc","1Jn 3,7-10 / Ps 98,1.7-9 / Jn 1,35-42 / Lc 1,26-38 (L'annonce à Marie) "
"2048-01-05","Epiphanie du Seigneur","blanc","Is 60,1-6 (Lève-toi, Jérusalem) / Ps 72,1-2.7-8.10-13 (Ton salut parmi toutes les nations) / Ep 3,2-3a.5-6 (L'appel universel au salut) / Mt 2,1-12 (La visite des mages) "
"2048-01-06","De la férie","blanc","1Jn 3,22-4,6 / Ps 2,7-8.10-11 / Mt 4,12-17.23-25 "
"2048-01-07","St Raymond de Penyafort, dominicain, canoniste et moraliste, †1275 à Barcelone (Espagne), et [Canada] St André Bessette, frère de la congrégation de Sainte-Croix, †1937 à Saint-Laurent (Canada)","blanc","1Jn 4,7-10 / Ps 72,1-4.7-8 / Mc 6,34-44 "
"2048-01-08","De la férie","blanc","1Jn 4,11-18 / Ps 72,1-2.10-13 / Mc 6,45-52 "
"2048-01-09","De la férie","blanc","1Jn 4,19-5,4 / Ps 72,1-2.14-15.17 / Lc 4,14-22a "
"2048-01-10","De la férie","blanc","1Jn 5,5-13 / Ps 147,12-15.19-20 / Lc 5,12-16 "
"2048-01-11","De la férie","blanc","1Jn 5,14-21 / Ps 149,1-6.9 / Jn 3,22-30 "
"2048-01-12","Baptême du Seigneur","blanc","Is 55,1-11 (L'eau et la Parole) / Is 42,1-4.6-7 (La consécration du Serviteur de Dieu) / 1Jn 5,1-9 (Le témoignage de Dieu) / Mc 1,7-11 (Le baptême de Jésus) "
"2048-01-13","St Hilaire, évêque de Poitiers, docteur de l'Église, †367 à Poitiers (France)","blanc","1S 1,1-8 / Ps 116,12-14.17-19 / Mc 1,14-20 "
"2048-01-14","De la férie","vert","1S 1,9-20 / 1S 2,1.4-8 / Mc 1,21-28 "
"2048-01-15","[France] St Remi, évêque de Reims, †530 à Reims (France)","blanc","1S 3,1-10.19-4,1a / Ps 40,2.5.7-10 / Mc 1,29-39 "
"2048-01-16","De la férie","vert","1S 4,1c-11 / Ps 44,10-11.14-15.24-25 / Mc 1,40-45 "
"2048-01-17","St Antoine le Grand, fondateur de l'érémitisme, †356 à Zafarana (Égypte)","blanc","1S 8,4-7.10-22a / Ps 89,16-19 / Mc 2,1-12 "
"2048-01-18","De la férie","vert","1S 9,1-4.17-19a;10,1 / Ps 21,2-7 / Mc 2,13-17 "
"2048-01-19","2ème dimanche du temps ordinaire","vert","1S 3,3b-10.19 (La vocation de Samuel) / Ps 40,2.4.7-11 (Me voici, Seigneur) / 1Co 6,13b-15a.17-20 (Respecter notre corps) / Jn 1,35-42 (Nous avons trouvé le Messie) "
"2048-01-20","St Fabien, pape, martyr, †250 à Rome (Italie) et St Sébastien, officier de l'armée de Dioclétian, martyr, †284 à Rome (Italie)","rouge","1S 15,16-23 / Ps 50,7-8.16-17.21.23 / Mc 2,18-22 "
"2048-01-21","Ste Agnès, martyre, †305 à Rome (Italie)","rouge","1S 16,1-13 / Ps 89,20-21.25.27-29 / Mc 2,23-28 "
"2048-01-22","St Vincent, diacre, martyr, †304 à Valence (Espagne)","rouge","1S 17,32-33.37.40-51 / Ps 144,1-2.9-10 / Mc 3,1-6 "
"2048-01-23","De la férie","vert","1S 18,6-9;19,1-7 / Ps 56,2-3.7.9-12.14 / Mc 3,7-12 "
"2048-01-24","St François de Sales, évêque de Genève, docteur de l'Église, †1622 à Lyon (France)","blanc","1S 24,3-21 / Ps 57,2-4.6.11 / Mc 3,13-19 "
"2048-01-25","Conversion de St Paul","blanc","Ac 22,3-16 ou Ac 9,1-22 / Ps 117,1-2 / Mc 16,15-18 "
"2048-01-26","3ème dimanche du temps ordinaire","vert","Jon 3,1-5.10 (La conversion de Ninive) / Ps 25,4-9 (Oublie les péchés de ma jeunesse) / 1Co 7,29-31 (Ce monde passe) / Mc 1,14-20 (L'appel des disciples) "
"2048-01-27","Ste Angèle Merici, fondatrice des Ursulines, †1540 à Brescia (Italie)","blanc","2S 5,1-7.10. / Ps 89,20-22.25-26 / Mc 3,22-30 "
"2048-01-28","St Thomas d'Aquin, dominicain, docteur de l'Église, †1274 à Fossanova (Italie)","blanc","2S 6,12b-15.17-19 / Ps 24,7-10 / Mc 3,31-35 "
"2048-01-29","De la férie","vert","2S 7,1-17 / Ps 89,4-5.27-30 / Mc 4,1-20 "
"2048-01-30","De la férie","vert","2S 7,18-19.24-29 / Ps 132,1-5.11-14 / Mc 4,21-25 "
"2048-01-31","St Jean Bosco, fondateur des Salésiens, †1888 à Turin (Italie)","blanc","2S 11,1-10.13-17 / Ps 51,3-7.10-11 / Mc 4,26-34 "
"2048-02-01","De la férie","vert","2S 21,1-7a.10-17 / Ps 51,12-17 / Mc 4,35-41 "
"2048-02-02","Présentation du Seigneur","blanc","Ml 3,1-4 (Le Seigneur vient dans son temple) ou He 2,14-18 (Il lui fallait se rendre en tout semblable à ses frères) / Ps 24,7-10 (L'entrée du Roi) / Lc 2,22-40 (La présentation au temple) "
"2048-02-03","St Blaise, évêque de Sivas, martyr, †316 à Sivas (Turquie), et St Anschaire, moine, évêque de Hambourg, †865 à Brême (Allemagne)","rouge~blanc","2S 15,13-14.30;16,5-13 / Ps 3,2-7 / Mc 5,1-20 "
"2048-02-04","De la férie","vert","2S 18,9-10.14.24-25.30-32;19,1-4 / Ps 86,1-6 / Mc 5,21-43 "
"2048-02-05","Ste Agathe, martyre, †251 à Catane (Italie)","rouge","2S 24,2.9-17 / Ps 32,1-2.5-7 / Mc 6,1-6 "
"2048-02-06","[sauf Belgique] St Paul Miki, jésuite, et ses compagnons, †1597 à Nagasaki (Japon), et [Belgique] St Amand d'Elnone, missionnaire en Flandre et Brabant, †676 à Saint-Amand-les-Eaux (France)","rouge~blanc","1R 2,1-4.10-12 / 1Ch 29,10-12 / Mc 6,7-13 "
"2048-02-07","[Belgique] St Paul Miki, jésuite, et ses compagnons, †1597 à Nagasaki (Japon)","rouge","Si 47,2-11 / Ps 18,31.33.47.50.32.51 / Mc 6,14-29 "
"2048-02-08","St Jérôme Emilien, fondateur des Clercs Réguliers de Somasque, †1537 à Bergame (Italie), et Ste Joséphine Bakhita, esclave au Soudan, †1947 à Schio (Italie)","blanc","1R 3,4-13 / Ps 119,9-14 / Mc 6,30-34 "
"2048-02-09","5ème dimanche du temps ordinaire","vert","Jb 7,1-4.6-7 (La détresse de celui qui souffre) / Ps 147,1.3-7 (Il soigne nos blessures) / 1Co 9,16-19.22-23 (Paul tout à tous) / Mc 1,29-39 (Jésus guérit et prie) "
"2048-02-10","Ste Scolastique, moniale, †543 à Montecassino (Italie)","blanc","1R 8,1-7.9-13 / Ps 132,1.2.4-5.7-10 / Mc 6,53-56 "
"2048-02-11","Notre Dame de Lourdes","blanc","1R 8,22-23.27-30 / Ps 84,3-5.10-11 / Mc 7,1-13 "
"2048-02-12","De la férie","vert","1R 10,1-10 / Ps 37,5-6.30-31.39-40 / Mc 7,14-23 "
"2048-02-13","De la férie","vert","1R 11,4-13 / Ps 106,3-4.6.35-37.39-40 / Mc 7,24-30 "
"2048-02-14","St Cyrille, moine, †869 à Rome (Italie), et St Méthode, évêque de Sirmium, †885 à Velehrad (Tchéquie)","blanc","1R 11,29-32;12,19 / Ps 81,10-15 / Mc 7,31-37 "
"2048-02-15","De la férie","vert","1R 12,26-32;13,33-34 / Ps 106,6-7.19-22 / Mc 8,1-10 "
"2048-02-16","6ème dimanche du temps ordinaire","vert","Lv 13,1-2.45-46 (L'exclusion des lépreux) / Ps 102,2-6.13.20-21 (Que mon cri parvienne jusqu'à toi) / 1Co 10,31-11,1 (Tout pour la gloire de Dieu) / Mc 1,40-45 (Guérison d'un lépreux) "
"2048-02-17","Sept Sts fondateurs de l'ordre des Servites, †14e siècle à Florence (Italie)","blanc","Jc 1,1-11 / Ps 119,67-68.71-72.75-76 / Mc 8,11-13 "
"2048-02-18","Ste Bernadette Soubirous, religieuse, †1879 à Nevers (France)","blanc","Jc 1,12-18 / Ps 94,12-15.18-19 / Mc 8,14-21 "
"2048-02-19","Cendres","violet","Jl 2,12-18 (Appel à la pénitence) / Ps 51,3-6.12-14.17 (Pitié, Seigneur) / 2Co 5,20-6,2 (Laissez-vous réconcilier avec Dieu) / Mt 6,1-6.16-18 (L'aumône, la prière et le jeûne) "
"2048-02-20","Férie","violet","Dt 30,15-20 / Ps 1,1-6 / Lc 9,22-25 "
"2048-02-21","St Pierre Damien, évêque d'Ostie, docteur de l'Église, †1072 à Faenza (Italie)","violet","Is 58,1-9 / Ps 51,3-6.18-19 / Mt 9,14-15 "
"2048-02-22","Chaire de St Pierre","violet","1P 5,1-4 / Ps 23,1-6 / Mt 16,13-19 "
"2048-02-23","1er dimanche de Carême","violet","Gn 9,8-15 (L'Alliance après le déluge) / Ps 25,4-9 (Il montre le chemin) / 1P 3,18-22 (L'arche du baptême) / Mc 1,12-15 (Jésus au désert et en Galilée) "
"2048-02-24","[Luxembourg] St Matthias, apôtre, martyr, †63 à Jérusalem (État de Palestine / Israël)","violet","Ac 1,15-17.20-26 / Ps 113,1-8 / Jn 15,9-17 "
"2048-02-25","Férie","violet","Is 55,10-11 / Ps 34,4-7.16-19 / Mt 6,7-15 "
"2048-02-26","Férie","violet","Jon 3,1-10 / Ps 51,3-4.12-13.18-19 / Lc 11,29-32 "
"2048-02-27","Férie","violet","Est 4,17l-z (14,1.3-5.12-14) / Ps 138,1-3.7-8 / Mt 7,7-12 "
"2048-02-28","Férie","violet","Ez 18,21-28 / Ps 130,1-8 / Mt 5,20-26 "
"2048-02-29","Férie","violet","Dt 26,16-19 / Ps 119,1-2.4-5.7-8 / Mt 5,43-48 "
"2048-03-01","2ème dimanche de Carême","violet","Gn 22,1-2.9a.10-13.15-18 (Le fils offert et sauvé) / Ps 116,10.15-19 (Je t'offrirai le sacrifice) / Rm 8,31b-34 (Dieu n'a pas refusé son Fils) / Mc 9,2-10 (La transfiguration) "
"2048-03-02","Férie","violet","Dn 9,4-10 / Ps 79,5.8-9.11.13 / Lc 6,36-38 "
"2048-03-03","Férie","violet","Is 1,10.16-20 / Ps 50,7-8.13-14.16-17.21.23 / Mt 23,1-12 "
"2048-03-04","St Casimir, prince de Lituanie, †1484 à Hrodna (Bélarus)","violet","Jr 18,18-20 / Ps 31,5-6.14-16 / Mt 20,17-28 "
"2048-03-05","Férie","violet","Jr 17,5-10 / Ps 1,1-6 / Lc 16,19-31 "
"2048-03-06","Férie","violet","Gn 37,3-4.12-13a.17b-28 / Ps 105,4-6.16-21 / Mt 21,33-43.45-46 "
"2048-03-07","Stes Perpétue et Félicité, martyres, †203 à Carthage (Tunisie)","violet","Mi 7,14-15.18-20 / Ps 103,1-4.9-12 / Lc 15,1-3.11-32 "
"2048-03-08","3ème dimanche de Carême","violet","Ex 20,1-17 (Les commandements de Dieu) / Ps 19,8-11 (La loi du Seigneur) / 1Co 1,22-25 (La folie de la croix) / Jn 2,13-25 (Le temple relevé en 3 jours) "
"2048-03-09","Ste Françoise Romaine (Francesca Bussa de'Buxis de'Leoni), religieuse, †1440 à Rome (Italie)","violet","2R 5,1-15a / Ps 42,2-3;42,3-4 / Lc 4,24-30 "
"2048-03-10","Férie","violet","Dn 3,25.34-43 / Ps 25,4-10.14 / Mt 18,21-35 "
"2048-03-11","Férie","violet","Dt 4,1.5-9 / Ps 147,12-13.15-16.19-20 / Mt 5,17-19 "
"2048-03-12","Férie","violet","Jr 7,23-28 / Ps 95,1-2.6-9 / Lc 11,14-23 "
"2048-03-13","Férie","violet","Os 14,2-10 / Ps 81,7-12.14.17 / Mc 12,28-34 "
"2048-03-14","Férie","violet","Os 6,1-6 / Ps 51,3-4.18-21 / Lc 18,9-14 "
"2048-03-15","4ème dimanche de Carême","violet","2Ch 36,14-16.19-23 (L'exil et le retour) / Ps 137,1-6 (Au bord des fleuves de Babylone) / Ep 2,4-10 (Sauvés dans le Christ) / Jn 3,14-21 (Dieu a donné son Fils) "
"2048-03-16","Férie","violet","Is 65,17-21 / Ps 30,2-6.9.12-13 / Jn 4,43-54 "
"2048-03-17","St Patrick, évêque d'Armagh, †461 à Downpatrick (Royaume-Uni)","violet","Ez 47,1-9.12 / Ps 46,2-3.5-6.8-10 / Jn 5,1-16 "
"2048-03-18","St Cyrille, évêque de Jérusalem, docteur de l'Église, †386 à Jérusalem (État de Palestine / Israël)","violet","Is 49,8-15 / Ps 145,8-9.13-14.17-18 / Jn 5,17-30 "
"2048-03-19","St Joseph, époux de la vierge Marie","blanc","2S 7,4-5.12-14.16 (Un fils de David) / Ps 89,2-5.27.29 (La promesse de Dieu) / Rm 4,13.16-18.22 (La descendance d'Abraham) / Mt 1,16.18-21.24a (Grâce à Joseph, Jésus sera reconnu comme fils de David) ou Lc 2,41-51a (Vois comme ton père et moi, nous avons souffert en te cherchant) "
"2048-03-20","Férie","violet","Sg 2,1.12-22 / Ps 34,17-21.23 / Jn 7,2.10.14.25-30 "
"2048-03-21","Férie","violet","Jr 11,18-20 / Ps 7,2-3.9-12.18 / Jn 7,40-53 "
"2048-03-22","5ème dimanche de Carême","violet","Jr 31,31-34 (Une Alliance nouvelle) / Ps 51,3-4.12-15 (Rends-moi la joie d'être sauvé) / He 5,7-9 (L'obéissance du Fils) / Jn 12,20-33 (Le grain tombé en terre "
"2048-03-23","St Turibio de Mogrovejo, évêque de Lima, †1606 à Lima (Pérou)","violet","Dn 13,1-9.15-17.19-30.32-62 / Ps 23,1-6 / Jn 8,1-11 "
"2048-03-24","Férie","violet","Nb 21,4b-9 / Ps 102,2-3.16-21 / Jn 8,21-30 "
"2048-03-25","Annonciation du Seigneur","blanc","Is 7,10-14;8,10 (On l'appellera Dieu avec nous) / Ps 40,7-11 (Voici, je viens) / He 10,4-10 (Le Christ entrant dans le monde) / Lc 1,26-38 (Il sera appelé Fils de Dieu) "
"2048-03-26","Férie","violet","Gn 17,3-9 / Ps 105,4-9 / Jn 8,51-59 "
"2048-03-27","Férie","violet","Jr 20,10-13 / Ps 18,2-3.5-7 / Jn 10,31-42 "
"2048-03-28","Férie","violet","Ez 37,21-28 / Jr 31,10-13 / Jn 11,45-57 "
"2048-03-29","Dimanche des Rameaux et de la Passion","rouge","Rameaux Mc 11,1-10 (Entrée du Seigneur dans Jérusalem) / Messe Is 50,4-7 (Le Serviteur de Dieu devant la souffrance) / Ps 22,8-9.17-20.22-24 (Pourquoi m'as-tu abandonné) / Ph 2,6-11 (La croix et la gloire du Christ) / Mc 14,1-15,47 (La Passion) "
"2048-03-30","Lundi saint","violet","Is 42,1-7 / Ps 27,1-3.13-14 / Jn 12,1-11 "
"2048-03-31","Mardi saint","violet","Is 49,1-6 / Ps 71,1-3.5-6.15.17 / Jn 13,21-33.36-38 "
"2048-04-01","Mercredi saint","violet","Is 50,4-9a / Ps 69,8-10.21-22.31.33-34 / Mt 26,14-25 "
"2048-04-02","Jeudi saint","blanc","Messe chrismale Is 61,1-3a.6a.8b-9 / Ps 89,20-22.25.27.29 / Ap 1,5-8 / Lc 4,16-21 / Messe Ex 12,1-8.11-14 (Le sacrifice de l'agneau pascal) / Ps 116,12-13.15-18 (L'action de grâce au Seigneur) / 1Co 11,23-26 (Le repas du Seigneur) / Jn 13,1-15 (Le lavement des pieds) "
"2048-04-03","Vendredi saint","rouge","Is 52,13-53,12 (Le Serviteur souffrira) / Ps 31,2.6.12-17.25 (En tes mains, je remets mon esprit) / He 4,14-16;5,7-9 (Jésus, notre grand prêtre) / Jn 18,1-19,42 (La Passion) "
"2048-04-04","Samedi saint","blanc","Vigile pascale Gn 1,1-2,2 (Dieu vit tout ce qu’il avait fait) / Ps 104,1-2a.5-6.10.12-14ab.24.35c ou bien Ps 33,4-7.12-13.20.22 / Gn 22,1-18 (Sacrifice et délivrance d’Isaac) / Ps 16,5.8-11 / Ex 14,15-15.1a (Les fils d’Israël avaient marché à pied sec au milieu de la mer) / Ex 15,1b.2-6.17-18 / Is 54,5-14 (Le Seigneur a pitié de toi) / Ps 30,3-6.12-13 / Is 55,1-11 (Venez à moi, et vous vivrez) / Is 12,2.4bcd-6 / Ba 3,9-15.32-4,4 (Marche vers la splendeur du Seigneur) / Ps 19,8-11 / Ez 36,16-17a.18-28 (Je répandrai sur vous une eau pure) / Ps 42,3.5efgh;42,3.4 ou bien Ps 51,12-15.18-19 ou bien si baptême Is 12,2-6 / Rm 6,3b-11 (Ressuscité d’entre les morts, le Christ ne meurt plus) / Ps 118,1.2.16-17.22-23 / Mc 16,1-7 (Vous cherchez Jésus de Nazareth, il est ressuscité) "
"2048-04-05","Pâques, dimanche de la résurrection","blanc","Ac 10,34a.37-43 (Les apôtres témoins de la Résurrection) / Ps 118,1-4.16-17.22-23 (Ce jour de joie) / Col 3,1-4 (Ressuscités avec Christ) ou 1Co 5,6b-8 (Purifiez-vous des vieux ferments) / Jn 20,1-9 (Le tombeau vide) ou le soir Lc 24,13-35 (Reste avec nous car le soir approche) "
"2048-04-06","Lundi de Pâques","blanc","Ac 2,14.22b-32 / Ps 16,1-2a.5.7-10.2b.11 / Mt 28,8-15 "
"2048-04-07","Mardi de Pâques","blanc","Ac 2,36-41 / Ps 33,4-5.18-20.22 / Jn 20,11-18 "
"2048-04-08","Mercredi de Pâques","blanc","Ac 3,1-10 / Ps 105,1-4.6-9 / Lc 24,13-35 "
"2048-04-09","Jeudi de Pâques","blanc","Ac 3,11-26 / Ps 8,4-9 / Lc 24,35-48 "
"2048-04-10","Vendredi de Pâques","blanc","Ac 4,1-12 / Ps 118,1-2.4.22-26 / Jn 21,1-14 "
"2048-04-11","Samedi de Pâques","blanc","Ac 4,13-21 / Ps 118,1.14-21 / Mc 16,9-15 "
"2048-04-12","2ème dimanche de Pâques","blanc","Ac 4,32-35 (La première communauté) / Ps 118,1.4.16-17.22-25 (Donne, Seigneur, la victoire) / 1Jn 5,1-6 (La foi fait vaincre) / Jn 20,19-31 (Thomas, le huitième jour) "
"2048-04-13","St Martin I, pape, martyr, †656 à Chersonèse (Fédération de Russie)","rouge","Ac 4,23-31 / Ps 2,1-9 / Jn 3,1-8 "
"2048-04-14","Férie","blanc","Ac 4,32-37 / Ps 93,1-2.5 / Jn 3,7-15 "
"2048-04-15","Férie","blanc","Ac 5,17-26 / Ps 34,2-9 / Jn 3,16-21 "
"2048-04-16","Férie","blanc","Ac 5,27-33 / Ps 34,2.9.17-20 / Jn 3,31-36 "
"2048-04-17","[Canada] Ste Kateri Tekakwitha, religieuse, †1680 à Kahnawake (Canada)","blanc","Ac 5,34-42 / Ps 27,1.4.13-14 / Jn 6,1-15 "
"2048-04-18","Férie","blanc","Ac 6,1-7 / Ps 33,1-2.4-5.18-19 / Jn 6,16-21 "
"2048-04-19","3ème dimanche de Pâques","blanc","Ac 3,13-15.17-19 (Discours de Pierre) / Ps 4,2.7.9 (Que s'illumine ton visage) / 1Jn 2,1-5a (Le Christ notre défenseur) / Lc 24,35-48 (Les apôtres témoins de la résurrection) "
"2048-04-20","Férie","blanc","Ac 6,8-15 / Ps 119,23-24.26-27.29-30 / Jn 6,22-29 "
"2048-04-21","St Anselme, évêque de Cantorbéry, docteur de l'Église, †1109 à Cantorbéry (Royaume-Uni)","blanc","Ac 7,51-8,1a / Ps 31,3.4.6.8-9.17-20 / Jn 6,30-35 "
"2048-04-22","Férie","blanc","Ac 8,1b-8 / Ps 66,1-7 / Jn 6,35-40 "
"2048-04-23","St Georges, officier de l'armée de Dioclétian, martyr, †303 à Lod (Israël), et St Adalbert, évêque de Prague, martyr, †997 à Gdansk (Pologne)","rouge","Ac 8,26-40 / Ps 66,5.8-9.16-17.20 / Jn 6,44-51 "
"2048-04-24","St Fidèle de Sigmaringen, capucin, martyr, †1622 à Seewis (Suisse)","rouge","Ac 9,1-20 / Ps 117,1-2 / Jn 6,52-59 "
"2048-04-25","St Marc, évangéliste, martyr, †68 à Alexandrie (Égypte)","rouge","1P 5,5b-14 / Ps 89,2-3.6-7.16-17 / Mc 16,15-20 "
"2048-04-26","4ème dimanche de Pâques","blanc","Ac 4,8-12 (Pas de salut hors du Christ) / Ps 118,1.4.8-9.22-23.28-29 (S'appuyer sur le Seigneur) / 1Jn 3,1-2 (Enfants de Dieu, semblables au Christ) / Jn 10,11-18 (Le bon pasteur donne sa vie) "
"2048-04-27","[Suisse] St Pierre Canisius, jésuite, docteur de l'Église, †1597 à Fribourg (Suisse)","blanc","Ac 11,1-18 / Ps 42,2-3;42,3-4 / Jn 10,1-10 "
"2048-04-28","St Pierre Chanel, mariste, martyr, †1841 à Wallis-et-Futuna (France), St Louis Marie Grignion de Montfort, prêtre, †1716 à Saint-Laurent-sur-Sèvre (France)","rouge~blanc","Ac 11,19-26 / Ps 87,1.5c.2-3.5a.5b.6-7 / Jn 10,22-30 "
"2048-04-29","Ste Catherine de Sienne (Caterina Benincasa), tertiaire dominicaine, docteur de l'Église, †1380 à Rome (Italie)","blanc","Ac 12,24-13,5 / Ps 67,2-3.5-6.8 / Jn 12,44-50 "
"2048-04-30","St Pie V, pape, †1572 à Rome (Italie), et [Afrique du Nord] Notre-Dame d'Afrique, et [Canada] Ste Marie Guyard de l'Incarnation, fondatrice des Ursulines, †1672 à Québec (Canada)","blanc","Ac 13,13-25 / Ps 89,2-3.21-22.25-27 / Jn 13,16-20 "
"2048-05-01","St Joseph, travailleur","blanc","Ac 13,26-33 / Ps 2,1.7-11 / Mt 13,54-58 (Le fils du charpentier) "
"2048-05-02","St Athanase, évêque d'Alexandrie, docteur de l'Église, †373 à Alexandrie (Égypte)","blanc","Ac 13,44-52 / Ps 98,1-4 / Jn 14,7-14 "
"2048-05-03","5ème dimanche de Pâques","blanc","Ac 9,26-31 (L'accueil de Paul converti) / Ps 22,26-29.31-32 (Ma louange dans la grande assemblée) / 1Jn 3,18-24 (Aimer en vérité) / Jn 15,1-8 (La vigne et les sarments) "
"2048-05-04","Férie","blanc","Ac 14,5-18 / Ps 115,1-4.15-16 / Jn 14,21-26 "
"2048-05-05","Férie","blanc","Ac 14,19-28 / Ps 145,10-13.3a.21 / Jn 14,27-31a "
"2048-05-06","[Canada] St François de Montmorency-Laval, évêque de Québec, †1708 à Québec (Canada)","blanc","Ac 15,1-6 / Ps 122,1-5 / Jn 15,1-8 "
"2048-05-07","Férie","blanc","Ac 15,7-21 / Ps 96,1-3.10 / Jn 15,9-11 "
"2048-05-08","Férie","blanc","Ac 15,22-31 / Ps 57,8-12 / Jn 15,12-17 "
"2048-05-09","Férie","blanc","Ac 16,1-10 / Ps 100,1-3.5 / Jn 15,18-21 "
"2048-05-10","6ème dimanche de Pâques","blanc","Ac 10,25-26.34-35.44-48 (La Pentecôte continue) / Ps 98,1-4.6 (Le Seigneur révélé aux nations) / 1Jn 4,7-10 (Dieu est amour) / Jn 15,9-17 (Aimez-vous comme je vous ai aimés) "
"2048-05-11","Férie","blanc","Ac 16,11-15 / Ps 149,1-6.9 / Jn 15,26-16,4 "
"2048-05-12","St Nérée, St Achille et St Pancrace, martyrs, †304 à Rome (Italie)","rouge","Ac 16,22-34 / Ps 138,1-3.7-8 / Jn 16,5-11 "
"2048-05-13","Notre Dame de Fatima","blanc","Ac 17,15.22-18,1 / Ps 148,1-2.11-14 / Jn 16,12-15 "
"2048-05-14","Ascension","blanc","Ac 1,1-11 (L'Ascension du Seigneur) / Ps 47,2-6.6-9 (Au-dessus de tous) / Ep 4,1-13 (Une seule espérance) / Mc 16,15-20 (L'Ascension du Seigneur) "
"2048-05-15","Férie","blanc","Ac 18,9-18 / Ps 47,2-7 / Jn 16,20-23a "
"2048-05-16","Férie","blanc","Ac 18,23-28 / Ps 47,2-3.8-10 / Jn 16,23b-28 "
"2048-05-17","7ème dimanche de Pâques","blanc","Ac 1,15-17.20a.20c-26 (L'élection de Matthias) / Ps 103,1-2.11-12.19.22 (Mon âme, bénis le Seigneur) / 1Jn 4,11-16 (Croire en l'amour de Dieu) / Jn 17,11b-19 (Consacre-les dans la vérité "
"2048-05-18","St Jean I, pape, martyr, †526 à Ravenna (Italie)","rouge","Ac 19,1-8 / Ps 68,2-7.36 / Jn 16,29-33 "
"2048-05-19","[France] St Yves de Tréguier (Erwan Helouri a Gervarzhin), prêtre, †1303 à Trégor (France)","blanc","Ac 20,17-27 / Ps 68,10-11.20-21 / Jn 17,1-11a "
"2048-05-20","St Bernardin, franciscain, †1444 à L'Aquila (Italie)","blanc","Ac 20,28-38 / Ps 68,29-30.33-36 / Jn 17,11b-19 "
"2048-05-21","St Christophe Magallanès, prêtre, et ses compagnons, martyrs, †1926-1928 au Mexique, et [Canada] St Eugène de Mazenod, fondateur des Oblats de Marie-Immaculée, †1861 à Marseille (France)","rouge~blanc","Ac 22,30;23,6-11 / Ps 16,1-2a.5.7-10.2b.11 / Jn 17,20-26 "
"2048-05-22","Ste Margherite Lotti, augustine, †1453 à Cascia (Italie)","blanc","Ac 25,13-21 / Ps 103,1-2.11-12.19-20 / Jn 21,15-19 "
"2048-05-23","Férie","blanc","Ac 26,16-20.23-24.28-31 / Ps 11,4-5.7 / Jn 21,20-25 "
"2048-05-24","Pentecôte","rouge","Ac 2,1-11 (La venue du Saint-Esprit) / Ps 104,1.24.29-31.34 (Tu renouvelles la face de la terre) / Ga 5,16-25 (La chair contre l'Esprit) / Jn 15,26-27;16,12-15 (L'Esprit vous guidera vers la vérité) "
"2048-05-25","Vierge Marie, Mère de l'Église","blanc","Gn 3,9-15.20 / Ac 1,12-14 / Jn 19,25-34 "
"2048-05-26","St Philippe Néri, fondateur de l'Oratoire, †1595 à Rome (Italie)","blanc","1P 1,10-16 / Ps 98,1-4 / Mc 10,28-31 "
"2048-05-27","St Augustin, évêque de Cantorbéry, †605 à Cantorbéry (Royaume-Uni)","blanc","1P 1,18-25 / Ps 147,12-15.19-20 / Mc 10,32-45 "
"2048-05-28","De la férie","vert","1P 2,2-5.9-12 / Ps 100,1-5 / Mc 10,46-52 "
"2048-05-29","De la férie","vert","1P 4,7-13 / Ps 96,10-13 / Mc 11,11-25 "
"2048-05-30","[France] Ste Jeanne d'Arc, †1431 à Rouen (France)","blanc","Jude 1,17.20b-25 / Ps 63,2-6 / Mc 11,27-33 "
"2048-05-31","Sainte Trinité","blanc","Dt 4,32-34.39-40 (Le Dieu unique) / Ps 33,4-6.9.18.20-22 (La terre est remplie de son amour) / Rm 8,14-17 (L'Esprit des fils) / Mt 28,16-20 (Au nom du Père, et du Fils, et du Saint-Esprit) "
"2048-06-01","St Justin, philosophe, martyr, †165 à Rome (Italie)","rouge","2P 1,1-7 / Ps 91,1-2.14-16 / Mc 12,1-12 "
"2048-06-02","St Marcellin, St Pierre, martyrs, †304 à Rome (Italie), et St Pothin, évêque, Ste Blandine et leurs compagnons, martyrs, †177 à Lyon (France)","rouge","2P 3,12-15.17-18 / Ps 90,2-4.10.14.16 / Mc 12,13-17 "
"2048-06-03","St Charles Lwanga et ses compagnons, martyrs, †1886 à Namugongo (Ouganda)","rouge","2Tm 1,1-3.6-12 / Ps 123,1-2 / Mc 12,18-27 "
"2048-06-04","[France] Ste Clotilde, reine des francs, †545 à Tours (France)","blanc","2Tm 2,8-15 / Ps 25,4-5.8-10.14 / Mc 12,28-34 "
"2048-06-05","St Boniface, évêque de Mayence, martyr, †754 à Dokkum (Pays-Bas)","rouge","2Tm 3,10-17 / Ps 118,157.160.161.165.166.168 / Mc 12,35-37 "
"2048-06-06","St Norbert de Xanten, évêque de Magdebourg, fondateur des Prémontrés, †1134 à Magdebourg (Allemagne)","blanc","2Tm 4,1-8 / Ps 71,8-9.14-17.22 / Mc 12,38-44 "
"2048-06-07","Saint Sacrement","blanc","Ex 24,3-8 (La première Alliance) / Ps 116,12-13.15-18 (J'élèverai la coupe du salut) / He 9,11-15 (Le sang du Christ) / Mc 14,12-16.22-26 (L'institution de l'eucharistie) "
"2048-06-08","De la férie","vert","1R 17,1-6 / Ps 121,1-8 / Mt 5,1-12 "
"2048-06-09","St Éphrem, diacre, docteur de l'Église, †373 à Şanlıurfa (Turquie)","blanc","1R 17,7-16 / Ps 4,2-5.7-9 / Mt 5,13-16 "
"2048-06-10","De la férie","vert","1R 18,20-39 / Ps 16,1-5.8-9.11 / Mt 5,17-19 "
"2048-06-11","St Barnabé, compagnon de Saint Paul, martyr, †61 à Salamine (Chypre)","rouge","Ac 11,21b-26;13,1-3 (Le compagnon de St Paul) / Ps 65,10-13 / Mt 5,20-26 "
"2048-06-12","Sacré-Coeur de Jésus","blanc","Os 11,1.3-4.8c-9 (La tendresse de Dieu) / Is 12,2.4-6 (Le Dieu qui me sauve) / Ep 3,8-12.14-19 (Le projet éternel de Dieu) / Jn 19,31-37 (Le coeur ouvert) "
"2048-06-13","Le Coeur immaculé de Marie","blanc","2Co 5,14-21 (Celui qui n’a pas connu le péché, Dieu l’a pour nous identifié au péché) / Ps 103,1-2.3-4.8-9.11-12 (Le Seigneur est tendresse et pitié) / Mt 5,33-37 (Moi, je vous dis de ne pas jurer du tout) "
"2048-06-14","11ème dimanche du temps ordinaire","vert","Ez 17,22-24 (L'arbre planté par Dieu) / Ps 92,2-3.13-16 (Comme un cèdre du Liban) / 2Co 5,6-10 (Nous habiterons chez le Seigneur) / Mc 4,26-34 (La semence du royaume) "
"2048-06-15","De la férie","vert","1R 21,1-16 / Ps 5,2-3.5-7 / Mt 5,38-42 "
"2048-06-16","De la férie","vert","1R 21,17-29 / Ps 51,3-6.11.16 / Mt 5,43-48 "
"2048-06-17","De la férie","vert","2R 2,1-14 / Ps 31,20-21.24-25 / Mt 6,1-6.16-18 "
"2048-06-18","De la férie","vert","Si 48,1-14 / Ps 97,1-7.10 / Mt 6,7-15 "
"2048-06-19","St Romuald, fondateur des Camaldules, †1027 à Val di Castro (Italie)","blanc","2R 11,1-4.9-20 / Ps 132,11-14.17-18 / Mt 6,19-23 "
"2048-06-20","De la férie","vert","2Ch 24,17-25 / Ps 89,4-5.29-34 / Mt 6,24-34 "
"2048-06-21","12ème dimanche du temps ordinaire","vert","Jb 38,1.8-11 (Dieu maître de la mer) / Ps 107,21-22.24-31 (Il réduit la tempête au silence) / 2Co 5,14-17 (Un monde nouveau est né) / Mc 4,35-41 (La tempête apaisée) "
"2048-06-22","St Jean Fisher, évêque de Rochester, martyr, †1535 à Londres (Royaume-Uni), et St Thomas More, chancelier d'Angleterre, martyr, †1535 à Londres (Royaume-Uni), et St Paulin, évêque de Nole, †431 à Nole (Italie)","rouge~blanc","2R 17,5-8.13-15.18 / Ps 60,3-6.13-14 / Mt 7,1-5 "
"2048-06-23","De la férie","vert","2R 19,9-11.14-21.31-36 / Ps 48,2-4.10-11 / Mt 7,6.12-14 "
"2048-06-24","Nativité de St Jean Baptiste","blanc","Is 49,1-6 (Le Seigneur m'a appelé) / Ps 139,1-3.13-15 (Dès le sein de ma mère) / Ac 13,22-26 (Pour préparer la venue de Jésus) / Lc 1,57-66.80 (Dieu a choisi mon nom) "
"2048-06-25","De la férie","vert","2R 24,8-17 / Ps 79,1-5.8-9 / Mt 7,21-29 "
"2048-06-26","De la férie","vert","2R 25,1-12 / Ps 137,1-6 / Mt 8,1-4 "
"2048-06-27","St Cyrille, évêque d'Alexandrie, docteur de l'Église, †444 à Alexandrie (Égypte)","blanc","Lm 2,2.10-14.18-19 / Ps 74,1-7.19-20.22 / Mt 8,5-17 "
"2048-06-28","13ème dimanche du temps ordinaire","vert","Sg 1,13-15;2,23-24 (Dieu n'aime pas la mort) / Ps 30,3-6.12-13 (Tu m'as fait revivre) / 2Co 8,7.9.13-15 (La générosité du Christ) / Mc 5,21-43 (La fille de Jaïre) "
"2048-06-29","St Pierre, apôtre, martyr, †64 à Rome (Italie), et St Paul, martyr, †67 à Rome (Italie)","rouge","Ac 12,1-11 (Pierre est délivré) / Ps 34,2-9 (Dieu délivre ses amis) / 2Tm 4,6-8.16-18 (La confiance de Paul) / Mt 16,13-19 (La foi de Pierre) "
"2048-06-30","Sts premiers martyrs de l'Église, †64 à Rome (Italie)","rouge","Am 3,1-8 / Ps 5,2-3.5-7 / Mt 8,23-27 "
"2048-07-01","De la férie","vert","Am 5,14-15.21-24 / Ps 50,7-10.12-13.16-17 / Mt 8,28-34 "
"2048-07-02","De la férie","vert","Am 7,10-17 / Ps 19,8-11 / Mt 9,1-8 "
"2048-07-03","St Thomas, apôtre, martyr, †70 à Chennai (Inde)","rouge","Ep 2,19-22 / Ps 117,1-2 / Jn 20,24-29 "
"2048-07-04","Ste Elisabeth, franciscaine, †1336 à Estremoz (Portugal)","blanc","Am 9,11-15 / Ps 85,9.11-14 / Mt 9,14-17 "
"2048-07-05","14ème dimanche du temps ordinaire","vert","Ez 2,2-5 (Un prophète envoyé chez les rebelles) / Ps 123,1-4 (Notre âme est rassasiée de mépris) / 2Co 12,7-10 (Mon écharde et sa grâce) / Mc 6,1-6 (Jésus méprisé dans son pays) "
"2048-07-06","Ste Maria Goretti, martyre, †1902 à Nettuno (Italie)","rouge","Os 2,16-18.21-22 / Ps 145,2-9 / Mt 9,18-26 "
"2048-07-07","De la férie","vert","Os 8,4-7.11-13 / Ps 115,3-9.11 / Mt 9,32-38 "
"2048-07-08","De la férie","vert","Os 10,1-3.7-8.12 / Ps 105,2-7 / Mt 10,1-7 "
"2048-07-09","St Augustin Zhao Rong et ses compagnons, évêques, prêtres, religieux, laïcs, martyrs, †1648-1930 en Chine","rouge","Os 11,1.3-4.8-9 / Ps 80,2-3.15-16.19-20 / Mt 10,7-15 "
"2048-07-10","De la férie","vert","Os 14,2-10 / Ps 51,3-4.8-9.12-14.17 / Mt 10,16-23 "
"2048-07-11","St Benoît de Nursie, fondateur des Bénédictins, †547 à Montecassino (Italie)","blanc","Pr 2,1-9 / Ps 34,2-4.6.9.12.14-15 / Mt 19,27-29 "
"2048-07-12","15ème dimanche du temps ordinaire","vert","Am 7,12-15 (La vocation d'un prophète) / Ps 85,9-14 (J'écoute, que dira le Seigneur) / Ep 1,3-14 (Choisis depuis toujours) / Mc 6,7-13 (L'envoi des Douze) "
"2048-07-13","St Henri II, empereur d'Allemagne, †1024 à Göttingen (Allemagne), et [Luxembourg] Ste Conégonde, moniale, †1040 à Bamberg (Allemagne)","blanc","Is 1,11-17 / Ps 50,7-8.16-17.21.23 / Mt 10,34-11,1 "
"2048-07-14","St Camille de Lellis, fondateur des Religieux Hospitaliers, †1614 à Rome (Italie)","blanc","Is 7,1-9 / Ps 48,2-8 / Mt 11,20-24 "
"2048-07-15","St Bonaventure, évêque d'Albano, docteur de l'Église, †1274 à Lyon (France)","blanc","Is 10,5-7.13-16 / Ps 94,5-9.11.14-15 / Mt 11,25-27 "
"2048-07-16","Notre Dame du Mont Carmel","blanc","Is 26,7-9.12.16-19 / Ps 102,13-21 / Mt 11,28-30 "
"2048-07-17","De la férie","vert","Is 38,1-8 / Is 38,10-12.14.17 / Mt 12,1-8 "
"2048-07-18","De la férie","vert","Mi 2,1-5 / Ps 10,1-4.7-8.14 / Mt 12,14-21 "
"2048-07-19","16ème dimanche du temps ordinaire","vert","Jr 23,1-6 (Dieu prendra soin de ses brebis) / Ps 23,1-6 (Il me guide et me rassure) / Ep 2,13-18 (La paix pour tous) / Mc 6,30-34 (Jésus et la foule sans berger) "
"2048-07-20","St Apollinaire, évêque de Ravenne, martyr, †81 à Ravenne (Italie)","rouge","Mi 6,1-4.6-8 / Ps 50,5.7-9.16-17.21.23 / Mt 12,38-42 "
"2048-07-21","St Laurent de Brindes (Giulio Cesare Russo), capucin, docteur de l'Église, †1619 à Lisbonne (Portugal)","blanc","Mi 7,14-15.18-20 / Ps 85,2-3.5-8 / Mt 12,46-50 "
"2048-07-22","Ste Marie de Magdala, disciple du Seigneur","blanc","Ct 3,1-4a ou 2Co 5,14-17 / Ps 64,2.3-4.5-6.8-9 / Jn 20,1.11-18 (Marie Madeleine au tombeau) "
"2048-07-23","Ste Brigitte de Suède, religieuse, †1373 à Rome (Italie)","blanc","Jr 2,1-3.7-8.12-13 / Ps 36,6-11 / Mt 13,10-17 "
"2048-07-24","St Charbel Makhlouf, moine, †1898 à Annaya (Liban)","blanc","Jr 3,14-17 / Jr 31,10-13 / Mt 13,18-23 "
"2048-07-25","St Jacques le majeur, apôtre, martyr, †43 à Jérusalem (État de Palestine / Israël)","rouge","2Co 4,7-15 / Ps 126,1-6 / Mt 20,20-28 "
"2048-07-26","17ème dimanche du temps ordinaire","vert","2R 4,42-44 (Elisée multiplie le pain) / Ps 145,10-11.15-18 (Tu rassasies tout ce qui vit) / Ep 4,1-6 (Un seul Seigneur, une seule foi) / Jn 6,1-15 (La multiplication des pains) "
"2048-07-27","De la férie","vert","Jr 13,1-11 / Dt 32,6.18-21 / Mt 13,31-35 "
"2048-07-28","De la férie","vert","Jr 14,17-22 / Ps 79,5.8-9.11.13 / Mt 13,36-43 "
"2048-07-29","Ste Marthe, hôtesse du Seigneur, †68 à Avignon (France)","blanc","Jr 15,10.16-21 / Ps 59,2-6.10-11.17-18 / Lc 10,38-42 (Marthe reçoit Jésus) "
"2048-07-30","St Pierre Chrysologue, évêque de Ravenne, docteur de l'Église, †450 à Imola (Italie)","blanc","Jr 18,1-10 / Ps 146,1-2.10.3-6 / Mt 13,47-53 "
"2048-07-31","St Ignace de Loyola, fondateur des Jésuites, †1556 à Rome (Italie)","blanc","Jr 26,1-9 / Ps 69,2.5.8-10.14 / Mt 13,54-58 "
"2048-08-01","St Alphonse Marie de Liguori, évêque de Sant'Agata dei Goti, fondateur des Redemptoristes, docteur de l'Église, †1787 à Nocera de'Pagani (Italie)","blanc","Jr 26,11-19 / Ps 69,15-16.30-31.33-34 / Mt 14,1-12 "
"2048-08-02","18ème dimanche du temps ordinaire","vert","Ex 16,2-4.12-15 (La manne au désert) / Ps 78,3-4.23-25.52.54 (Il fait pleuvoir la manne) / Ep 4,17.20-24 (L'homme nouveau) / Jn 6,24-35 (Le pain venu du ciel) "
"2048-08-03","De la férie","vert","Jr 28,1-17 / Ps 119,29.43.79-80.95.102 / Mt 14,13-21 "
"2048-08-04","St Jean-Marie Vianney, curé, †1859 à Ars-sur-Formans (France)","blanc","Jr 30,1-2.12-15.18-22 / Ps 102,16-23.29 / Mt 14,22-36 "
"2048-08-05","Dédicace de la Basilique de Santa Maria Maggiore","blanc","Jr 31,1-7 / Jr 31,10-13 / Mt 15,21-28 "
"2048-08-06","Transfiguration du Seigneur","blanc","Dn 7,9-10.13-14 ou 2P 1,16-19 / Ps 97,1-2.4-6.9 / Mt 17,1-9 "
"2048-08-07","St Sixte II, pape, et ses compagnons, martyrs, †258 à Rome (Italie), et St Gaétan de Thienne, fondateur des Théatins, †1547 à Naples (Italie), et [Belgique] Ste Julienne de Cornillon, augustine, †1258 à Fosses-la-Ville (Belgique)","rouge~blanc","Na 2,1-3;3,1-3.6-7 / Dt 32,36.39.41 / Mt 16,24-28 "
"2048-08-08","St Dominique, fondateur des Dominicains, †1221 à Bologne (Italie)","blanc","Ha 1,12-2,4 / Ps 9,8-13 / Mt 17,14-20 "
"2048-08-09","19ème dimanche du temps ordinaire","vert","1R 19,4-8 (Le pain de Dieu pour Elie) / Ps 34,2-9 (Goutez et voyez) / Ep 4,30-5,2 (Aimer comme le Christ) / Jn 6,41-51 (Le pain de la vie éternelle) "
"2048-08-10","St Laurent, diacre, martyr, †258 à Rome (Italie)","rouge","2Co 9,6-10 / Ps 112,1-2.5-8.4b.9 / Jn 12,24-26 "
"2048-08-11","Ste Claire, fondatrice des Clarisses, †1253 à Assise (Italie), et [Luxembourg] Bx Schecelin, ermite, †1138 à Hostert (Luxembourg)","blanc","Ez 2,8-3,4 / Ps 119,14.24.72.103.111.131 / Mt 18,1-5.10.12.14 "
"2048-08-12","Ste Jeanne de Chantal (Jeanne-Françoise Frémyot), fondatrice des Visitandines, †1641 à Moulins (France)","blanc","Ez 9,1-7;10,18-22 / Ps 113,1-6 / Mt 18,15-20 "
"2048-08-13","St Pontien, pape, martyr, et St Hippolyte, prêtre, martyr, †235 en Sardaigne (Italie)","rouge","Ez 12,1-12 / Ps 78,56-59.61-62 / Mt 18,21-19,1 "
"2048-08-14","St Maximilien-Marie Kolbe, franciscain, martyr, †1941 à Oświęcim (Pologne)","rouge","Ez 16,1-15.59-60.63 / Is 12,2.4-6 / Mt 19,3-12 "
"2048-08-15","Assomption de la Vierge Marie","blanc","Messe de la veille 1Ch 15,3-4.15-16;16,1-2 (Ils amenèrent l’arche de Dieu et l’installèrent au milieu de la tente que David avait dressée pour elle) / Ps 132,7-8.9-10.13-14 / 1Co 15,54b-57 (Dieu nous donne la victoire par notre Seigneur Jésus Christ) / Lc 11,27-28 (Heureuse la mère qui t’a porté en elle !) / Messe du jour Ap 11,19;12,1-6.10 (Une femme dans le ciel) / Ps 45,11-16 (Ton sourire dans la gloire) / 1Co 15,20-27a (Tous revivront dans le Christ) / Lc 1,39-56 (Marie exalte le Seigneur) "
"2048-08-16","20ème dimanche du temps ordinaire","vert","Pr 9,1-6 (Le banquet de la sagesse) / Ps 34,2-3.10-15 (Rien ne manque à ceux qui craignent Dieu) / Ep 5,15-20 (Vivre en chrétiens) / Jn 6,51-58 (Le vrai pain pour la vie du monde) "
"2048-08-17","De la férie","vert","Ez 24,15-24 / Dt 32,6.18-21 / Mt 19,16-22 "
"2048-08-18","De la férie","vert","Ez 28,1-10 / Dt 32,26-27.29-30.35-36 / Mt 19,23-30 "
"2048-08-19","St Jean Eudes, fondateur des Eudistes, †1680 à Caen (France)","blanc","Ez 34,1-11 / Ps 23,1-6 / Mt 20,1-16 "
"2048-08-20","St Bernard de Clairvaux, cistercien, docteur de l'Église, †1153 à Ville-sous-la-Ferté (France)","blanc","Ez 36,23-28 / Ps 51,12-15.18-19 / Mt 22,1-14 "
"2048-08-21","St Pie X, pape, †1914 à Rome (Italie)","blanc","Ez 37,1-14 / Ps 107,2-9 / Mt 22,34-40 "
"2048-08-22","La Vierge Marie Reine","blanc","Ez 43,1-7a / Ps 85,9-14 / Mt 23,1-12 "
"2048-08-23","21ème dimanche du temps ordinaire","vert","Jos 24,1-2a.15-17.18b (La fidélité des tribus au Dieu unique) / Ps 34,2-3.16-17.20-23 (Le Seigneur veille sur le juste) / Ep 5,21-32 (L'Eglise épouse du Christ) / Jn 6,60-69 (Les paroles de la vie) "
"2048-08-24","St Barthélemy, apôtre, martyr, † à Albanopolis (Arménie)","rouge","Ap 21,9b-14 / Ps 145,10-13.17-18 / Jn 1,45-51 "
"2048-08-25","St Louis IX, roi de France, †1270 à Tunis (Tunisie), et St Joseph Calasanz, fondateur des Pères Piaristes, †1648 à Rome (Italie)","blanc","2Th 2,1-3a.14-17 / Ps 96,9-13 / Mt 23,23-26 "
"2048-08-26","[France] St Césaire, évêque d'Arles, †542 à Arles (France)","blanc","2Th 3,6-10.16-18 / Ps 128,1-2.4-5 / Mt 23,27-32 "
"2048-08-27","Ste Monique, mère de St Augustin, †387 à Ostie (Italie)","blanc","1Co 1,1-9 / Ps 145,2-7 / Mt 24,42-51 "
"2048-08-28","St Augustin, évêque d'Annaba, docteur de l'Église, †430 à Annaba (Algérie)","blanc","1Co 1,17-25 / Ps 33,1-2.4-5.10-11 / Mt 25,1-13 "
"2048-08-29","St Jean Baptiste, martyr, †28 à Jerusalem (État de Palestine / Israël), et [Luxembourg] Dédicace de la cathédrale","rouge~blanc","1Co 1,26-31 / Ps 33,12-13.18-21 / Mc 6,17-29 (Jean Baptiste décapité) "
"2048-08-30","22ème dimanche du temps ordinaire","vert","Dt 4,1-2.6-8 (La Loi la meilleure) / Ps 15,1-5 (Qui habitera dans ta maison) / Jc 1,17-18.21b-22.27 (Accueillir la Parole) / Mc 7,1-8.14-15.21-23 (Ce qui vient du coeur) "
"2048-08-31","[Belgique] La Vierge Marie Médiatrice","blanc","1Co 2,1-5 / Ps 119,97-102 / Lc 4,16-30 "
"2048-09-01","De la férie","vert","1Co 2,10b-16 / Ps 145,8-14 / Lc 4,31-37 "
"2048-09-02","De la férie","vert","1Co 3,1-9a / Ps 33,12-15.20-21 / Lc 4,38-44 "
"2048-09-03","St Grégoire le grand, pape, docteur de l'Église, †604 à Rome (Italie)","blanc","1Co 3,18-23 / Ps 24,1-6 / Lc 5,1-11 "
"2048-09-04","De la férie","vert","1Co 4,1-5 / Ps 37,3-6.27-28.39-40 / Lc 5,33-39 "
"2048-09-05","Ste Teresa de Calcutta (Anjezë Gonxha Bojaxhiu), fondatrice des Missionnaires de la Charité, †1997 à Calcutta (Inde)","blanc","1Co 4,9-15 / Ps 145,10.17-21 / Lc 6,1-5 "
"2048-09-06","23ème dimanche du temps ordinaire","vert","Is 35,4-7a (Dieu vient vous sauver) / Ps 146,7-10 (Le Seigneur délie, redresse, protège) / Jc 2,1-5 (La dignité des pauvres) / Mc 7,31-37 (Guérison d'un sourd-muet) "
"2048-09-07","De la férie","vert","1Co 5,1-8 / Ps 5,2-3.5-7 / Lc 6,6-11 "
"2048-09-08","Nativité de la Vierge Marie","blanc","Rm 8,28-30 / Is 61,10-11;62,1-3 / Mt 1,1-16.18-23 "
"2048-09-09","St Pierre Claver, jésuite, †1654 à Carthagène des Indes (Colombie)","blanc","1Co 7,25-31 / Ps 45,11-12.14-18 / Lc 6,20-26 "
"2048-09-10","De la férie","vert","1Co 8,1-7.10-13 / Ps 139,1-3.13-14.23-24 / Lc 6,27-38 "
"2048-09-11","De la férie","vert","1Co 9,16-19.22-27 / Ps 84,2-6.12 / Lc 6,39-42 "
"2048-09-12","Saint Nom de la Vierge Marie","blanc","1Co 10,14-22 / Ps 116,12-13.17-18 / Lc 6,43-49 "
"2048-09-13","24ème dimanche du temps ordinaire","vert","Is 50,5-9a (Prophétie du serviteur souffrant) / Ps 116,1-6.8-9 (Le Seigneur m'a sauvé) / Jc 2,14-18 (La foi et les actes) / Mc 8,27-35 (La foi de Pierre) "
"2048-09-14","La Croix glorieuse","rouge","Nb 21,4b-9 (Le serpent de bronze) ou Ph 2,6-11 (Il s'est abaissé : c'est pourquoi Dieu l'a exalté) / Ps 78,3-4.34-39 (Et lui pardonnait) / Jn 3,13-17 (Il faut que soit élevé le Fils de l'homme) "
"2048-09-15","Notre Dame des Douleurs","blanc","1Co 12,12-14.27-31a / Ps 100,1-5 / Lc 2,33-35 (Prophétie de Siméon) "
"2048-09-16","St Corneille, pape, martyr, †253 à Civitavecchia (Italie), et St Cyprien, évêque de Carthage, martyr, †258 à Carthage (Tunisie)","rouge","1Co 12,31-13,13 / Ps 33,2-5.12.22 / Lc 7,31-35 "
"2048-09-17","St Robert Bellarmino, jésuite, docteur de l'Église, †1621 à Rome (Italie) et [Belgique] St Lambert, martyre, évêque de Tongres-Maastricht, †705 à Liège (Belgique)","blanc~rouge","1Co 15,1-11 / Ps 118,1-2.16-17.21.28 / Lc 7,36-50 "
"2048-09-18","[Luxembourg] St Lambert, martyr, évêque de Tongres-Maastricht, †705 à Liège (Belgique)","rouge","1Co 15,12-20 / Ps 17,1.6-8.15 / Lc 8,1-3 "
"2048-09-19","St Janvier, évêque de Benevento, martyr, †304 à Pouzzoles (Italie)","rouge","1Co 15,35-37.42-49 / Ps 56,4-5.10-14 / Lc 8,4-15 "
"2048-09-20","25ème dimanche du temps ordinaire","vert","Sg 2,12.17-20 (Le complot des méchants) / Ps 54,3-5.7b.6.8 (Seigneur, à mon aide) / Jc 3,16-4,3 (La sagesse et la jalousie) / Mc 9,30-37 (Annonce de la Passion) "
"2048-09-21","St Matthieu, apôtre et évangéliste, martyr, †61 à Naddarer (Éthiopie)","rouge","Ep 4,1-7.11-13 / Ps 19,2-5 / Mt 9,9-13 "
"2048-09-22","[Suisse] St Maurice d'Agaune et ses compagnons, martyrs, †3e siècle dans le Valais (Suisse)","rouge","Pr 21,1-6.10-13 / Ps 119,1.27.30.34-35.44 / Lc 8,19-21 "
"2048-09-23","St Pio de Pietrelcina (Francesco Forgione), capucin, †1968 à San Giovanni Rotondo (Italie)","blanc","Ga 2,19-20 / Ps 128,1-5 / Mt 16,24-27 "
"2048-09-24","De la férie","vert","Qo 1,2-11 / Ps 90,3-6.12-14.17 / Lc 9,7-9 "
"2048-09-25","[Suisse] St Nicolas de de Flüe, ermite, †1487 à Sachseln (Suisse)","rouge","Qo 3,1-11 / Ps 144,1-4 / Lc 9,18-22 "
"2048-09-26","St Côme et St Damien, martyrs, †303 à Nebi Huri (Syrie), et [Canada] St Jean de Brébeuf, St Isaac Jogues, St René Goupil et leurs autres compagnons, martyrs, †1642-1649 au Canada","rouge","Qo 11,9-12,8 / Ps 90,3-6.12-14.17 / Lc 9,43b-45 "
"2048-09-27","26ème dimanche du temps ordinaire","vert","Nb 11,25-29 (Des prophètes chez les autres) / Ps 19,8.10.12-14 (La loi du Seigneur rend sages les simples) / Jc 5,1-6 (Malheur aux riches) / Mc 9,38-43.45.47-48 (Des miracles chez les autres) "
"2048-09-28","St Venceslas I, duc de Bohême, martyr, †929 à Stará Boleslav (Tchéquie), et St Laurent Ruiz et ses compagnons, martyrs, †1633-1637 à Nagasaki (Japon)","rouge","Jb 1,6-22 / Ps 17,1.3-5.7 / Lc 9,46-50 "
"2048-09-29","Sts Michel, Gabriel et Raphaël, archanges","blanc","Dn 7,9-10.13.14 ou Ap 12,7-12a / Ps 138,1-5 / Jn 1,47-51 "
"2048-09-30","St Jérôme, prêtre, docteur de l'Église, †420 à Bethléem (État de Palestine)","blanc","Jb 9,1-12.14-16 / Ps 88,10-15 / Lc 9,57-62 "
"2048-10-01","Ste Thérèse de l'Enfant-Jésus (Marie-Françoise Thérèse Martin), carmélite, docteur de l'Église, †1897 à Lisieux (France)","blanc","Jb 19,21-27 / Ps 27,7-9.13-14 / Lc 10,1-12 "
"2048-10-02","Saints Anges gardiens","blanc","Jb 38,1-3.12-21;40,3-5 / Ps 139,1-2.5.7-10.13-14 / Mt 18,1-5.10 (Leurs anges dans les cieux) "
"2048-10-03","De la férie","vert","Jb 42,1-3.5-6.12-17 / Ps 119,66.71.75.91.125.130 / Lc 10,17-24 "
"2048-10-04","27ème dimanche du temps ordinaire","vert","Gn 2,18-24 (Créés homme et femme) / Ps 128,1-6 (Ta femme et tes fils) / He 2,9-11 (Jésus sauveur et frère) / Mc 10,2-16 (Le mariage) "
"2048-10-05","De la férie","vert","Ga 1,6-12 / Ps 111,1-2.7-10 / Lc 10,25-37 "
"2048-10-06","St Bruno, fondateur de la Grande-Chartreuse, †1101 à Serra San Bruno (Italie)","blanc","Ga 1,13-24 / Ps 139,1-3.13.15 / Lc 10,38-42 "
"2048-10-07","Notre Dame du Rosaire","blanc","Ga 2,1-2.7-14 / Ps 117,1-2 / Lc 11,1-4 "
"2048-10-08","De la férie","vert","Ga 3,1-5 / Lc 1,69-75 / Lc 11,5-13 "
"2048-10-09","St Denis, évêque de Paris, et ses compagnons, martyrs, †250-272 à Montmartre (France), et St Jean Léonardi, prêtre de Lucca, †1609 à Rome (Italie)","rouge~blanc","Ga 3,6-14 / Ps 111,1-6 / Lc 11,15-26 "
"2048-10-10","De la férie","vert","Ga 3,22-29 / Ps 105,2-7 / Lc 11,27-28 "
"2048-10-11","28ème dimanche du temps ordinaire","vert","Sg 7,7-11 (Les trésors de la Sagesse) / Ps 90,12-17 (Apprends-nous la sagesse) / He 4,12-13 (La parole pénétrante de Dieu) / Mc 10,17-30 (Le jeune homme riche) "
"2048-10-12","De la férie","vert","Ga 4,22-24.26-27.31;5,1 / Ps 113,1-7 / Lc 11,29-32 "
"2048-10-13","De la férie","vert","Ga 5,1-6 / Ps 119,41.43-45.47-48 / Lc 11,37-41 "
"2048-10-14","St Calixte I, pape, martyr, †222 à Rome (Italie)","rouge","Ga 5,18-25 / Ps 1,1-6 / Lc 11,42-46 "
"2048-10-15","Ste Thérèse de Jésus (Teresa Sánchez de Cepeda y Ahumada), docteur de l'Église, †1582 à Alba de Tormes (Espagne)","blanc","Ep 1,1-10 / Ps 98,1-6 / Lc 11,47-54 "
"2048-10-16","Ste Edwige, religieuse, †1243 à Trzebnica (Pologne), et Ste Marguerite-Marie Alacoque, visitandine, †1690 à Paray-le-Monial (France), et [Canada] Ste Marguerite d'Youville (Marie-Marguerite Dufrost de Lajemmerais), fondatrice des Soeurs de la Charite, †1771 à Montreal (Canada)","blanc","Ep 1,11-14 / Ps 33,1-2.4-5.12-13 / Lc 12,1-7 "
"2048-10-17","St Ignace, évêque d'Antakya, martyr, †107 à Rome (Italie)","rouge","Ep 1,15-23 / Ps 8,2-7 / Lc 12,8-12 "
"2048-10-18","29ème dimanche du temps ordinaire","vert","Is 53,10-11 (Le Serviteur justifiera les multitudes) / Ps 33,4-5.18-20.22 (Notre espoir est en Dieu) / He 4,14-16 (Jésus notre grand prêtre) / Mc 10,35-45 (Servir, et non être servi) "
"2048-10-19","St Paul Danei, fondateur des Passionistes, †1775 à Rome (Italie), et [sauf Canada] St Jean de Brébeuf, St Isaac Jogues, St René Goupil et leurs autres compagnons, martyrs, †1642-1649 au Canada","blanc","Ep 2,1-10 / Ps 100,1-5 / Lc 12,13-21 "
"2048-10-20","De la férie","vert","Ep 2,12-22 / Ps 85,9-14 / Lc 12,35-38 "
"2048-10-21","De la férie","vert","Ep 3,2-12 / Is 12,2.4-6 / Lc 12,39-48 "
"2048-10-22","St Jean Paul II, pape, †2005 à Rome (Italie), et [Canada] Dédicace des églises consacrées dont on ne connaît pas la date de consécration","blanc","Ep 3,14-21 / Ps 33,1-2.4-5.11-12.18-19 / Lc 12,49-53 "
"2048-10-23","St Jean de Capistran, franciscain, †1456 à Ilok (Croatie)","blanc","Ep 4,1-6 / Ps 24,1-6 / Lc 12,54-59 "
"2048-10-24","St Antoine-Marie Claret, évêque de Santiago de Cuba, fondateur des Clarétins, †1870 à Fontfroide (France)","blanc","Ep 4,7-16 / Ps 122,1-5 / Lc 13,1-9 "
"2048-10-25","30ème dimanche du temps ordinaire","vert","Jr 31,7-9 (Dieu ramenera son peuple) / Ps 126,1-6 (Quand le Seigneur ramena nos captifs) / He 5,1-6 (Jésus, le grand prêtre désigné par Dieu) / Mc 10,46b-52 (Guérison d'un aveugle) "
"2048-10-26","De la férie","vert","Ep 4,32-5,8 / Ps 1,1-6 / Lc 13,10-17 "
"2048-10-27","De la férie","vert","Ep 5,21-33 / Ps 128,1-5 / Lc 13,18-21 "
"2048-10-28","St Simon, apôtre, martyr, et St Jude, apôtre, martyr","rouge","Ep 2,19-22 / Ps 19,2-5 / Lc 6,12-19 "
"2048-10-29","De la férie","vert","Ep 6,10-20 / Ps 144,1-2.9-10 / Lc 13,31-35 "
"2048-10-30","De la férie","vert","Ph 1,1-11 / Ps 111,1-6 / Lc 14,1-6 "
"2048-10-31","De la férie","vert","Ph 1,18b-26 / Ps 42,2-3.5 / Lc 14,1.7-11 "
"2048-11-01","Tous les saints","blanc","Ap 7,2-4.9-14 (Une foule immense) / Ps 24,1-6 (Ceux qui t'ont cherché) / 1Jn 3,1-3 (Déjà enfants de Dieu) / Mt 5,1-12a (Récompensés dans les cieux) "
"2048-11-02","Commémoration de tous les fidèles défunts","violet","Sg 2,23;3,1-6.9 (La vie de tout homme est dans la main de Dieu) / Ps 4,2.7.9 / Rm 6,3-9 (Passer par la mort avec le Christ pour vivre avec lui) / Jn 5,24-29 (Voici l'heure d'entrer dans la vie) "
"2048-11-03","St Martin de Porrès, dominicain, †1639 à Lima (Pérou), et [Belgique, Luxembourg] St Hubert, évêque de Tongres-Maastricht, †727 à Tervuren (Belgique)","blanc","Ph 2,5-11 / Ps 22,26-29.31-32 / Lc 14,15-24 "
"2048-11-04","St Charles Borromée, évêque de Milan, †1584 à Milan (Italie)","blanc","Ph 2,12-18 / Ps 27,1.4.13-14 / Lc 14,25-33 "
"2048-11-05","De la férie","vert","Ph 3,3-8 / Ps 105,2-7 / Lc 15,1-10 "
"2048-11-06","De la férie","vert","Ph 3,17-4,1 / Ps 122,1-5 / Lc 16,1-8 "
"2048-11-07","[Luxembourg] St Willibrord, évêque d'Utrecht, †739 à Echternach (Luxembourg)","blanc","Ph 4,10-19 / Ps 112,1-2.5-6.8-9 / Lc 16,9-15 "
"2048-11-08","32ème dimanche du temps ordinaire","vert","1R 17,10-16 (La veuve de Sarepta) / Ps 146,5-10 (Dieu soutient la veuve et l'orphelin) / He 9,24-28 (Le sanctuaire éternel) / Mc 12,38-44 (L'obole de la veuve) "
"2048-11-09","Dédicace de la basilique San Giovanni in Laterano, cathédrale de Rome","blanc","Ez 47,1-2.8-9.12 (Le Seigneur dans son temple) ou 1Co 3,9b-11.16-17 (Vous êtes le temple) / Ps 46,2-3.5-6.8-10 (Voici la demeure de Dieu) / Jn 2,13-22 (Le Christ, nouveau temple) "
"2048-11-10","St Léon le Grand, pape, docteur de l'Église, †461 à Rome (Italie)","blanc","Tt 2,1-8.11-14 / Ps 37,3-4.18.23.27.29 / Lc 17,7-10 "
"2048-11-11","St Martin, évêque de Tours, †397 à Candes-Saint-Martin (France)","blanc","Tt 3,1-7 / Ps 23,1-6 / Lc 17,11-19 "
"2048-11-12","St Josaphat Koncévitch, évêque de Polatsk, martyr, †1623 à Vitebsk (Bélarus)","rouge","Phm 1,7-20 / Ps 146,6-10 / Lc 17,20-25 "
"2048-11-13","De la férie","vert","2Jn 1,1.4-9 / Ps 119,1-2.10-11.17-18 / Lc 17,26-37 "
"2048-11-14","De la férie","vert","3Jn 1,5-8 / Ps 112,1-6 / Lc 18,1-8 "
"2048-11-15","33ème dimanche du temps ordinaire","vert","Dn 12,1-3 (La résurrection des morts) / Ps 16,5.8-10.1b.11 (Tu ne peux m'abandonner à la mort) / He 10,11-14.18 (Le sacrifice unique) / Mc 13,24-32 (Quand le figuier reverdit) "
"2048-11-16","Ste Marguerite, reine d'Ecosse, †1093 à Edimbourg (Royaume-Uni), et Ste Gertrude, moniale, †1302 à Lutherstadt Eisleben (Allemagne)","blanc","Ap 1,1-5a;2,1-5a / Ps 1,1-6 / Lc 18,35-43 "
"2048-11-17","Ste Elisabeth de Hongrie, duchesse de Thüringen, †1231 à Marbourg (Allemagne)","blanc","Ap 3,1-6.14-22 / Ps 15,1-5 / Lc 19,1-10 "
"2048-11-18","Dédicace des basiliques romaines de St-Pierre-du-Vatican et de St-Paul-hors-les-murs","blanc","Ac 28,11-16.30-31 (Paul arrive à Rome) / Ps 150,1-6 / Mt 14,22-33 (Pierre sur les eaux) "
"2048-11-19","De la férie","vert","Ap 5,1-10 / Ps 149,1-6.9 / Lc 19,41-44 "
"2048-11-20","De la férie","vert","Ap 10,8-11 / Ps 119,14.24.72.103.111.131 / Lc 19,45-48 "
"2048-11-21","Présentation de la Bienheureuse Vierge Marie","blanc","Ap 11,4-12 / Ps 144,1-2.9-10 / Lc 20,27-40 "
"2048-11-22","Christ, Roi de l'univers","blanc","Dn 7,13-14 (La royauté du Fils de l'Homme) / Ps 93,1-2.5 (Le Seigneur est roi) / Ap 1,5-8 (Un peuple de prêtres) / Jn 18,33b-37 (Je suis roi) "
"2048-11-23","St Clément I, pape, martyr, †97 à Rome (Italie), et St Colomban, moine irlandais, †615 à Bobbio (Italie)","rouge","Ap 14,1-3.4b-5 / Ps 24,1-6 / Lc 21,1-4 "
"2048-11-24","St André Dung-Lac, St Jean-Théophane Vénard et leurs compagnons, martyrs, †1845-1862 au Viêt Nam","rouge","Ap 14,14-19 / Ps 96,10-13 / Lc 21,5-11 "
"2048-11-25","Ste Catherine, martyre, †307 à Alexandrie (Égypte)","rouge","Ap 15,1-4 / Ps 98,1-3.7-9 / Lc 21,12-19 "
"2048-11-26","[Belgique] St Jean Berchmans, jésuite, †1621 à Rome (Italie)","blanc","Ap 18,1-2.21-23;19,1-3.9a / Ps 100,1-5 / Lc 21,20-28 "
"2048-11-27","De la férie","vert","Ap 20,1-4.11-15;21,1-2 / Ps 84,2-6.11 / Lc 21,29-33 "
"2048-11-28","De la férie","vert","Ap 22,1-7 / Ps 95,1-7 / Lc 21,34-36 "
