"2027-11-29","De la férie","violet","Is 2,1-5 / Ps 122,1-9 / Mt 8,5-11 "
"2027-11-30","St André, apôtre, martyr, †60 à Patras (Grèce)","rouge","Rm 10,9-18 / Ps 19,2-5 / Mt 4,18-22 "
"2027-12-01","De la férie","violet","Is 25,6-10a / Ps 23,1-6 / Mt 15,29-37 "
"2027-12-02","De la férie","violet","Is 26,1-6 / Ps 118,1.8.19-21.25 / Mt 7,21.24-27 "
"2027-12-03","St François Xavier, jésuite, missionnaire, †1552 à Sancian (Chine)","blanc","Is 29,17-24 / Ps 27,1.4.13-14 / Mt 9,27-31 "
"2027-12-04","St Jean Damascène (Mansour ibn Sarjoun), prêtre, docteur de l'Église, †749 à Jérusalem (État de Palestine / Israël)","blanc","Is 30,19-21.23-26 / Ps 147,1-6 / Mt 9,35-10,1;10,6-8 "
"2027-12-05","2ème dimanche de l'Avent","violet","Ba 5,1-9 (Vers la Jérusalem nouvelle) / Ps 126,1-6 (Ramène, Seigneur, nos captifs) / Ph 1,4-6.8-11 (Vers le jour du Christ) / Lc 3,1-6 (Tout homme verra le salut) "
"2027-12-06","St Nicolas, évêque de Myre, †350 à Myre (Turquie)","blanc","Is 35,1-10 / Ps 85,9-14 / Lc 5,17-26 "
"2027-12-07","St Ambroise, évêque de Milan, docteur de l'Église, †397 à Milan (Italie)","blanc","Is 40,1-11 / Ps 96,1-3.10-13 / Mt 18,12-14 "
"2027-12-08","Immaculée conception de la Vierge Marie","blanc","Gn 3,9-15.20 (La descendance d'Eve) / Ps 98,1-4.6 (Le Seigneur a fait pour toi des merveilles) / Ep 1,3-6.11-12 (Le choix de Dieu) / Lc 1,26-38 (Réjouis-toi, Marie, pleine de grâce) "
"2027-12-09","St Jean Diego Cuauhtlatoatzin, ermite, †1578 à Mexico (Mexique)","blanc","Is 41,13-20 / Ps 145,1.9-13 / Mt 11,11-15 "
"2027-12-10","De la férie","violet","Is 48,17-19 / Ps 1,1-4.6 / Mt 11,16-19 "
"2027-12-11","St Damase I, pape, †384 à Rome (Italie)","blanc","Si 48,1-4.9-11 / Ps 80,2-3.15-16.18-19 / Mt 17,10-13 "
"2027-12-12","3ème dimanche de l'Avent","violet","So 3,14-18a (Fille de Sion, réjouis-toi) / Is 12,2.4-6 (Dieu est au milieu de nous) / Ph 4,4-7 (Réjouissez-vous, le Seigneur est proche) / Lc 3,10-18 (Les foules venaient) "
"2027-12-13","Ste Lucie, martyre, †304 à Syracuse (Italie)","rouge","Nb 24,2-7.15-17a / Ps 25,4-10.14 / Mt 21,23-27 "
"2027-12-14","St Jean de la Croix (Juan de Yepes Álvarez), prêtre, docteur de l'Église, †1591 à Ubeda (Espagne)","blanc","So 3,1-2.9-13 / Ps 34,2-3.6-7.16.18-19.23 / Mt 21,28-32 "
"2027-12-15","De la férie","violet","Is 45,6b-8.18.21b-25 / Ps 85,9-14 / Lc 7,18b-23 "
"2027-12-16","De la férie","violet","Is 54,1-10 / Ps 30,2-6.9.12-13 / Lc 7,24-30 "
"2027-12-17","De la férie","violet","Gn 49,2.8-10 / Ps 72,1-4.7-8.17 / Mt 1,1-17 / Mt 2,1-12 (La visite des mages) "
"2027-12-18","De la férie","violet","Jr 23,5-8 / Ps 72,1-2.12-13.18-19 / Mt 1,18-24 "
"2027-12-19","4ème dimanche de l'Avent","violet","Mi 5,1-4 (Le Messie viendra de Bethléem) / Ps 80,2-3.15-16.18-19 (Fais-nous revenir à toi) / He 10,5-10 (Venu pour faire ta volonté) / Lc 1,39-45 (L'annonce à Elisabeth) "
"2027-12-20","De la férie","violet","Is 7,10-16 / Ps 24,1-6 / Lc 1,26-38 / Lc 1,39-45 (L'annonce à Elisabeth) "
"2027-12-21","[sauf Suisse] St Pierre Canisius, jésuite, docteur de l'Église, †1597 à Fribourg (Suisse)","violet","Ct 2,8-14 ou So 3,14-18a / Ps 33,2-3.11-12.20-21 / Lc 1,39-45 "
"2027-12-22","De la férie","violet","1S 1,24-2,1 / 1S 2,1.4-8 / Lc 1,46-56 / Lc 1,39-45 (L'annonce à Elisabeth) "
"2027-12-23","St Jean de Kenty, prêtre, †1473 à Cracovie (Pologne)","violet","Ml 3,1-4.23-24 / Ps 25,4-10.14 / Lc 1,57-66 / Lc 1,39-45 (L'annonce à Elisabeth) "
"2027-12-24","De la férie","violet","2S 7,1-5.8-12.14.16 / Ps 89,2-5.27.29 / Lc 1,67-79 / Lc 1,39-45 (L'annonce à Elisabeth) "
"2027-12-25","Nativité du Seigneur","blanc","Messe de la veille Is 62,1-5 (Tu seras la joie de ton Dieu) / Ps 89,4-5.16-17.27.29 / Ac 13,16-17.22-25 (Le témoignage de Paul au sujet du Christ, fils de David) / Mt 1,1-25 (Généalogie de Jésus, Christ, fils de David) / Messe de la nuit Is 9,1-6 (Un enfant nous est né) / Ps 96,1-3.11-13 / Tt 2,11-14 (La grâce de Dieu s’est manifestée pour tous les hommes) / Lc 2,1-14 (Aujourd’hui vous est né un Sauveur) / Messe de l'aurore Is 62,11-12 (Voici ton Sauveur qui vient) / Ps 97,1.6.11-12 / Tt 3,4-7 (Dieu nous a sauvés par sa miséricorde) / Lc 2,15-20 (Les bergers découvrirent Marie et Joseph, avec le nouveau-né) / Messe du jour Is 52,7-10 (Toutes les nations le verront) / Ps 98,1-6 (Il se souvient de son amour) / He 1,1-6 (Le Fils, révélation de Dieu) / Jn 1,1-18 (Le Verbe s'est fait chair) "
"2027-12-26","La Sainte Famille","blanc","1S 1,20-22.24-28 (L'enfant, don de Dieu) / Ps 84,3-6.9-10 (En ta demeure, toute paix) / 1Jn 3,1-2.21-24 (Dieu fait de nous ses enfants) / Lc 2,41-52 (Ses parents cherchent Jésus) "
"2027-12-27","St Jean, apôtre, †101 à Éphèse (Turquie)","blanc","1Jn 1,1-4 / Ps 97,1-2.5-6.11-12 / Jn 20,2-8 / Lc 1,39-45 (L'annonce à Elisabeth) "
"2027-12-28","Sts Innocents, enfants martyrs","rouge","1Jn 1,5-2,2 / Ps 124,2-8 / Mt 2,13-18 / Lc 1,39-45 (L'annonce à Elisabeth) "
"2027-12-29","St Thomas Becket, évêque de Cantorbéry, martyr, †1170 à Cantorbéry (Royaume-Uni)","rouge","1Jn 2,3-11 / Ps 96,1-3.5-6 / Lc 2,22-35 / Lc 1,39-45 (L'annonce à Elisabeth) "
"2027-12-30","6e jour dans l'octave de Noël","blanc","1Jn 2,12-17 / Ps 96,7-10 / Lc 2,36-40 / Lc 1,39-45 (L'annonce à Elisabeth) "
"2027-12-31","St Sylvestre I, pape, †335 à Rome (Italie)","blanc","1Jn 2,18-21 / Ps 96,1-2.11-13 / Jn 1,1-18 / Lc 1,39-45 (L'annonce à Elisabeth) "
"2028-01-01","Ste Marie, mère de Dieu","blanc","Nb 6,22-27 (Paix et bonheur) / Ps 67,2-3.5.7-8 (Que Dieu nous bénisse) / Ga 4,4-7 (Le Fils de Dieu né d'une femme) / Lc 2,16-21 (Jésus est fils de Marie) "
"2028-01-02","Epiphanie du Seigneur","blanc","Is 60,1-6 (Lève-toi, Jérusalem) / Ps 72,1-2.7-8.10-13 (Ton salut parmi toutes les nations) / Ep 3,2-3a.5-6 (L'appel universel au salut) / Mt 2,1-12 (La visite des mages) "
"2028-01-03","Le Saint Nom de Jésus, et [France] Ste Geneviève, †512 à Paris (France), et [Luxembourg] Ste Irmine d'Oeren, abesse, co-fondatrice de l'abbaye d'Echternach, †704 à Trèves (Allemagne)","blanc","1Jn 2,29-3,6 / Ps 98,1.3-6 / Jn 1,29-34 "
"2028-01-04","De la férie","blanc","1Jn 4,7-10 / Ps 72,1-4.7-8 / Mc 6,34-44 "
"2028-01-05","De la férie","blanc","1Jn 4,11-18 / Ps 72,1-2.10-13 / Mc 6,45-52 "
"2028-01-06","De la férie","blanc","1Jn 4,19-5,4 / Ps 72,1-2.14-15.17 / Lc 4,14-22a "
"2028-01-07","St Raymond de Penyafort, dominicain, canoniste et moraliste, †1275 à Barcelone (Espagne), et [Canada] St André Bessette, frère de la congrégation de Sainte-Croix, †1937 à Saint-Laurent (Canada)","blanc","1Jn 4,7-10 / Ps 72,1-4.7-8 / Mc 6,34-44 "
"2028-01-08","De la férie","blanc","1Jn 5,14-21 / Ps 149,1-6.9 / Jn 3,22-30 "
"2028-01-09","Baptême du Seigneur","blanc","Is 40,1-5.9-11 (La gloire du Seigneur se révélera) / Ps 104,1-4.24-25.27-30 (Tu renouvelles la face de la terre) / Tt 2,11-14;3,4-7 (Par le baptême il nous a fait renaître) / Lc 3,15-16.21-22 (Le Baptême de Jésus) "
"2028-01-10","De la férie","vert","1S 1,1-8 / Ps 116,12-14.17-19 / Mc 1,14-20 "
"2028-01-11","De la férie","vert","1S 1,9-20 / 1S 2,1.4-8 / Mc 1,21-28 "
"2028-01-12","[Canada] Ste Marguerite Bourgeoys, fondatrice de la Congrégation de Notre-Dame de Montréal, †1700 à Ville-Marie (Canada)","blanc","1S 3,1-10.19-4,1a / Ps 40,2.5.7-10 / Mc 1,29-39 "
"2028-01-13","St Hilaire, évêque de Poitiers, docteur de l'Église, †367 à Poitiers (France)","blanc","1S 4,1c-11 / Ps 44,10-11.14-15.24-25 / Mc 1,40-45 "
"2028-01-14","De la férie","vert","1S 8,4-7.10-22a / Ps 89,16-19 / Mc 2,1-12 "
"2028-01-15","[France] St Remi, évêque de Reims, †530 à Reims (France)","blanc","1S 9,1-4.17-19a;10,1 / Ps 21,2-7 / Mc 2,13-17 "
"2028-01-16","2ème dimanche du temps ordinaire","vert","Is 62,1-5 (Les noces de Dieu avec son peuple) / Ps 96,1-3.7-10 (Chantez au Seigneur, terre entière) / 1Co 12,4-11 (L'unité dans l'Esprit) / Jn 2,1-12 (Les noces de Cana) "
"2028-01-17","St Antoine le Grand, fondateur de l'érémitisme, †356 à Zafarana (Égypte)","blanc","1S 15,16-23 / Ps 50,7-8.16-17.21.23 / Mc 2,18-22 "
"2028-01-18","De la férie","vert","1S 16,1-13 / Ps 89,20-21.25.27-29 / Mc 2,23-28 "
"2028-01-19","De la férie","vert","1S 17,32-33.37.40-51 / Ps 144,1-2.9-10 / Mc 3,1-6 "
"2028-01-20","St Fabien, pape, martyr, †250 à Rome (Italie) et St Sébastien, officier de l'armée de Dioclétian, martyr, †284 à Rome (Italie)","rouge","1S 18,6-9;19,1-7 / Ps 56,2-3.7.9-12.14 / Mc 3,7-12 "
"2028-01-21","Ste Agnès, martyre, †305 à Rome (Italie)","rouge","1S 24,3-21 / Ps 57,2-4.6.11 / Mc 3,13-19 "
"2028-01-22","St Vincent, diacre, martyr, †304 à Valence (Espagne)","rouge","2S 1,1-4.11-12.19.23-27 / Ps 80,2-3.5-7 / Mc 3,20-21 "
"2028-01-23","3ème dimanche du temps ordinaire","vert","Ne 8,1-4a.5-6.8-10 (La redécouverte de la Parole de Dieu) / Ps 19,8-10.15 (La loi du Seigneur) / 1Co 12,12-30 (Nous sommes un seul corps) / Lc 1,1-4;4,14-21 (Le Christ envoyé de Dieu) "
"2028-01-24","St François de Sales, évêque de Genève, docteur de l'Église, †1622 à Lyon (France)","blanc","2S 5,1-7.10. / Ps 89,20-22.25-26 / Mc 3,22-30 "
"2028-01-25","Conversion de St Paul","blanc","Ac 22,3-16 ou Ac 9,1-22 / Ps 117,1-2 / Mc 16,15-18 "
"2028-01-26","St Timothée, évêque d'Éphèse, †97 à Éphèse (Turquie), et St Tite, évêque de Cnossos, †105 à Gortyne (Crète)","blanc","2Tm 1,1-8 (Ta foi sincère) ou Tt 1,1-5 (Tite, mon enfant selon la foi qui nous est commune) / Mc 4,1-20 "
"2028-01-27","Ste Angèle Merici, fondatrice des Ursulines, †1540 à Brescia (Italie)","blanc","2S 7,18-19.24-29 / Ps 132,1-5.11-14 / Mc 4,21-25 "
"2028-01-28","St Thomas d'Aquin, dominicain, docteur de l'Église, †1274 à Fossanova (Italie)","blanc","2S 11,1-10.13-17 / Ps 51,3-7.10-11 / Mc 4,26-34 "
"2028-01-29","De la férie","vert","2S 21,1-7a.10-17 / Ps 51,12-17 / Mc 4,35-41 "
"2028-01-30","4ème dimanche du temps ordinaire","vert","Jr 1,1.4-5.17-19 (La force du prophète) / Ps 71,5-8.15.17.19 (Tu m'as choisi) / 1Co 12,31-13,13 (Hymne à la charité) / Lc 4,21-30 (Jésus mal reçu dans son pays) "
"2028-01-31","St Jean Bosco, fondateur des Salésiens, †1888 à Turin (Italie)","blanc","2S 15,13-14.30;16,5-13 / Ps 3,2-7 / Mc 5,1-20 "
"2028-02-01","De la férie","vert","2S 18,9-10.14.24-25.30-32;19,1-4 / Ps 86,1-6 / Mc 5,21-43 "
"2028-02-02","Présentation du Seigneur","blanc","Ml 3,1-4 (Le Seigneur vient dans son temple) ou He 2,14-18 (Il lui fallait se rendre en tout semblable à ses frères) / Ps 24,7-10 (L'entrée du Roi) / Lc 2,22-40 (La présentation au temple) "
"2028-02-03","St Blaise, évêque de Sivas, martyr, †316 à Sivas (Turquie), et St Anschaire, moine, évêque de Hambourg, †865 à Brême (Allemagne)","rouge~blanc","1R 2,1-4.10-12 / 1Ch 29,10-12 / Mc 6,7-13 "
"2028-02-04","De la férie","vert","Si 47,2-11 / Ps 18,31.33.47.50.32.51 / Mc 6,14-29 "
"2028-02-05","Ste Agathe, martyre, †251 à Catane (Italie)","rouge","1R 3,4-13 / Ps 119,9-14 / Mc 6,30-34 "
"2028-02-06","5ème dimanche du temps ordinaire","vert","Is 6,1-2a.3-8 (La vocation d'Isaïe) / Ps 138,1-5.7-8 (Saint est le Seigneur) / 1Co 15,1-11 (Le credo de saint Paul) / Lc 5,1-11 (Pêcheurs d 'hommes) "
"2028-02-07","[Belgique] St Paul Miki, jésuite, et ses compagnons, †1597 à Nagasaki (Japon)","rouge","1R 8,1-7.9-13 / Ps 132,1.2.4-5.7-10 / Mc 6,53-56 "
"2028-02-08","St Jérôme Emilien, fondateur des Clercs Réguliers de Somasque, †1537 à Bergame (Italie), et Ste Joséphine Bakhita, esclave au Soudan, †1947 à Schio (Italie)","blanc","1R 8,22-23.27-30 / Ps 84,3-5.10-11 / Mc 7,1-13 "
"2028-02-09","De la férie","vert","1R 10,1-10 / Ps 37,5-6.30-31.39-40 / Mc 7,14-23 "
"2028-02-10","Ste Scolastique, moniale, †543 à Montecassino (Italie)","blanc","1R 11,4-13 / Ps 106,3-4.6.35-37.39-40 / Mc 7,24-30 "
"2028-02-11","Notre Dame de Lourdes","blanc","1R 11,29-32;12,19 / Ps 81,10-15 / Mc 7,31-37 "
"2028-02-12","De la férie","vert","1R 12,26-32;13,33-34 / Ps 106,6-7.19-22 / Mc 8,1-10 "
"2028-02-13","6ème dimanche du temps ordinaire","vert","Jr 17,5-8 (Malédictions et bénédictions) / Ps 1,1-4.6 (Heureux l'homme) / 1Co 15,12.16-20 (La résurrection des morts) / Lc 6,17.20-26 (Heureux, malheureux) "
"2028-02-14","St Cyrille, moine, †869 à Rome (Italie), et St Méthode, évêque de Sirmium, †885 à Velehrad (Tchéquie)","blanc","Jc 1,1-11 / Ps 119,67-68.71-72.75-76 / Mc 8,11-13 "
"2028-02-15","De la férie","vert","Jc 1,12-18 / Ps 94,12-15.18-19 / Mc 8,14-21 "
"2028-02-16","De la férie","vert","Jc 1,19-27 / Ps 15,1-5 / Mc 8,22-26 "
"2028-02-17","Sept Sts fondateurs de l'ordre des Servites, †14e siècle à Florence (Italie)","blanc","Jc 2,1-9 / Ps 34,2-7 / Mc 8,27-33 "
"2028-02-18","Ste Bernadette Soubirous, religieuse, †1879 à Nevers (France)","blanc","Jc 2,14-24.26 / Ps 112,1-6 / Mc 8,34-9,1 "
"2028-02-19","De la férie","vert","Jc 3,1-10 / Ps 12,2-5.7-8 / Mc 9,2-13 "
"2028-02-20","7ème dimanche du temps ordinaire","vert","1S 26,2.7-9.12-13.22-23 (David refuse de se venger) / Ps 103,1-4.8.10.12-13 (Le Seigneur pardonne toutes tes offenses) / 1Co 15,45-49 (Le Christ nouvel Adam) / Lc 6,27-38 (La loi du pardon) "
"2028-02-21","St Pierre Damien, évêque d'Ostie, docteur de l'Église, †1072 à Faenza (Italie)","blanc","Jc 3,13-18 / Ps 19,8-10.15 / Mc 9,14-29 "
"2028-02-22","Chaire de St Pierre","blanc","1P 5,1-4 / Ps 23,1-6 / Mt 16,13-19 "
"2028-02-23","St Polycarpe, évêque d'Izmir, martyr, †155 à Izmir (Turquie) ","rouge","Jc 4,13-17 / Ps 49,2-3.6-11 / Mc 9,38-40 "
"2028-02-24","[Luxembourg] St Matthias, apôtre, martyr, †63 à Jérusalem (État de Palestine / Israël)","rouge","Ac 1,15-17.20-26 / Ps 113,1-8 / Jn 15,9-17 "
"2028-02-25","De la férie","vert","Jc 5,9-12 / Ps 103,1-4.8-9.11-12 / Mc 10,1-12 "
"2028-02-26","De la férie","vert","Jc 5,13-20 / Ps 141,1-3.8 / Mc 10,13-16 "
"2028-02-27","8ème dimanche du temps ordinaire","vert","Si 27,4-7 (La parole révèle l'homme) / Ps 92,2-3.13-16 (Le juste grandira) / 1Co 15,54-58 (La victoire sur la mort) / Lc 6,39-45 (L'aveugle, la poutre, l'arbre) "
"2028-02-28","De la férie","vert","1P 1,3-9 / Ps 111,1-2.5-6.9-10 / Mc 10,17-27 "
"2028-02-29","De la férie","vert","1P 1,10-16 / Ps 98,1-4 / Mc 10,28-31 "
"2028-03-01","Cendres","violet","Jl 2,12-18 (Appel à la pénitence) / Ps 51,3-6.12-14.17 (Pitié, Seigneur) / 2Co 5,20-6,2 (Laissez-vous réconcilier avec Dieu) / Mt 6,1-6.16-18 (L'aumône, la prière et le jeûne) "
"2028-03-02","Férie","violet","Dt 30,15-20 / Ps 1,1-6 / Lc 9,22-25 "
"2028-03-03","Férie","violet","Is 58,1-9 / Ps 51,3-6.18-19 / Mt 9,14-15 "
"2028-03-04","St Casimir, prince de Lituanie, †1484 à Hrodna (Bélarus)","violet","Is 58,9b-14 / Ps 86,1-6 / Lc 5,27-32 "
"2028-03-05","1er dimanche de Carême","violet","Dt 26,4-10 (La foi du peuple sauvé) / Ps 91,1-2.10-15 (La confiance dans l'épreuve) / Rm 10,8-13 (La foi en Jésus Christ) / Lc 4,1-13 (Le jeûne et la tentation de Jésus) "
"2028-03-06","Férie","violet","Lv 19,1-2.11-18 / Ps 19,8-10.15 / Mt 25,31-46 "
"2028-03-07","Stes Perpétue et Félicité, martyres, †203 à Carthage (Tunisie)","violet","Is 55,10-11 / Ps 34,4-7.16-19 / Mt 6,7-15 "
"2028-03-08","St Jean de Dieu (João Cidade), fondateur des Frères Hospitaliers, †1550 à Grenade (Espagne)","violet","Jon 3,1-10 / Ps 51,3-4.12-13.18-19 / Lc 11,29-32 "
"2028-03-09","Ste Françoise Romaine (Francesca Bussa de'Buxis de'Leoni), religieuse, †1440 à Rome (Italie)","violet","Est 4,17l-z (14,1.3-5.12-14) / Ps 138,1-3.7-8 / Mt 7,7-12 "
"2028-03-10","Férie","violet","Ez 18,21-28 / Ps 130,1-8 / Mt 5,20-26 "
"2028-03-11","Férie","violet","Dt 26,16-19 / Ps 119,1-2.4-5.7-8 / Mt 5,43-48 "
"2028-03-12","2ème dimanche de Carême","violet","Gn 15,5-12.17-18 (L'Alliance avec Dieu) / Ps 27,1.7-9.13-14 (Ma lumière et mon salut) / Ph 3,17-4,1 (Le Christ nous transfigurera) / Lc 9,28b-36 (La transfiguration) "
"2028-03-13","Férie","violet","Dn 9,4-10 / Ps 79,5.8-9.11.13 / Lc 6,36-38 "
"2028-03-14","Férie","violet","Is 1,10.16-20 / Ps 50,7-8.13-14.16-17.21.23 / Mt 23,1-12 "
"2028-03-15","[France] Ste Louise de Marillac, fondatrice des Filles de la Charité, †1660 à Paris (France)","violet","Jr 18,18-20 / Ps 31,5-6.14-16 / Mt 20,17-28 "
"2028-03-16","Férie","violet","Jr 17,5-10 / Ps 1,1-6 / Lc 16,19-31 "
"2028-03-17","St Patrick, évêque d'Armagh, †461 à Downpatrick (Royaume-Uni)","violet","Gn 37,3-4.12-13a.17b-28 / Ps 105,4-6.16-21 / Mt 21,33-43.45-46 "
"2028-03-18","St Cyrille, évêque de Jérusalem, docteur de l'Église, †386 à Jérusalem (État de Palestine / Israël)","violet","Mi 7,14-15.18-20 / Ps 103,1-4.9-12 / Lc 15,1-3.11-32 "
"2028-03-19","3ème dimanche de Carême","violet","Ex 3,1-8a.13-15 (Le buisson ardent) / Ps 103,1-4.6-8.11 (Dieu révèle ses desseins à Moïse) / 1Co 10,1-6.10-12 (Les leçons de l'Exode) / Lc 13,1-9 (Le figuier stérile) "
"2028-03-20","St Joseph, époux de la vierge Marie","blanc","2S 7,4-5.12-14.16 (Un fils de David) / Ps 89,2-5.27.29 (La promesse de Dieu) / Rm 4,13.16-18.22 (La descendance d'Abraham) / Mt 1,16.18-21.24a (Grâce à Joseph, Jésus sera reconnu comme fils de David) ou Lc 2,41-51a (Vois comme ton père et moi, nous avons souffert en te cherchant) "
"2028-03-21","Férie","violet","Dn 3,25.34-43 / Ps 25,4-10.14 / Mt 18,21-35 "
"2028-03-22","Férie","violet","Dt 4,1.5-9 / Ps 147,12-13.15-16.19-20 / Mt 5,17-19 "
"2028-03-23","St Turibio de Mogrovejo, évêque de Lima, †1606 à Lima (Pérou)","violet","Jr 7,23-28 / Ps 95,1-2.6-9 / Lc 11,14-23 "
"2028-03-24","Férie","violet","Os 14,2-10 / Ps 81,7-12.14.17 / Mc 12,28-34 "
"2028-03-25","Annonciation du Seigneur","blanc","Is 7,10-14;8,10 (On l'appellera Dieu avec nous) / Ps 40,7-11 (Voici, je viens) / He 10,4-10 (Le Christ entrant dans le monde) / Lc 1,26-38 (Il sera appelé Fils de Dieu) "
"2028-03-26","4ème dimanche de Carême","violet","Jos 5,10-12 (L'arrivée en terre promise) / Ps 34,2-7 (Comme est bon le Seigneur) / 2Co 5,17-21 (Réconciliés avec Dieu par le Christ) / Lc 15,1-3.11-32 (Un fils prodigue, son père, son frère aîné) "
"2028-03-27","Férie","violet","Is 65,17-21 / Ps 30,2-6.9.12-13 / Jn 4,43-54 "
"2028-03-28","Férie","violet","Ez 47,1-9.12 / Ps 46,2-3.5-6.8-10 / Jn 5,1-16 "
"2028-03-29","Férie","violet","Is 49,8-15 / Ps 145,8-9.13-14.17-18 / Jn 5,17-30 "
"2028-03-30","Férie","violet","Ex 32,7-14 / Ps 106,4.6.19-23 / Jn 5,31-47 "
"2028-03-31","Férie","violet","Sg 2,1.12-22 / Ps 34,17-21.23 / Jn 7,2.10.14.25-30 "
"2028-04-01","Férie","violet","Jr 11,18-20 / Ps 7,2-3.9-12.18 / Jn 7,40-53 "
"2028-04-02","5ème dimanche de Carême","violet","Is 43,16-21 (Des fleuves dans le désert) / Ps 126,1-6 (Le Seigneur fit pour nous des merveilles) / Ph 3,8-14 (Renoncer à tout pour le Christ) / Jn 8,1-11 (La femme adultère pardonnée) "
"2028-04-03","Férie","violet","Dn 13,1-9.15-17.19-30.32-62 / Ps 23,1-6 / Jn 8,1-11 "
"2028-04-04","St Isidore, évêque de Séville, docteur de l'Église, †636 à Séville (Espagne)","violet","Nb 21,4b-9 / Ps 102,2-3.16-21 / Jn 8,21-30 "
"2028-04-05","St Vincent Ferrier, dominicain, †1419 à Vannes (France)","violet","Dn 3,14-20.91-92.95 / Dn 3,52-56 / Jn 8,31-42 "
"2028-04-06","Férie","violet","Gn 17,3-9 / Ps 105,4-9 / Jn 8,51-59 "
"2028-04-07","St Jean-Baptiste de La Salle, fondateur des Frères des Écoles Chrétiennes, †1719 à Rouen (France)","violet","Jr 20,10-13 / Ps 18,2-3.5-7 / Jn 10,31-42 "
"2028-04-08","Férie","violet","Ez 37,21-28 / Jr 31,10-13 / Jn 11,45-57 "
"2028-04-09","Dimanche des Rameaux et de la Passion","rouge","Rameaux Lc 19,28-40 (Entrée du Seigneur dans Jérusalem) / Messe Is 50,4-7 (Le Serviteur de Dieu devant la souffrance) / Ps 22,8-9.17-20.22-24 (Pourquoi m'as-tu abandonné) / Ph 2,6-11 (La croix et la gloire du Christ) / Lc 22,14-23,56 (La Passion) "
"2028-04-10","Lundi saint","violet","Is 42,1-7 / Ps 27,1-3.13-14 / Jn 12,1-11 "
"2028-04-11","Mardi saint","violet","Is 49,1-6 / Ps 71,1-3.5-6.15.17 / Jn 13,21-33.36-38 "
"2028-04-12","Mercredi saint","violet","Is 50,4-9a / Ps 69,8-10.21-22.31.33-34 / Mt 26,14-25 "
"2028-04-13","Jeudi saint","blanc","Messe chrismale Is 61,1-3a.6a.8b-9 / Ps 89,20-22.25.27.29 / Ap 1,5-8 / Lc 4,16-21 / Messe Ex 12,1-8.11-14 (Le sacrifice de l'agneau pascal) / Ps 116,12-13.15-18 (L'action de grâce au Seigneur) / 1Co 11,23-26 (Le repas du Seigneur) / Jn 13,1-15 (Le lavement des pieds) "
"2028-04-14","Vendredi saint","rouge","Is 52,13-53,12 (Le Serviteur souffrira) / Ps 31,2.6.12-17.25 (En tes mains, je remets mon esprit) / He 4,14-16;5,7-9 (Jésus, notre grand prêtre) / Jn 18,1-19,42 (La Passion) "
"2028-04-15","Samedi saint","blanc","Vigile pascale Gn 1,1-2,2 (Dieu vit tout ce qu’il avait fait) / Ps 104,1-2a.5-6.10.12-14ab.24.35c ou bien Ps 33,4-7.12-13.20.22 / Gn 22,1-18 (Sacrifice et délivrance d’Isaac) / Ps 16,5.8-11 / Ex 14,15-15.1a (Les fils d’Israël avaient marché à pied sec au milieu de la mer) / Ex 15,1b.2-6.17-18 / Is 54,5-14 (Le Seigneur a pitié de toi) / Ps 30,3-6.12-13 / Is 55,1-11 (Venez à moi, et vous vivrez) / Is 12,2.4bcd-6 / Ba 3,9-15.32-4,4 (Marche vers la splendeur du Seigneur) / Ps 19,8-11 / Ez 36,16-17a.18-28 (Je répandrai sur vous une eau pure) / Ps 42,3.5efgh;42,3.4 ou bien Ps 51,12-15.18-19 ou bien si baptême Is 12,2-6 / Rm 6,3b-11 (Ressuscité d’entre les morts, le Christ ne meurt plus) / Ps 118,1.2.16-17.22-23 / Lc 24,1-12 (Pourquoi chercher le Vivant parmi les morts ?) "
"2028-04-16","Pâques, dimanche de la résurrection","blanc","Ac 10,34a.37-43 (Les apôtres témoins de la Résurrection) / Ps 118,1-4.16-17.22-23 (Ce jour de joie) / Col 3,1-4 (Ressuscités avec Christ) ou 1Co 5,6b-8 (Purifiez-vous des vieux ferments) / Jn 20,1-9 (Le tombeau vide) ou le soir Lc 24,13-35 (Reste avec nous car le soir approche) "
"2028-04-17","Lundi de Pâques","blanc","Ac 2,14.22b-32 / Ps 16,1-2a.5.7-10.2b.11 / Mt 28,8-15 "
"2028-04-18","Mardi de Pâques","blanc","Ac 2,36-41 / Ps 33,4-5.18-20.22 / Jn 20,11-18 "
"2028-04-19","Mercredi de Pâques","blanc","Ac 3,1-10 / Ps 105,1-4.6-9 / Lc 24,13-35 "
"2028-04-20","Jeudi de Pâques","blanc","Ac 3,11-26 / Ps 8,4-9 / Lc 24,35-48 "
"2028-04-21","Vendredi de Pâques","blanc","Ac 4,1-12 / Ps 118,1-2.4.22-26 / Jn 21,1-14 "
"2028-04-22","Samedi de Pâques","blanc","Ac 4,13-21 / Ps 118,1.14-21 / Mc 16,9-15 "
"2028-04-23","2ème dimanche de Pâques","blanc","Ac 5,12-16 (La communauté des premiers chrétiens) / Ps 118,1-4.22-27.29 (Éternel est son amour) / Ap 1,9-11a.12-13.17-19 (Me voici vivant pour les siècles) / Jn 20,19-31 (Thomas, le huitième jour) "
"2028-04-24","St Fidèle de Sigmaringen, capucin, martyr, †1622 à Seewis (Suisse)","rouge","Ac 4,23-31 / Ps 2,1-9 / Jn 3,1-8 "
"2028-04-25","St Marc, évangéliste, martyr, †68 à Alexandrie (Égypte)","rouge","1P 5,5b-14 / Ps 89,2-3.6-7.16-17 / Mc 16,15-20 "
"2028-04-26","Férie","blanc","Ac 5,17-26 / Ps 34,2-9 / Jn 3,16-21 "
"2028-04-27","[Suisse] St Pierre Canisius, jésuite, docteur de l'Église, †1597 à Fribourg (Suisse)","blanc","Ac 5,27-33 / Ps 34,2.9.17-20 / Jn 3,31-36 "
"2028-04-28","St Pierre Chanel, mariste, martyr, †1841 à Wallis-et-Futuna (France), St Louis Marie Grignion de Montfort, prêtre, †1716 à Saint-Laurent-sur-Sèvre (France)","rouge~blanc","Ac 5,34-42 / Ps 27,1.4.13-14 / Jn 6,1-15 "
"2028-04-29","Ste Catherine de Sienne (Caterina Benincasa), tertiaire dominicaine, docteur de l'Église, †1380 à Rome (Italie)","blanc","Ac 6,1-7 / Ps 33,1-2.4-5.18-19 / Jn 6,16-21 "
"2028-04-30","3ème dimanche de Pâques","blanc","Ac 5,27b-32.40b-41 (Les apôtres persécutés) / Ps 30,3-6.12-13 (Toi qui me relèves) / Ap 5,11-14 (Gloire à l'Agneau immolé) / Jn 21,1-19 (La pêche miraculeuse) "
"2028-05-01","St Joseph, travailleur","blanc","Ac 6,8-15 / Ps 119,23-24.26-27.29-30 / Mt 13,54-58 (Le fils du charpentier) "
"2028-05-02","St Athanase, évêque d'Alexandrie, docteur de l'Église, †373 à Alexandrie (Égypte)","blanc","Ac 7,51-8,1a / Ps 31,3.4.6.8-9.17-20 / Jn 6,30-35 "
"2028-05-03","St Philippe, apôtre, martyr, †80 à Pamukkale (Turquie), et St Jacques le Mineur, apôtre, †62 à Jérusalem (État de Palestine / Israël)","rouge","1Co 15,1-8 / Ps 19,2-5 / Jn 14,6-14 "
"2028-05-04","Férie","blanc","Ac 8,26-40 / Ps 66,5.8-9.16-17.20 / Jn 6,44-51 "
"2028-05-05","Férie","blanc","Ac 9,1-20 / Ps 117,1-2 / Jn 6,52-59 "
"2028-05-06","[Canada] St François de Montmorency-Laval, évêque de Québec, †1708 à Québec (Canada)","blanc","Ac 9,31-42 / Ps 116,12-17 / Jn 6,60-69 "
"2028-05-07","4ème dimanche de Pâques","blanc","Ac 13,14.43-52 (L'Evangile reçu par les paiens) / Ps 100,1-3.5 (Nous sommes son troupeau) / Ap 7,9.14b-17 (Le Christ, pasteur et agneau) / Jn 10,27-30 (Le Bon Pasteur) "
"2028-05-08","Férie","blanc","Ac 11,1-18 / Ps 42,2-3;42,3-4 / Jn 10,1-10 "
"2028-05-09","Férie","blanc","Ac 11,19-26 / Ps 87,1.5c.2-3.5a.5b.6-7 / Jn 10,22-30 "
"2028-05-10","[Belgique]St Père Damien (Jef de Veuster), picpucien, †1889 à Kalawao (États-Unis)","blanc","Ac 12,24-13,5 / Ps 67,2-3.5-6.8 / Jn 12,44-50 "
"2028-05-11","Férie","blanc","Ac 13,13-25 / Ps 89,2-3.21-22.25-27 / Jn 13,16-20 "
"2028-05-12","St Nérée, St Achille et St Pancrace, martyrs, †304 à Rome (Italie)","rouge","Ac 13,26-33 / Ps 2,1.7-11 / Jn 14,1-6 "
"2028-05-13","Notre Dame de Fatima","blanc","Ac 13,44-52 / Ps 98,1-4 / Jn 14,7-14 "
"2028-05-14","5ème dimanche de Pâques","blanc","Ac 14,21b-27 (Annoncer partout l'Evangile) / Ps 145,8-13 (La gloire de ton règne) / Ap 21,1-5a (Un ciel nouveau, une terre nouvelle) / Jn 13,31-33a.34-35 (Le commandement nouveau) "
"2028-05-15","Férie","blanc","Ac 14,5-18 / Ps 115,1-4.15-16 / Jn 14,21-26 "
"2028-05-16","Férie","blanc","Ac 14,19-28 / Ps 145,10-13.3a.21 / Jn 14,27-31a "
"2028-05-17","Férie","blanc","Ac 15,1-6 / Ps 122,1-5 / Jn 15,1-8 "
"2028-05-18","St Jean I, pape, martyr, †526 à Ravenna (Italie)","rouge","Ac 15,7-21 / Ps 96,1-3.10 / Jn 15,9-11 "
"2028-05-19","[France] St Yves de Tréguier (Erwan Helouri a Gervarzhin), prêtre, †1303 à Trégor (France)","blanc","Ac 15,22-31 / Ps 57,8-12 / Jn 15,12-17 "
"2028-05-20","St Bernardin, franciscain, †1444 à L'Aquila (Italie)","blanc","Ac 16,1-10 / Ps 100,1-3.5 / Jn 15,18-21 "
"2028-05-21","6ème dimanche de Pâques","blanc","Ac 15,1-2.22-29 (Accueillir dans l'Eglise) / Ps 67,2-3.5.7-8 (Que les peuples t'acclament) / Ap 21,10-14.22-23 (La Jérusalem éternelle) / Jn 14,23-29 (La promesse de l'Esprit) "
"2028-05-22","Ste Margherite Lotti, augustine, †1453 à Cascia (Italie)","blanc","Ac 16,11-15 / Ps 149,1-6.9 / Jn 15,26-16,4 "
"2028-05-23","Férie","blanc","Ac 16,22-34 / Ps 138,1-3.7-8 / Jn 16,5-11 "
"2028-05-24","Férie","blanc","Ac 17,15.22-18,1 / Ps 148,1-2.11-14 / Jn 16,12-15 "
"2028-05-25","Ascension","blanc","Ac 1,1-11 (L'Ascension du Seigneur) / Ps 47,2-6.6-9 (Au-dessus de tous) / He 9,24-28;10,19-23 (Le Christ est entré dans le Sanctuaire) / Lc 24,46-53 (L'Ascension du Seigneur) "
"2028-05-26","St Philippe Néri, fondateur de l'Oratoire, †1595 à Rome (Italie)","blanc","Ac 18,9-18 / Ps 47,2-7 / Jn 16,20-23a "
"2028-05-27","St Augustin, évêque de Cantorbéry, †605 à Cantorbéry (Royaume-Uni)","blanc","Ac 18,23-28 / Ps 47,2-3.8-10 / Jn 16,23b-28 "
"2028-05-28","7ème dimanche de Pâques","blanc","Ac 7,55-60 (Le premier martyr) / Ps 97,1-2.6-7.9 (La gloire du Seigneur) / Ap 22,12-14.16-20 (Viens, Seigneur Jésus) / Jn 17,20-26 Jésus prie pour l'unité) "
"2028-05-29","Férie","blanc","Ac 19,1-8 / Ps 68,2-7.36 / Jn 16,29-33 "
"2028-05-30","[France] Ste Jeanne d'Arc, †1431 à Rouen (France)","blanc","Ac 20,17-27 / Ps 68,10-11.20-21 / Jn 17,1-11a "
"2028-05-31","Visitation de la Vierge Marie","blanc","Rm 12,9-16b / Is 12,2.4-6 / Lc 1,39-56 "
"2028-06-01","St Justin, philosophe, martyr, †165 à Rome (Italie)","rouge","Ac 22,30;23,6-11 / Ps 16,1-2a.5.7-10.2b.11 / Jn 17,20-26 "
"2028-06-02","St Marcellin, St Pierre, martyrs, †304 à Rome (Italie), et St Pothin, évêque, Ste Blandine et leurs compagnons, martyrs, †177 à Lyon (France)","rouge","Ac 25,13-21 / Ps 103,1-2.11-12.19-20 / Jn 21,15-19 "
"2028-06-03","St Charles Lwanga et ses compagnons, martyrs, †1886 à Namugongo (Ouganda)","rouge","Ac 26,16-20.23-24.28-31 / Ps 11,4-5.7 / Jn 21,20-25 "
"2028-06-04","Pentecôte","rouge","Ac 2,1-11 (La venue du Saint-Esprit) / Ps 104,1.24.29-31.34 (Tu renouvelles la face de la terre) / Rm 8,8-17 (L'Esprit fait de nous des fils) / Jn 14,15-16.23b-26 (L'Esprit vous enseignera tout) "
"2028-06-05","Vierge Marie, Mère de l'Église","blanc","Gn 3,9-15.20 / Ac 1,12-14 / Jn 19,25-34 "
"2028-06-06","St Norbert de Xanten, évêque de Magdebourg, fondateur des Prémontrés, †1134 à Magdebourg (Allemagne)","blanc","2P 3,12-15.17-18 / Ps 90,2-4.10.14.16 / Mc 12,13-17 "
"2028-06-07","De la férie","vert","2Tm 1,1-3.6-12 / Ps 123,1-2 / Mc 12,18-27 "
"2028-06-08","De la férie","vert","2Tm 2,8-15 / Ps 25,4-5.8-10.14 / Mc 12,28-34 "
"2028-06-09","St Éphrem, diacre, docteur de l'Église, †373 à Şanlıurfa (Turquie)","blanc","2Tm 3,10-17 / Ps 118,157.160.161.165.166.168 / Mc 12,35-37 "
"2028-06-10","De la férie","vert","2Tm 4,1-8 / Ps 71,8-9.14-17.22 / Mc 12,38-44 "
"2028-06-11","Sainte Trinité","blanc","Pr 8,22-31 (La Sagesse est auprès de Dieu) / Ps 8,4-9 (Qu'il est grand, ton nom) / Rm 5,1-5 (L'Esprit dans nos coeurs) / Jn 16,12-15 (L'Esprit du Père et du Fils nous instruira) "
"2028-06-12","De la férie","vert","1R 17,1-6 / Ps 121,1-8 / Mt 5,1-12 "
"2028-06-13","St Antoine de Padoue (Fernando Martins de Bulhões), franciscain, docteur de l'Église, †1231 à Padoue (Italie)","blanc","1R 17,7-16 / Ps 4,2-5.7-9 / Mt 5,13-16 "
"2028-06-14","De la férie","vert","1R 18,20-39 / Ps 16,1-5.8-9.11 / Mt 5,17-19 "
"2028-06-15","De la férie","vert","1R 18,41-46 / Ps 65,10-13 / Mt 5,20-26 "
"2028-06-16","De la férie","vert","1R 19,9a.11-16 / Ps 27,7-9.13-14 / Mt 5,27-32 "
"2028-06-17","De la férie","vert","1R 19,16b.19-21 / Ps 16,1-2.5.7-10 / Mt 5,33-37 "
"2028-06-18","Saint Sacrement","blanc","Gn 14,18-20 (L'offrande de Melkisédek) / Ps 110,1-4 (Tu es prêtre selon Melkisédek) / 1Co 11,23-26 (Le repas du Seigneur) / Lc 9,11b-17 (La multiplication des pains) "
"2028-06-19","St Romuald, fondateur des Camaldules, †1027 à Val di Castro (Italie)","blanc","1R 21,1-16 / Ps 5,2-3.5-7 / Mt 5,38-42 "
"2028-06-20","De la férie","vert","1R 21,17-29 / Ps 51,3-6.11.16 / Mt 5,43-48 "
"2028-06-21","St Louis de Gonzague, religieux jésuite, †1591 à Rome (Italie)","blanc","2R 2,1-14 / Ps 31,20-21.24-25 / Mt 6,1-6.16-18 "
"2028-06-22","St Jean Fisher, évêque de Rochester, martyr, †1535 à Londres (Royaume-Uni), et St Thomas More, chancelier d'Angleterre, martyr, †1535 à Londres (Royaume-Uni), et St Paulin, évêque de Nole, †431 à Nole (Italie)","rouge~blanc","Si 48,1-14 / Ps 97,1-7.10 / Mt 6,7-15 "
"2028-06-23","Sacré-Coeur de Jésus","blanc","Ez 34,11-16 (L'amour du Seigneur pour son troupeau) / Ps 23,1-6 (Il me guide et me rassure) / Rm 5,5b-11 (La preuve que Dieu nous aime) / Lc 15,3-7 (La brebis retrouvée) "
"2028-06-24","Nativité de St Jean Baptiste","blanc","Is 49,1-6 (Le Seigneur m'a appelé) / Ps 139,1-3.13-15 (Dès le sein de ma mère) / Ac 13,22-26 (Pour préparer la venue de Jésus) / Lc 1,57-66.80 (Dieu a choisi mon nom) "
"2028-06-25","12ème dimanche du temps ordinaire","vert","Za 12,10-11;13,1 (Ils lèveront les yeux vers Lui) / Ps 63,2-6.8-9 (Levons les yeux vers le Seigneur) / Ga 3,26-29 (Notre foi nous fait surmonter nos différences) / Lc 9,18-24 (La profession de foi de Pierre) "
"2028-06-26","De la férie","vert","2R 17,5-8.13-15.18 / Ps 60,3-6.13-14 / Mt 7,1-5 "
"2028-06-27","St Cyrille, évêque d'Alexandrie, docteur de l'Église, †444 à Alexandrie (Égypte)","blanc","2R 19,9-11.14-21.31-36 / Ps 48,2-4.10-11 / Mt 7,6.12-14 "
"2028-06-28","St Irénée, évêque de Lyon, martyr, †202 à Lyon (France)","rouge","2R 22,8.10-13;23,1-3 / Ps 119,33-37.40 / Mt 7,15-20 "
"2028-06-29","St Pierre, apôtre, martyr, †64 à Rome (Italie), et St Paul, martyr, †67 à Rome (Italie)","rouge","Ac 12,1-11 (Pierre est délivré) / Ps 34,2-9 (Dieu délivre ses amis) / 2Tm 4,6-8.16-18 (La confiance de Paul) / Mt 16,13-19 (La foi de Pierre) "
"2028-06-30","Sts premiers martyrs de l'Église, †64 à Rome (Italie)","rouge","2R 25,1-12 / Ps 137,1-6 / Mt 8,1-4 "
"2028-07-01","De la férie","vert","Lm 2,2.10-14.18-19 / Ps 74,1-7.19-20.22 / Mt 8,5-17 "
"2028-07-02","13ème dimanche du temps ordinaire","vert","1R 19,16b.19-21 (Elisée part à la suite d'Elie) / Ps 16,1.2a.5.7-10.2b.11 (Le chemin de la vie) / Ga 5,1.13-18 (L'Esprit nous libère) / Lc 9,51-62 (Partir à la suite de Jésus) "
"2028-07-03","St Thomas, apôtre, martyr, †70 à Chennai (Inde)","rouge","Ep 2,19-22 / Ps 117,1-2 / Jn 20,24-29 "
"2028-07-04","Ste Elisabeth, franciscaine, †1336 à Estremoz (Portugal)","blanc","Am 3,1-8 / Ps 5,2-3.5-7 / Mt 8,23-27 "
"2028-07-05","St Antoine-Marie Zaccaria, fondateur des Barnabites, †1539 à Crémone (Italie)","blanc","Am 5,14-15.21-24 / Ps 50,7-10.12-13.16-17 / Mt 8,28-34 "
"2028-07-06","Ste Maria Goretti, martyre, †1902 à Nettuno (Italie)","rouge","Am 7,10-17 / Ps 19,8-11 / Mt 9,1-8 "
"2028-07-07","De la férie","vert","Am 8,4-6.9-12 / Ps 119,2.10.20.30.40.131 / Mt 9,9-13 "
"2028-07-08","De la férie","vert","Am 9,11-15 / Ps 85,9.11-14 / Mt 9,14-17 "
"2028-07-09","14ème dimanche du temps ordinaire","vert","Is 66,10-14c (La joie de l'ère messianique) / Ps 66,1-7.16.20 (Acclamez Dieu, toute la terre) / Ga 6,14-18 (Notre orgueil dans la croix du Christ) / Lc 10,1-12.17-20 (La mission des 72 disciples) "
"2028-07-10","De la férie","vert","Os 2,16-18.21-22 / Ps 145,2-9 / Mt 9,18-26 "
"2028-07-11","St Benoît de Nursie, fondateur des Bénédictins, †547 à Montecassino (Italie)","blanc","Pr 2,1-9 / Ps 34,2-4.6.9.12.14-15 / Mt 19,27-29 "
"2028-07-12","De la férie","vert","Os 10,1-3.7-8.12 / Ps 105,2-7 / Mt 10,1-7 "
"2028-07-13","St Henri II, empereur d'Allemagne, †1024 à Göttingen (Allemagne), et [Luxembourg] Ste Conégonde, moniale, †1040 à Bamberg (Allemagne)","blanc","Os 11,1.3-4.8-9 / Ps 80,2-3.15-16.19-20 / Mt 10,7-15 "
"2028-07-14","St Camille de Lellis, fondateur des Religieux Hospitaliers, †1614 à Rome (Italie)","blanc","Os 14,2-10 / Ps 51,3-4.8-9.12-14.17 / Mt 10,16-23 "
"2028-07-15","St Bonaventure, évêque d'Albano, docteur de l'Église, †1274 à Lyon (France)","blanc","Is 6,1-8 / Ps 93,1-2.5 / Mt 10,24-33 "
"2028-07-16","15ème dimanche du temps ordinaire","vert","Dt 30,10-14 (Mets la Loi dans ton coeur) / Ps 19,8-11 (La loi du Seigneur est parfaite) / Col 1,15-20 (La primauté du Christ) / Lc 10,25-37 (Le bon Samaritain) "
"2028-07-17","De la férie","vert","Is 1,11-17 / Ps 50,7-8.16-17.21.23 / Mt 10,34-11,1 "
"2028-07-18","De la férie","vert","Is 7,1-9 / Ps 48,2-8 / Mt 11,20-24 "
"2028-07-19","De la férie","vert","Is 10,5-7.13-16 / Ps 94,5-9.11.14-15 / Mt 11,25-27 "
"2028-07-20","St Apollinaire, évêque de Ravenne, martyr, †81 à Ravenne (Italie)","rouge","Is 26,7-9.12.16-19 / Ps 102,13-21 / Mt 11,28-30 "
"2028-07-21","St Laurent de Brindes (Giulio Cesare Russo), capucin, docteur de l'Église, †1619 à Lisbonne (Portugal)","blanc","Is 38,1-8 / Is 38,10-12.14.17 / Mt 12,1-8 "
"2028-07-22","Ste Marie de Magdala, disciple du Seigneur","blanc","Ct 3,1-4a ou 2Co 5,14-17 / Ps 64,2.3-4.5-6.8-9 / Jn 20,1.11-18 (Marie Madeleine au tombeau) "
"2028-07-23","16ème dimanche du temps ordinaire","vert","Gn 18,1-10a (La visite de Dieu à Abraham) / Ps 15,1-5 (Qui habitera dans ta maison) / Col 1,24-28 (Le ministère de l'apôtre) / Lc 10,38-42 (Marthe et Marie) "
"2028-07-24","St Charbel Makhlouf, moine, †1898 à Annaya (Liban)","blanc","Mi 6,1-4.6-8 / Ps 50,5.7-9.16-17.21.23 / Mt 12,38-42 "
"2028-07-25","St Jacques le majeur, apôtre, martyr, †43 à Jérusalem (État de Palestine / Israël)","rouge","2Co 4,7-15 / Ps 126,1-6 / Mt 20,20-28 "
"2028-07-26","St Joachim et Ste Anne, parents de la Vierge Marie","blanc","Jr 1,1.4-10 / Ps 71,1-3.5-6.15.17 / Mt 13,1-9 "
"2028-07-27","De la férie","vert","Jr 2,1-3.7-8.12-13 / Ps 36,6-11 / Mt 13,10-17 "
"2028-07-28","De la férie","vert","Jr 3,14-17 / Jr 31,10-13 / Mt 13,18-23 "
"2028-07-29","Ste Marthe, hôtesse du Seigneur, †68 à Avignon (France)","blanc","Jr 7,1-11 / Ps 84,2-6.11 / Lc 10,38-42 (Marthe reçoit Jésus) "
"2028-07-30","17ème dimanche du temps ordinaire","vert","Gn 18,20-32 (L'intercession d'Abraham) / Ps 138,1-3.6-8 (Tu écoutes quand je t'appelle) / Col 2,12-14 (La croix, source de vie) / Lc 11,1-13 (Prier le Père) "
"2028-07-31","St Ignace de Loyola, fondateur des Jésuites, †1556 à Rome (Italie)","blanc","Jr 13,1-11 / Dt 32,6.18-21 / Mt 13,31-35 "
"2028-08-01","St Alphonse Marie de Liguori, évêque de Sant'Agata dei Goti, fondateur des Redemptoristes, docteur de l'Église, †1787 à Nocera de'Pagani (Italie)","blanc","Jr 14,17-22 / Ps 79,5.8-9.11.13 / Mt 13,36-43 "
"2028-08-02","St Eusèbe, évêque de Verceil, †371 à Verceil (Italie), et St Pierre Julien Eymard, fondateur de la Société des Prêtres du Saint Sacrement, †1868 à La Mure (France)","blanc","Jr 15,10.16-21 / Ps 59,2-6.10-11.17-18 / Mt 13,44-46 "
"2028-08-03","De la férie","vert","Jr 18,1-10 / Ps 146,1-2.10.3-6 / Mt 13,47-53 "
"2028-08-04","St Jean-Marie Vianney, curé, †1859 à Ars-sur-Formans (France)","blanc","Jr 26,1-9 / Ps 69,2.5.8-10.14 / Mt 13,54-58 "
"2028-08-05","Dédicace de la Basilique de Santa Maria Maggiore","blanc","Jr 26,11-19 / Ps 69,15-16.30-31.33-34 / Mt 14,1-12 "
"2028-08-06","Transfiguration du Seigneur","blanc","Dn 7,9-10.13-14 ou 2P 1,16-19 / Ps 97,1-2.4-6.9 / Mt 17,1-9 "
"2028-08-07","St Sixte II, pape, et ses compagnons, martyrs, †258 à Rome (Italie), et St Gaétan de Thienne, fondateur des Théatins, †1547 à Naples (Italie), et [Belgique] Ste Julienne de Cornillon, augustine, †1258 à Fosses-la-Ville (Belgique)","rouge~blanc","Jr 28,1-17 / Ps 119,29.43.79-80.95.102 / Mt 14,13-21 "
"2028-08-08","St Dominique, fondateur des Dominicains, †1221 à Bologne (Italie)","blanc","Jr 30,1-2.12-15.18-22 / Ps 102,16-23.29 / Mt 14,22-36 "
"2028-08-09","Ste Edith Stein, martyre, †1942 à Oświęcim (Pologne)","rouge","Os 2,16-17.21-22 / Ps 45,11-12.14-17 / Mt 25,1-13 "
"2028-08-10","St Laurent, diacre, martyr, †258 à Rome (Italie)","rouge","2Co 9,6-10 / Ps 112,1-2.5-8.4b.9 / Jn 12,24-26 "
"2028-08-11","Ste Claire, fondatrice des Clarisses, †1253 à Assise (Italie), et [Luxembourg] Bx Schecelin, ermite, †1138 à Hostert (Luxembourg)","blanc","Na 2,1-3;3,1-3.6-7 / Dt 32,36.39.41 / Mt 16,24-28 "
"2028-08-12","Ste Jeanne de Chantal (Jeanne-Françoise Frémyot), fondatrice des Visitandines, †1641 à Moulins (France)","blanc","Ha 1,12-2,4 / Ps 9,8-13 / Mt 17,14-20 "
"2028-08-13","19ème dimanche du temps ordinaire","vert","Sg 18,6-9 (La nuit de la Pâque) / Ps 33,1.12.18-20.22 (Heureux le peuple de Dieu) / He 11,1-2.8-19 (La foi d'Abraham) / Lc 12,32-48 (Se tenir prêts) "
"2028-08-14","St Maximilien-Marie Kolbe, franciscain, martyr, †1941 à Oświęcim (Pologne)","rouge","Ez 1,2-6.24-28 / Ps 148,1-2.11-14 / Mt 17,22-27 "
"2028-08-15","Assomption de la Vierge Marie","blanc","Messe de la veille 1Ch 15,3-4.15-16;16,1-2 (Ils amenèrent l’arche de Dieu et l’installèrent au milieu de la tente que David avait dressée pour elle) / Ps 132,7-8.9-10.13-14 / 1Co 15,54b-57 (Dieu nous donne la victoire par notre Seigneur Jésus Christ) / Lc 11,27-28 (Heureuse la mère qui t’a porté en elle !) / Messe du jour Ap 11,19;12,1-6.10 (Une femme dans le ciel) / Ps 45,11-16 (Ton sourire dans la gloire) / 1Co 15,20-27a (Tous revivront dans le Christ) / Lc 1,39-56 (Marie exalte le Seigneur) "
"2028-08-16","St Etienne I, roi de Hongrie, †1038 à Székesfehérvár (Hongrie)","blanc","Ez 9,1-7;10,18-22 / Ps 113,1-6 / Mt 18,15-20 "
"2028-08-17","De la férie","vert","Ez 12,1-12 / Ps 78,56-59.61-62 / Mt 18,21-19,1 "
"2028-08-18","De la férie","vert","Ez 16,1-15.59-60.63 / Is 12,2.4-6 / Mt 19,3-12 "
"2028-08-19","St Jean Eudes, fondateur des Eudistes, †1680 à Caen (France)","blanc","Ez 18,1-10.13.30-32 / Ps 51,12-15.18-19 / Mt 19,13-15 "
"2028-08-20","20ème dimanche du temps ordinaire","vert","Jr 38,4-6.8-10 (Le prophète accusé) / Ps 40,2-4.18 (Tu es mon secours) / He 12,1-4 (Le combat dans la foi) / Lc 12,49-53 (Le feu sur le terre) "
"2028-08-21","St Pie X, pape, †1914 à Rome (Italie)","blanc","Ez 24,15-24 / Dt 32,6.18-21 / Mt 19,16-22 "
"2028-08-22","La Vierge Marie Reine","blanc","Ez 28,1-10 / Dt 32,26-27.29-30.35-36 / Mt 19,23-30 "
"2028-08-23","Ste Rose (Isabel Flores de Oliva), dominicaine, †1617 à Lima (Pérou)","blanc","Ez 34,1-11 / Ps 23,1-6 / Mt 20,1-16 "
"2028-08-24","St Barthélemy, apôtre, martyr, † à Albanopolis (Arménie)","rouge","Ap 21,9b-14 / Ps 145,10-13.17-18 / Jn 1,45-51 "
"2028-08-25","St Louis IX, roi de France, †1270 à Tunis (Tunisie), et St Joseph Calasanz, fondateur des Pères Piaristes, †1648 à Rome (Italie)","blanc","Ez 37,1-14 / Ps 107,2-9 / Mt 22,34-40 "
"2028-08-26","[France] St Césaire, évêque d'Arles, †542 à Arles (France)","blanc","Ez 43,1-7a / Ps 85,9-14 / Mt 23,1-12 "
"2028-08-27","21ème dimanche du temps ordinaire","vert","Is 66,18-21 (Dieu vient rassembler) / Ps 117,1-2 (Fêtez-le, tous les pays) / He 12,5-7.11-13 (Dieu corrige ses fils) / Lc 13,22-30 (La porte étroite du festin) "
"2028-08-28","St Augustin, évêque d'Annaba, docteur de l'Église, †430 à Annaba (Algérie)","blanc","2Th 1,1-5.11b-12 / Ps 96,1-5 / Mt 23,13-22 "
"2028-08-29","St Jean Baptiste, martyr, †28 à Jerusalem (État de Palestine / Israël), et [Luxembourg] Dédicace de la cathédrale","rouge~blanc","2Th 2,1-3a.14-17 / Ps 96,9-13 / Mc 6,17-29 (Jean Baptiste décapité) "
"2028-08-30","De la férie","vert","2Th 3,6-10.16-18 / Ps 128,1-2.4-5 / Mt 23,27-32 "
"2028-08-31","[Belgique] La Vierge Marie Médiatrice","blanc","1Co 1,1-9 / Ps 145,2-7 / Mt 24,42-51 "
"2028-09-01","De la férie","vert","1Co 1,17-25 / Ps 33,1-2.4-5.10-11 / Mt 25,1-13 "
"2028-09-02","De la férie","vert","1Co 1,26-31 / Ps 33,12-13.18-21 / Mt 25,14-30 "
"2028-09-03","22ème dimanche du temps ordinaire","vert","Si 3,17-18.20.28-29 (Exhortation à l'humilité) / Ps 68,4-7.10-11 (Dieu élève les humbles) / He 12,18-19.22-24a (La fête éternelle de l'Alliance nouvelle) / Lc 14,1.7-14 (Choisir la dernière place) "
"2028-09-04","De la férie","vert","1Co 2,1-5 / Ps 119,97-102 / Lc 4,16-30 "
"2028-09-05","Ste Teresa de Calcutta (Anjezë Gonxha Bojaxhiu), fondatrice des Missionnaires de la Charité, †1997 à Calcutta (Inde)","blanc","1Co 2,10b-16 / Ps 145,8-14 / Lc 4,31-37 "
"2028-09-06","De la férie","vert","1Co 3,1-9a / Ps 33,12-15.20-21 / Lc 4,38-44 "
"2028-09-07","De la férie","vert","1Co 3,18-23 / Ps 24,1-6 / Lc 5,1-11 "
"2028-09-08","Nativité de la Vierge Marie","blanc","Rm 8,28-30 / Is 61,10-11;62,1-3 / Mt 1,1-16.18-23 "
"2028-09-09","St Pierre Claver, jésuite, †1654 à Carthagène des Indes (Colombie)","blanc","1Co 4,9-15 / Ps 145,10.17-21 / Lc 6,1-5 "
"2028-09-10","23ème dimanche du temps ordinaire","vert","Sg 9,13-18b (Dieu donne la Sagesse) / Ps 90,3-6.12-14.17 (Apprends-nous la sagesse) / Phm 9b-10.12-17 (Ton esclave est un frère) / Lc 14,25-33 (Renoncer à tout pour le Christ) "
"2028-09-11","De la férie","vert","1Co 5,1-8 / Ps 5,2-3.5-7 / Lc 6,6-11 "
"2028-09-12","Saint Nom de la Vierge Marie","blanc","1Co 6,1-11 / Ps 149,1-6.9 / Lc 6,12-19 "
"2028-09-13","St Jean Chrysostome, évêque d'Istanbul, docteur de l'Église, †407 à Comana (Turquie)","blanc","1Co 7,25-31 / Ps 45,11-12.14-18 / Lc 6,20-26 "
"2028-09-14","La Croix glorieuse","rouge","Nb 21,4b-9 (Le serpent de bronze) ou Ph 2,6-11 (Il s'est abaissé : c'est pourquoi Dieu l'a exalté) / Ps 78,3-4.34-39 (Et lui pardonnait) / Jn 3,13-17 (Il faut que soit élevé le Fils de l'homme) "
"2028-09-15","Notre Dame des Douleurs","blanc","1Co 9,16-19.22-27 / Ps 84,2-6.12 / Lc 2,33-35 (Prophétie de Siméon) "
"2028-09-16","St Corneille, pape, martyr, †253 à Civitavecchia (Italie), et St Cyprien, évêque de Carthage, martyr, †258 à Carthage (Tunisie)","rouge","1Co 10,14-22 / Ps 116,12-13.17-18 / Lc 6,43-49 "
"2028-09-17","24ème dimanche du temps ordinaire","vert","Ex 32,7-11.13-14 (La prière de Moïse pour le pardon) / Ps 51,3-4.12-13.17.19 (J'irai vers mon Père) / 1Tm 1,12-17 (Paul heureux d'être pardonné) / Lc 15,1-32 (La joie de retrouver une brebis) "
"2028-09-18","[Luxembourg] St Lambert, martyr, évêque de Tongres-Maastricht, †705 à Liège (Belgique)","rouge","1Co 11,17-26 / Ps 40,7-10.17 / Lc 7,1-10 "
"2028-09-19","St Janvier, évêque de Benevento, martyr, †304 à Pouzzoles (Italie)","rouge","1Co 12,12-14.27-31a / Ps 100,1-5 / Lc 7,11-17 "
"2028-09-20","St André Kim Tae-gon, prêtre, St Paul Chong Ha-sang et leurs compagnons, martyrs, †1839 à 1864 en Corée","rouge","1Co 12,31-13,13 / Ps 33,2-5.12.22 / Lc 7,31-35 "
"2028-09-21","St Matthieu, apôtre et évangéliste, martyr, †61 à Naddarer (Éthiopie)","rouge","Ep 4,1-7.11-13 / Ps 19,2-5 / Mt 9,9-13 "
"2028-09-22","[Suisse] St Maurice d'Agaune et ses compagnons, martyrs, †3e siècle dans le Valais (Suisse)","rouge","1Co 15,12-20 / Ps 17,1.6-8.15 / Lc 8,1-3 "
"2028-09-23","St Pio de Pietrelcina (Francesco Forgione), capucin, †1968 à San Giovanni Rotondo (Italie)","blanc","Ga 2,19-20 / Ps 128,1-5 / Mt 16,24-27 "
"2028-09-24","25ème dimanche du temps ordinaire","vert","Am 8,4-7 (Les mauvais riches) / Ps 113,1-2.5-8 (Dieu relève le pauvre) / 1Tm 2,1-8 (La prière universelle) / Lc 16,1-13 (L'argent trompeur) "
"2028-09-25","[Suisse] St Nicolas de de Flüe, ermite, †1487 à Sachseln (Suisse)","rouge","Pr 3,27-34 / Ps 15,1-5 / Lc 8,16-18 "
"2028-09-26","St Côme et St Damien, martyrs, †303 à Nebi Huri (Syrie), et [Canada] St Jean de Brébeuf, St Isaac Jogues, St René Goupil et leurs autres compagnons, martyrs, †1642-1649 au Canada","rouge","Pr 21,1-6.10-13 / Ps 119,1.27.30.34-35.44 / Lc 8,19-21 "
"2028-09-27","St Vincent de Paul, fondateur des Lazaristes, †1660 à Paris (France)","blanc","Pr 30,5-9 / Ps 119,29.72.89.101.104.163 / Lc 9,1-6 "
"2028-09-28","St Venceslas I, duc de Bohême, martyr, †929 à Stará Boleslav (Tchéquie), et St Laurent Ruiz et ses compagnons, martyrs, †1633-1637 à Nagasaki (Japon)","rouge","Qo 1,2-11 / Ps 90,3-6.12-14.17 / Lc 9,7-9 "
"2028-09-29","Sts Michel, Gabriel et Raphaël, archanges","blanc","Dn 7,9-10.13.14 ou Ap 12,7-12a / Ps 138,1-5 / Jn 1,47-51 "
"2028-09-30","St Jérôme, prêtre, docteur de l'Église, †420 à Bethléem (État de Palestine)","blanc","Qo 11,9-12,8 / Ps 90,3-6.12-14.17 / Lc 9,43b-45 "
"2028-10-01","26ème dimanche du temps ordinaire","vert","Am 6,1a.4-7 (Contre le gaspillage des riches) / Ps 146,5-10 (Dieu fait justice aux opprimés) / 1Tm 6,11-16 (Vivre dans la foi) / Lc 16,19-31 (Le riche et Lazare) "
"2028-10-02","Saints Anges gardiens","blanc","Jb 1,6-22 / Ps 17,1.3-5.7 / Mt 18,1-5.10 (Leurs anges dans les cieux) "
"2028-10-03","De la férie","vert","Jb 3,1-3.11-17.20-23 / Ps 88,2-8 / Lc 9,51-56 "
"2028-10-04","St François d'Assise (Giovanni di Pietro Bernardone), fondateur des Frères Mineurs, †1226 à Assise (Italie)","blanc","Jb 9,1-12.14-16 / Ps 88,10-15 / Lc 9,57-62 "
"2028-10-05","De la férie","vert","Jb 19,21-27 / Ps 27,7-9.13-14 / Lc 10,1-12 "
"2028-10-06","St Bruno, fondateur de la Grande-Chartreuse, †1101 à Serra San Bruno (Italie)","blanc","Jb 38,1-3.12-21;40,3-5 / Ps 139,1-2.5.7-10.13-14 / Lc 10,13-16 "
"2028-10-07","Notre Dame du Rosaire","blanc","Jb 42,1-3.5-6.12-17 / Ps 119,66.71.75.91.125.130 / Lc 10,17-24 "
"2028-10-08","27ème dimanche du temps ordinaire","vert","Ha 1,2-3;2,2-4 (Le juste vivra par sa fidélité) / Ps 95,1-2.6-9 (Ne fermez pas votre coeur) / 2Tm 1,6-8.13-14 (Reste fidèle au service de l'Evangile) / Lc 17,5-10 (Les arbres dans la mer) "
"2028-10-09","St Denis, évêque de Paris, et ses compagnons, martyrs, †250-272 à Montmartre (France), et St Jean Léonardi, prêtre de Lucca, †1609 à Rome (Italie)","rouge~blanc","Ga 1,6-12 / Ps 111,1-2.7-10 / Lc 10,25-37 "
"2028-10-10","De la férie","vert","Ga 1,13-24 / Ps 139,1-3.13.15 / Lc 10,38-42 "
"2028-10-11","St Jean XXIII, pape, †1963 à Rome (Italie)","blanc","Ga 2,1-2.7-14 / Ps 117,1-2 / Lc 11,1-4 "
"2028-10-12","De la férie","vert","Ga 3,1-5 / Lc 1,69-75 / Lc 11,5-13 "
"2028-10-13","De la férie","vert","Ga 3,6-14 / Ps 111,1-6 / Lc 11,15-26 "
"2028-10-14","St Calixte I, pape, martyr, †222 à Rome (Italie)","rouge","Ga 3,22-29 / Ps 105,2-7 / Lc 11,27-28 "
"2028-10-15","28ème dimanche du temps ordinaire","vert","2R 5,14-17 (La guérison de Naaman) / Ps 98,1-4a.6b (Dieu révélé à toutes les nations) / 2Tm 2,8-13 (La fidélité du Christ) / Lc 17,11-19 (La reconnaissance d'un lépreux guéri) "
"2028-10-16","Ste Edwige, religieuse, †1243 à Trzebnica (Pologne), et Ste Marguerite-Marie Alacoque, visitandine, †1690 à Paray-le-Monial (France), et [Canada] Ste Marguerite d'Youville (Marie-Marguerite Dufrost de Lajemmerais), fondatrice des Soeurs de la Charite, †1771 à Montreal (Canada)","blanc","Ga 4,22-24.26-27.31;5,1 / Ps 113,1-7 / Lc 11,29-32 "
"2028-10-17","St Ignace, évêque d'Antakya, martyr, †107 à Rome (Italie)","rouge","Ga 5,1-6 / Ps 119,41.43-45.47-48 / Lc 11,37-41 "
"2028-10-18","St Luc, évangéliste, †80 à Thèbes (Égypte)","rouge","2Tm 4,9-17 / Ps 145,10-13.17-18 / Lc 10,1-9 "
"2028-10-19","St Paul Danei, fondateur des Passionistes, †1775 à Rome (Italie), et [sauf Canada] St Jean de Brébeuf, St Isaac Jogues, St René Goupil et leurs autres compagnons, martyrs, †1642-1649 au Canada","blanc","Ep 1,1-10 / Ps 98,1-6 / Lc 11,47-54 "
"2028-10-20","De la férie","vert","Ep 1,11-14 / Ps 33,1-2.4-5.12-13 / Lc 12,1-7 "
"2028-10-21","De la férie","vert","Ep 1,15-23 / Ps 8,2-7 / Lc 12,8-12 "
"2028-10-22","29ème dimanche du temps ordinaire","vert","Ex 17,8-13 (Les mains de Moïse) / Ps 121,1-8 (Le secours me vient du Seigneur) / 2Tm 3,14-4,2 (Méditer et proclamer la Parole) / Lc 18,1-8 (La veuve et le juge) "
"2028-10-23","St Jean de Capistran, franciscain, †1456 à Ilok (Croatie)","blanc","Ep 2,1-10 / Ps 100,1-5 / Lc 12,13-21 "
"2028-10-24","St Antoine-Marie Claret, évêque de Santiago de Cuba, fondateur des Clarétins, †1870 à Fontfroide (France)","blanc","Ep 2,12-22 / Ps 85,9-14 / Lc 12,35-38 "
"2028-10-25","De la férie","vert","Ep 3,2-12 / Is 12,2.4-6 / Lc 12,39-48 "
"2028-10-26","De la férie","vert","Ep 3,14-21 / Ps 33,1-2.4-5.11-12.18-19 / Lc 12,49-53 "
"2028-10-27","De la férie","vert","Ep 4,1-6 / Ps 24,1-6 / Lc 12,54-59 "
"2028-10-28","St Simon, apôtre, martyr, et St Jude, apôtre, martyr","rouge","Ep 2,19-22 / Ps 19,2-5 / Lc 6,12-19 "
"2028-10-29","30ème dimanche du temps ordinaire","vert","Si 35,12-14.16-18 (La prière du pauvre) / Ps 34,2-3.16.18.19.23 (Le Seigneur entend ceux qui l'appellent) / 2Tm 4,6-8.16-18 (Paul au soir de sa vie) / Lc 18,9-14 (Le pharisien et le publicain) "
"2028-10-30","De la férie","vert","Ep 4,32-5,8 / Ps 1,1-6 / Lc 13,10-17 "
"2028-10-31","De la férie","vert","Ep 5,21-33 / Ps 128,1-5 / Lc 13,18-21 "
"2028-11-01","Tous les saints","blanc","Ap 7,2-4.9-14 (Une foule immense) / Ps 24,1-6 (Ceux qui t'ont cherché) / 1Jn 3,1-3 (Déjà enfants de Dieu) / Mt 5,1-12a (Récompensés dans les cieux) "
"2028-11-02","Commémoration de tous les fidèles défunts","violet","Sg 2,23;3,1-6.9 (La vie de tout homme est dans la main de Dieu) / Ps 4,2.7.9 / Rm 6,3-9 (Passer par la mort avec le Christ pour vivre avec lui) / Jn 5,24-29 (Voici l'heure d'entrer dans la vie) "
"2028-11-03","St Martin de Porrès, dominicain, †1639 à Lima (Pérou), et [Belgique, Luxembourg] St Hubert, évêque de Tongres-Maastricht, †727 à Tervuren (Belgique)","blanc","Ph 1,1-11 / Ps 111,1-6 / Lc 14,1-6 "
"2028-11-04","St Charles Borromée, évêque de Milan, †1584 à Milan (Italie)","blanc","Ph 1,18b-26 / Ps 42,2-3.5 / Lc 14,1.7-11 "
"2028-11-05","31ème dimanche du temps ordinaire","vert","Sg 11,23-12,2 (Dieu aime ses créatures) / Ps 145,1-2.8-11.13-14 (La bonté du Seigneur pour ses oeuvres) / 2Th 1,11-2,2 (Préparer la venue du Seigneur) / Lc 19,1-10 (Zachée) "
"2028-11-06","De la férie","vert","Ph 2,1-4 / Ps 131,1-3 / Lc 14,12-14 "
"2028-11-07","[Luxembourg] St Willibrord, évêque d'Utrecht, †739 à Echternach (Luxembourg)","blanc","Ph 2,5-11 / Ps 22,26-29.31-32 / Lc 14,15-24 "
"2028-11-08","De la férie","vert","Ph 2,12-18 / Ps 27,1.4.13-14 / Lc 14,25-33 "
"2028-11-09","Dédicace de la basilique San Giovanni in Laterano, cathédrale de Rome","blanc","Ez 47,1-2.8-9.12 (Le Seigneur dans son temple) ou 1Co 3,9b-11.16-17 (Vous êtes le temple) / Ps 46,2-3.5-6.8-10 (Voici la demeure de Dieu) / Jn 2,13-22 (Le Christ, nouveau temple) "
"2028-11-10","St Léon le Grand, pape, docteur de l'Église, †461 à Rome (Italie)","blanc","Ph 3,17-4,1 / Ps 122,1-5 / Lc 16,1-8 "
"2028-11-11","St Martin, évêque de Tours, †397 à Candes-Saint-Martin (France)","blanc","Ph 4,10-19 / Ps 112,1-2.5-6.8-9 / Lc 16,9-15 "
"2028-11-12","32ème dimanche du temps ordinaire","vert","2M 7,1-2.9-14 (Le martyre des sept frères) / Ps 17,1.3.5-6.8.15 (Je m'éveillerai en ta présence) / 2Th 2,16-3,5 (Exhortation à perséverer) / Lc 20,27-38 (Les morts ressusciteront) "
"2028-11-13","De la férie","vert","Tt 1,1-9 / Ps 24,1-6 / Lc 17,1-6 "
"2028-11-14","De la férie","vert","Tt 2,1-8.11-14 / Ps 37,3-4.18.23.27.29 / Lc 17,7-10 "
"2028-11-15","St Albert, évêque de Regensburg, docteur de l'Église, †1280 à Cologne (Allemagne)","blanc","Tt 3,1-7 / Ps 23,1-6 / Lc 17,11-19 "
"2028-11-16","Ste Marguerite, reine d'Ecosse, †1093 à Edimbourg (Royaume-Uni), et Ste Gertrude, moniale, †1302 à Lutherstadt Eisleben (Allemagne)","blanc","Phm 1,7-20 / Ps 146,6-10 / Lc 17,20-25 "
"2028-11-17","Ste Elisabeth de Hongrie, duchesse de Thüringen, †1231 à Marbourg (Allemagne)","blanc","2Jn 1,1.4-9 / Ps 119,1-2.10-11.17-18 / Lc 17,26-37 "
"2028-11-18","Dédicace des basiliques romaines de St-Pierre-du-Vatican et de St-Paul-hors-les-murs","blanc","Ac 28,11-16.30-31 (Paul arrive à Rome) / Ps 112,1-6 / Mt 14,22-33 (Pierre sur les eaux) "
"2028-11-19","33ème dimanche du temps ordinaire","vert","Ml 3,19-20a (Le jour du Seigneur) / Ps 98,5-9 (Le Seigneur vient gouverner le monde) / 2Th 3,7-12 (Comment attendre le jour du Seigneur) / Lc 21,5-19 (Avant le Jour du Seigneur) "
"2028-11-20","De la férie","vert","Ap 1,1-5a;2,1-5a / Ps 1,1-6 / Lc 18,35-43 "
"2028-11-21","Présentation de la Bienheureuse Vierge Marie","blanc","Ap 3,1-6.14-22 / Ps 15,1-5 / Lc 19,1-10 "
"2028-11-22","Ste Cécile, martyre, †230 à Rome (Italie)","rouge","Ap 4,1-11 / Ps 150,1-6 / Lc 19,11-28 "
"2028-11-23","St Clément I, pape, martyr, †97 à Rome (Italie), et St Colomban, moine irlandais, †615 à Bobbio (Italie)","rouge","Ap 5,1-10 / Ps 149,1-6.9 / Lc 19,41-44 "
"2028-11-24","St André Dung-Lac, St Jean-Théophane Vénard et leurs compagnons, martyrs, †1845-1862 au Viêt Nam","rouge","Ap 10,8-11 / Ps 119,14.24.72.103.111.131 / Lc 19,45-48 "
"2028-11-25","Ste Catherine, martyre, †307 à Alexandrie (Égypte)","rouge","Ap 11,4-12 / Ps 144,1-2.9-10 / Lc 20,27-40 "
"2028-11-26","Christ, Roi de l'univers","blanc","2S 5,1-3 (L'onction royale de David) / Ps 122,1-7 (Que la paix règne sur Jérusalem) / Col 1,12-20 (Le Royaume du Fils) / Lc 23,35-43 (Quand tu viendras inaugurer ton règne) "
"2028-11-27","De la férie","vert","Ap 14,1-3.4b-5 / Ps 24,1-6 / Lc 21,1-4 "
"2028-11-28","De la férie","vert","Ap 14,14-19 / Ps 96,10-13 / Lc 21,5-11 "
"2028-11-29","De la férie","vert","Ap 15,1-4 / Ps 98,1-3.7-9 / Lc 21,12-19 "
"2028-11-30","St André, apôtre, martyr, †60 à Patras (Grèce)","rouge","Rm 10,9-18 / Ps 19,2-5 / Mt 4,18-22 "
"2028-12-01","De la férie","vert","Ap 20,1-4.11-15;21,1-2 / Ps 84,2-6.11 / Lc 21,29-33 "
"2028-12-02","De la férie","vert","Ap 22,1-7 / Ps 95,1-7 / Lc 21,34-36 "
