"2058-12-02","De la férie","violet","Is 2,1-5 / Ps 122,1-9 / Mt 8,5-11 "
"2058-12-03","St François Xavier, jésuite, missionnaire, †1552 à Sancian (Chine)","blanc","Is 11,1-10 / Ps 72,1-2.7-8.12-13.17 / Lc 10,21-24 "
"2058-12-04","St Jean Damascène (Mansour ibn Sarjoun), prêtre, docteur de l'Église, †749 à Jérusalem (État de Palestine / Israël)","blanc","Is 25,6-10a / Ps 23,1-6 / Mt 15,29-37 "
"2058-12-05","De la férie","violet","Is 26,1-6 / Ps 118,1.8.19-21.25 / Mt 7,21.24-27 "
"2058-12-06","St Nicolas, évêque de Myre, †350 à Myre (Turquie)","blanc","Is 29,17-24 / Ps 27,1.4.13-14 / Mt 9,27-31 "
"2058-12-07","St Ambroise, évêque de Milan, docteur de l'Église, †397 à Milan (Italie)","blanc","Is 30,19-21.23-26 / Ps 147,1-6 / Mt 9,35-10,1;10,6-8 "
"2058-12-08","2ème dimanche de l'Avent","violet","Is 11,1-10 (Le règne de paix du Fils de David) / Ps 72,1-2.7-8.12-13.17 (Grande paix fleurira) / Rm 15,4-9 (Louange dans toutes les nations) / Mt 3,1-12 (Préparez le chemin) "
"2058-12-09","Immaculée conception de la Vierge Marie","blanc","Gn 3,9-15.20 (La descendance d'Eve) / Ps 98,1-4.6 (Le Seigneur a fait pour toi des merveilles) / Ep 1,3-6.11-12 (Le choix de Dieu) / Lc 1,26-38 (Réjouis-toi, Marie, pleine de grâce) "
"2058-12-10","De la férie","violet","Is 40,1-11 / Ps 96,1-3.10-13 / Mt 18,12-14 "
"2058-12-11","St Damase I, pape, †384 à Rome (Italie)","blanc","Is 40,25-31 / Ps 103,1-4.8.10 / Mt 11,28-30 "
"2058-12-12","Notre Dame de Guadalupe","blanc","Is 41,13-20 / Ps 145,1.9-13 / Mt 11,11-15 "
"2058-12-13","Ste Lucie, martyre, †304 à Syracuse (Italie)","rouge","Is 48,17-19 / Ps 1,1-4.6 / Mt 11,16-19 "
"2058-12-14","St Jean de la Croix (Juan de Yepes Álvarez), prêtre, docteur de l'Église, †1591 à Ubeda (Espagne)","blanc","Si 48,1-4.9-11 / Ps 80,2-3.15-16.18-19 / Mt 17,10-13 "
"2058-12-15","3ème dimanche de l'Avent","violet","Is 35,1-6a.10 (Dieu vient vous sauver) / Ps 146,7-10 (Le Seigneur sauve) / Jc 5,7-10 (Le Seigneur est proche) / Mt 11,2-11 (Es-tu celui qui doit venir) "
"2058-12-16","De la férie","violet","Nb 24,2-7.15-17a / Ps 25,4-10.14 / Mt 21,23-27 "
"2058-12-17","De la férie","violet","Gn 49,2.8-10 / Ps 72,1-4.7-8.17 / Mt 1,1-17 / Mt 2,1-12 (La visite des mages) "
"2058-12-18","De la férie","violet","Jr 23,5-8 / Ps 72,1-2.12-13.18-19 / Mt 1,18-24 "
"2058-12-19","De la férie","violet","Jg 13,2-7.24-25 / Ps 71,1-3.5-6.16-17 / Lc 1,5-25 "
"2058-12-20","De la férie","violet","Is 7,10-16 / Ps 24,1-6 / Lc 1,26-38 "
"2058-12-21","[sauf Suisse] St Pierre Canisius, jésuite, docteur de l'Église, †1597 à Fribourg (Suisse)","violet","Ct 2,8-14 ou So 3,14-18a / Ps 33,2-3.11-12.20-21 / Lc 1,39-45 "
"2058-12-22","4ème dimanche de l'Avent","violet","Is 7,10-16 (Dieu promet un Sauveur) / Ps 24,1-6 (La bénédiction du Sauveur) / Rm 1,1-7 (La promesse des prophètes) / Mt 1,18-24 (L'annonce à Joseph) "
"2058-12-23","St Jean de Kenty, prêtre, †1473 à Cracovie (Pologne)","violet","Ml 3,1-4.23-24 / Ps 25,4-10.14 / Lc 1,57-66 / Mt 1,18-24 (L'annonce à Joseph) "
"2058-12-24","De la férie","violet","2S 7,1-5.8-12.14.16 / Ps 89,2-5.27.29 / Lc 1,67-79 / Mt 1,18-24 (L'annonce à Joseph) "
"2058-12-25","Nativité du Seigneur","blanc","Messe de la veille Is 62,1-5 (Tu seras la joie de ton Dieu) / Ps 89,4-5.16-17.27.29 / Ac 13,16-17.22-25 (Le témoignage de Paul au sujet du Christ, fils de David) / Mt 1,1-25 (Généalogie de Jésus, Christ, fils de David) / Messe de la nuit Is 9,1-6 (Un enfant nous est né) / Ps 96,1-3.11-13 / Tt 2,11-14 (La grâce de Dieu s’est manifestée pour tous les hommes) / Lc 2,1-14 (Aujourd’hui vous est né un Sauveur) / Messe de l'aurore Is 62,11-12 (Voici ton Sauveur qui vient) / Ps 97,1.6.11-12 / Tt 3,4-7 (Dieu nous a sauvés par sa miséricorde) / Lc 2,15-20 (Les bergers découvrirent Marie et Joseph, avec le nouveau-né) / Messe du jour Is 52,7-10 (Toutes les nations le verront) / Ps 98,1-6 (Il se souvient de son amour) / He 1,1-6 (Le Fils, révélation de Dieu) / Jn 1,1-18 (Le Verbe s'est fait chair) "
"2058-12-26","St Etienne, diacre, premier martyr, †34 à Jérusalem (État de Palestine / Israël)","rouge","Ac 6,8-10;7,54-60 / Ps 31,3-4.6-9.17.20 / Mt 10,17-22 / Mt 1,18-24 (L'annonce à Joseph) "
"2058-12-27","St Jean, apôtre, †101 à Éphèse (Turquie)","blanc","1Jn 1,1-4 / Ps 97,1-2.5-6.11-12 / Jn 20,2-8 / Mt 1,18-24 (L'annonce à Joseph) "
"2058-12-28","Sts Innocents, enfants martyrs","rouge","1Jn 1,5-2,2 / Ps 124,2-8 / Mt 2,13-18 / Mt 1,18-24 (L'annonce à Joseph) "
"2058-12-29","La Sainte Famille","blanc","Si 3,2-6.12-14 (Honorer son père et sa mère) / Ps 128,1-5 (Le bonheur dans ta maison) / Col 3,12-21 (Vivre ensemble en paix) / Mt 2,13-15.19-23 (La sainte famille en Egypte) "
"2058-12-30","6e jour dans l'octave de Noël","blanc","1Jn 2,12-17 / Ps 96,7-10 / Lc 2,36-40 / Mt 1,18-24 (L'annonce à Joseph) "
"2058-12-31","St Sylvestre I, pape, †335 à Rome (Italie)","blanc","1Jn 2,18-21 / Ps 96,1-2.11-13 / Jn 1,1-18 / Mt 1,18-24 (L'annonce à Joseph) "
"2059-01-01","Ste Marie, mère de Dieu","blanc","Nb 6,22-27 (Paix et bonheur) / Ps 67,2-3.5.7-8 (Que Dieu nous bénisse) / Ga 4,4-7 (Le Fils de Dieu né d'une femme) / Lc 2,16-21 (Jésus est fils de Marie) "
"2059-01-02","St Basile le Grand, évêque de Césarée, docteur de l'Église, †379 à Kayseri (Turquie), et St Grégoire de Nazianze, évêque de Istanbul, docteur de l'Église, †390 à Nazianze (Turquie)","blanc","1Jn 2,22-28 / Ps 98,1-4 / Jn 1,19-28 / Mt 1,18-24 (L'annonce à Joseph) "
"2059-01-03","Le Saint Nom de Jésus, et [France] Ste Geneviève, †512 à Paris (France), et [Luxembourg] Ste Irmine d'Oeren, abesse, co-fondatrice de l'abbaye d'Echternach, †704 à Trèves (Allemagne)","blanc","1Jn 2,29-3,6 / Ps 98,1.3-6 / Jn 1,29-34 / Mt 1,18-24 (L'annonce à Joseph) "
"2059-01-04","De la férie","blanc","1Jn 3,7-10 / Ps 98,1.7-9 / Jn 1,35-42 / Mt 1,18-24 (L'annonce à Joseph) "
"2059-01-05","Epiphanie du Seigneur","blanc","Is 60,1-6 (Lève-toi, Jérusalem) / Ps 72,1-2.7-8.10-13 (Ton salut parmi toutes les nations) / Ep 3,2-3a.5-6 (L'appel universel au salut) / Mt 2,1-12 (La visite des mages) "
"2059-01-06","De la férie","blanc","1Jn 3,22-4,6 / Ps 2,7-8.10-11 / Mt 4,12-17.23-25 "
"2059-01-07","St Raymond de Penyafort, dominicain, canoniste et moraliste, †1275 à Barcelone (Espagne), et [Canada] St André Bessette, frère de la congrégation de Sainte-Croix, †1937 à Saint-Laurent (Canada)","blanc","1Jn 4,7-10 / Ps 72,1-4.7-8 / Mc 6,34-44 "
"2059-01-08","De la férie","blanc","1Jn 4,11-18 / Ps 72,1-2.10-13 / Mc 6,45-52 "
"2059-01-09","De la férie","blanc","1Jn 4,19-5,4 / Ps 72,1-2.14-15.17 / Lc 4,14-22a "
"2059-01-10","De la férie","blanc","1Jn 5,5-13 / Ps 147,12-15.19-20 / Lc 5,12-16 "
"2059-01-11","De la férie","blanc","1Jn 5,14-21 / Ps 149,1-6.9 / Jn 3,22-30 "
"2059-01-12","Baptême du Seigneur","blanc","Is 42,1-4.6-7 (La consécration du Serviteur de Dieu) / Ps 29,1-4.9-10 (La voix du Seigneur) / Ac 10,34-38 (Discours de Pierre) / Mt 3,13-17 (Le baptême de Jésus) "
"2059-01-13","St Hilaire, évêque de Poitiers, docteur de l'Église, †367 à Poitiers (France)","blanc","He 1,1-6 / Ps 97,1-2.6-9 / Mc 1,14-20 "
"2059-01-14","De la férie","vert","He 2,5-12 / Ps 8,4-9 / Mc 1,21-28 "
"2059-01-15","[France] St Remi, évêque de Reims, †530 à Reims (France)","blanc","He 2,14-18 / Ps 105,1-4.6-9 / Mc 1,29-39 "
"2059-01-16","De la férie","vert","He 3,7-14 / Ps 95,6-11 / Mc 1,40-45 "
"2059-01-17","St Antoine le Grand, fondateur de l'érémitisme, †356 à Zafarana (Égypte)","blanc","He 4,1-5.11 / Ps 78,3-4.6-8 / Mc 2,1-12 "
"2059-01-18","De la férie","vert","He 4,12-16 / Ps 19,8-10.15 / Mc 2,13-17 "
"2059-01-19","2ème dimanche du temps ordinaire","vert","Is 49,3.5-6 (Le Serviteur, lumière des nations) / Ps 30,2.4.7-11 (Que ta volonté soit faite) / 1Co 1,1-3 (L'Église, peuple appelé par Dieu) / Jn 1,29-34 (Jésus, Agneau de Dieu) "
"2059-01-20","St Fabien, pape, martyr, †250 à Rome (Italie) et St Sébastien, officier de l'armée de Dioclétian, martyr, †284 à Rome (Italie)","rouge","He 5,1-10 / Ps 110,1-4 / Mc 2,18-22 "
"2059-01-21","Ste Agnès, martyre, †305 à Rome (Italie)","rouge","He 6,10-20 / Ps 111,1-2.4-5.9-10 / Mc 2,23-28 "
"2059-01-22","St Vincent, diacre, martyr, †304 à Valence (Espagne)","rouge","He 7,1-3.15b-17 / Ps 110,1-4 / Mc 3,1-6 "
"2059-01-23","De la férie","vert","He 7,25-8,6 / Ps 40,7-10.17 / Mc 3,7-12 "
"2059-01-24","St François de Sales, évêque de Genève, docteur de l'Église, †1622 à Lyon (France)","blanc","He 8,6-13 / Ps 85,8.10-14 / Mc 3,13-19 "
"2059-01-25","Conversion de St Paul","blanc","Ac 22,3-16 ou Ac 9,1-22 / Ps 117,1-2 / Mc 16,15-18 "
"2059-01-26","3ème dimanche du temps ordinaire","vert","Is 8,23b-9,3 (Une grande lumière sur la Galilée) / Ps 27,1.4.13-14 (Ma lumière et mon salut) / 1Co 1,10-13.17 (Les divisions dans l'Eglise) / Mt 4,12-23 (Débuts en Galilée) "
"2059-01-27","Ste Angèle Merici, fondatrice des Ursulines, †1540 à Brescia (Italie)","blanc","He 9,15.24-28 / Ps 98,1-6 / Mc 3,22-30 "
"2059-01-28","St Thomas d'Aquin, dominicain, docteur de l'Église, †1274 à Fossanova (Italie)","blanc","He 10,1-10 / Ps 40,2.4.7-8.10-11 / Mc 3,31-35 "
"2059-01-29","De la férie","vert","He 10,11-18 / Ps 110,1-4 / Mc 4,1-20 "
"2059-01-30","De la férie","vert","He 10,19-25 / Ps 24,1-6 / Mc 4,21-25 "
"2059-01-31","St Jean Bosco, fondateur des Salésiens, †1888 à Turin (Italie)","blanc","He 10,32-39 / Ps 37,3-6.23-24.39-40 / Mc 4,26-34 "
"2059-02-01","De la férie","vert","He 11,1-2.8-19 / Lc 1,69-75 / Mc 4,35-41 "
"2059-02-02","Présentation du Seigneur","blanc","Ml 3,1-4 (Le Seigneur vient dans son temple) ou He 2,14-18 (Il lui fallait se rendre en tout semblable à ses frères) / Ps 24,7-10 (L'entrée du Roi) / Lc 2,22-40 (La présentation au temple) "
"2059-02-03","St Blaise, évêque de Sivas, martyr, †316 à Sivas (Turquie), et St Anschaire, moine, évêque de Hambourg, †865 à Brême (Allemagne)","rouge~blanc","He 11,32-40 / Ps 31,20-25 / Mc 5,1-20 "
"2059-02-04","De la férie","vert","He 12,1-4 / Ps 22,26-28.30-32 / Mc 5,21-43 "
"2059-02-05","Ste Agathe, martyre, †251 à Catane (Italie)","rouge","He 12,4-7.11-15 / Ps 103,1-2.13-14.17-18 / Mc 6,1-6 "
"2059-02-06","[sauf Belgique] St Paul Miki, jésuite, et ses compagnons, †1597 à Nagasaki (Japon), et [Belgique] St Amand d'Elnone, missionnaire en Flandre et Brabant, †676 à Saint-Amand-les-Eaux (France)","rouge~blanc","He 12,18-19.21-24 / Ps 48,2-4.9-11 / Mc 6,7-13 "
"2059-02-07","[Belgique] St Paul Miki, jésuite, et ses compagnons, †1597 à Nagasaki (Japon)","rouge","He 13,1-8 / Ps 27,1.3.5.9 / Mc 6,14-29 "
"2059-02-08","St Jérôme Emilien, fondateur des Clercs Réguliers de Somasque, †1537 à Bergame (Italie), et Ste Joséphine Bakhita, esclave au Soudan, †1947 à Schio (Italie)","blanc","He 13,15-17.20-21 / Ps 23,1-6 / Mc 6,30-34 "
"2059-02-09","5ème dimanche du temps ordinaire","vert","Is 58,7-10 (Si tu dénoues les liens de servitude) / Ps 112,1.4-9 (Lumière des coeurs droits) / 1Co 2,1-5 (Seul Jésus, crucifié) / Mt 5,13-16 (Le sel de la terre et la lumière du monde) "
"2059-02-10","Ste Scolastique, moniale, †543 à Montecassino (Italie)","blanc","Gn 1,1-19 / Ps 104,1-2.5-6.10.12.24.35 / Mc 6,53-56 "
"2059-02-11","Notre Dame de Lourdes","blanc","Gn 1,20-2,4a / Ps 8,4-9 / Mc 7,1-13 "
"2059-02-12","Cendres","violet","Jl 2,12-18 (Appel à la pénitence) / Ps 51,3-6.12-14.17 (Pitié, Seigneur) / 2Co 5,20-6,2 (Laissez-vous réconcilier avec Dieu) / Mt 6,1-6.16-18 (L'aumône, la prière et le jeûne) "
"2059-02-13","Férie","violet","Dt 30,15-20 / Ps 1,1-6 / Lc 9,22-25 "
"2059-02-14","St Cyrille, moine, †869 à Rome (Italie), et St Méthode, évêque de Sirmium, †885 à Velehrad (Tchéquie)","violet","Is 58,1-9 / Ps 51,3-6.18-19 / Mt 9,14-15 "
"2059-02-15","Férie","violet","Is 58,9b-14 / Ps 86,1-6 / Lc 5,27-32 "
"2059-02-16","1er dimanche de Carême","violet","Gn 2,7-9;3,1-7 (Le péché d'Adam) / Ps 51,3-6.12-14.17 (Pitié, Seigneur) / Rm 5,12-19 (La grâce a surabondé) / Mt 4,1-11 (Le jeûne et la tentation de Jésus "
"2059-02-17","Sept Sts fondateurs de l'ordre des Servites, †14e siècle à Florence (Italie)","violet","Lv 19,1-2.11-18 / Ps 19,8-10.15 / Mt 25,31-46 "
"2059-02-18","Ste Bernadette Soubirous, religieuse, †1879 à Nevers (France)","violet","Is 55,10-11 / Ps 34,4-7.16-19 / Mt 6,7-15 "
"2059-02-19","Férie","violet","Jon 3,1-10 / Ps 51,3-4.12-13.18-19 / Lc 11,29-32 "
"2059-02-20","Férie","violet","Est 4,17l-z (14,1.3-5.12-14) / Ps 138,1-3.7-8 / Mt 7,7-12 "
"2059-02-21","St Pierre Damien, évêque d'Ostie, docteur de l'Église, †1072 à Faenza (Italie)","violet","Ez 18,21-28 / Ps 130,1-8 / Mt 5,20-26 "
"2059-02-22","Chaire de St Pierre","violet","1P 5,1-4 / Ps 23,1-6 / Mt 16,13-19 "
"2059-02-23","2ème dimanche de Carême","violet","Gn 12,1-4a (La vocation d'Abraham) / Ps 33,4-5.18-20.22 (Ton amour soit sur nous) / 2Tm 1,8b-10 (La vie éternelle donnée dans le Christ) / Mt 17,1-9 (La transfiguration) "
"2059-02-24","[Luxembourg] St Matthias, apôtre, martyr, †63 à Jérusalem (État de Palestine / Israël)","violet","Ac 1,15-17.20-26 / Ps 113,1-8 / Jn 15,9-17 "
"2059-02-25","Férie","violet","Is 1,10.16-20 / Ps 50,7-8.13-14.16-17.21.23 / Mt 23,1-12 "
"2059-02-26","Férie","violet","Jr 18,18-20 / Ps 31,5-6.14-16 / Mt 20,17-28 "
"2059-02-27","Férie","violet","Jr 17,5-10 / Ps 1,1-6 / Lc 16,19-31 "
"2059-02-28","Férie","violet","Gn 37,3-4.12-13a.17b-28 / Ps 105,4-6.16-21 / Mt 21,33-43.45-46 "
"2059-03-01","Férie","violet","Mi 7,14-15.18-20 / Ps 103,1-4.9-12 / Lc 15,1-3.11-32 "
"2059-03-02","3ème dimanche de Carême","violet","Ex 17,3-7 (L'eau du rocher) / Ps 95,1-2.6-9 (Adorons le Seigneur, notre rocher) / Rm 5,1-2.5-8 (L'amour de Dieu en nos coeurs) / Jn 4,5-42 (La Samaritaine) "
"2059-03-03","Férie","violet","2R 5,1-15a / Ps 42,2-3;42,3-4 / Lc 4,24-30 "
"2059-03-04","St Casimir, prince de Lituanie, †1484 à Hrodna (Bélarus)","violet","Dn 3,25.34-43 / Ps 25,4-10.14 / Mt 18,21-35 "
"2059-03-05","Férie","violet","Dt 4,1.5-9 / Ps 147,12-13.15-16.19-20 / Mt 5,17-19 "
"2059-03-06","Férie","violet","Jr 7,23-28 / Ps 95,1-2.6-9 / Lc 11,14-23 "
"2059-03-07","Stes Perpétue et Félicité, martyres, †203 à Carthage (Tunisie)","violet","Os 14,2-10 / Ps 81,7-12.14.17 / Mc 12,28-34 "
"2059-03-08","St Jean de Dieu (João Cidade), fondateur des Frères Hospitaliers, †1550 à Grenade (Espagne)","violet","Os 6,1-6 / Ps 51,3-4.18-21 / Lc 18,9-14 "
"2059-03-09","4ème dimanche de Carême","violet","1S 16,1b.6-7.10-13a (Dieu choisit David comme roi) / Ps 23,1-6 (Tu répands le parfum sur ma tête) / Ep 5,8-14 (Fils de la lumière) / Jn 9,1-41 (L'aveugle-né) "
"2059-03-10","Férie","violet","Is 65,17-21 / Ps 30,2-6.9.12-13 / Jn 4,43-54 "
"2059-03-11","Férie","violet","Ez 47,1-9.12 / Ps 46,2-3.5-6.8-10 / Jn 5,1-16 "
"2059-03-12","Férie","violet","Is 49,8-15 / Ps 145,8-9.13-14.17-18 / Jn 5,17-30 "
"2059-03-13","Férie","violet","Ex 32,7-14 / Ps 106,4.6.19-23 / Jn 5,31-47 "
"2059-03-14","Férie","violet","Sg 2,1.12-22 / Ps 34,17-21.23 / Jn 7,2.10.14.25-30 "
"2059-03-15","[France] Ste Louise de Marillac, fondatrice des Filles de la Charité, †1660 à Paris (France)","violet","Jr 11,18-20 / Ps 7,2-3.9-12.18 / Jn 7,40-53 "
"2059-03-16","5ème dimanche de Carême","violet","Ez 37,12-14 (J'ouvrirai vos tombeaux) / Ps 130,1-8 (Mon âme attend le Seigneur) / Rm 8,8-11 (L'Esprit qui donne vie) / Jn 11,1-45 (Lazare) "
"2059-03-17","St Patrick, évêque d'Armagh, †461 à Downpatrick (Royaume-Uni)","violet","Dn 13,1-9.15-17.19-30.32-62 / Ps 23,1-6 / Jn 8,1-11 "
"2059-03-18","St Cyrille, évêque de Jérusalem, docteur de l'Église, †386 à Jérusalem (État de Palestine / Israël)","violet","Nb 21,4b-9 / Ps 102,2-3.16-21 / Jn 8,21-30 "
"2059-03-19","St Joseph, époux de la vierge Marie","blanc","2S 7,4-5.12-14.16 (Un fils de David) / Ps 89,2-5.27.29 (La promesse de Dieu) / Rm 4,13.16-18.22 (La descendance d'Abraham) / Mt 1,16.18-21.24a (Grâce à Joseph, Jésus sera reconnu comme fils de David) ou Lc 2,41-51a (Vois comme ton père et moi, nous avons souffert en te cherchant) "
"2059-03-20","Férie","violet","Gn 17,3-9 / Ps 105,4-9 / Jn 8,51-59 "
"2059-03-21","Férie","violet","Jr 20,10-13 / Ps 18,2-3.5-7 / Jn 10,31-42 "
"2059-03-22","Férie","violet","Ez 37,21-28 / Jr 31,10-13 / Jn 11,45-57 "
"2059-03-23","Dimanche des Rameaux et de la Passion","rouge","Rameaux Mt 21,1-11 (Entrée du Seigneur dans Jérusalem) / Messe Is 50,4-7 (Le Serviteur de Dieu devant la souffrance) / Ps 22,8-9.17-20.22-24 (Pourquoi m'as-tu abandonné) / Ph 2,6-11 (La croix et la gloire du Christ) / Mt 26,14-27,66 (La Passion) "
"2059-03-24","Lundi saint","violet","Is 42,1-7 / Ps 27,1-3.13-14 / Jn 12,1-11 "
"2059-03-25","Mardi saint","violet","Is 49,1-6 / Ps 71,1-3.5-6.15.17 / Jn 13,21-33.36-38 "
"2059-03-26","Mercredi saint","violet","Is 50,4-9a / Ps 69,8-10.21-22.31.33-34 / Mt 26,14-25 "
"2059-03-27","Jeudi saint","blanc","Messe chrismale Is 61,1-3a.6a.8b-9 / Ps 89,20-22.25.27.29 / Ap 1,5-8 / Lc 4,16-21 / Messe Ex 12,1-8.11-14 (Le sacrifice de l'agneau pascal) / Ps 116,12-13.15-18 (L'action de grâce au Seigneur) / 1Co 11,23-26 (Le repas du Seigneur) / Jn 13,1-15 (Le lavement des pieds) "
"2059-03-28","Vendredi saint","rouge","Is 52,13-53,12 (Le Serviteur souffrira) / Ps 31,2.6.12-17.25 (En tes mains, je remets mon esprit) / He 4,14-16;5,7-9 (Jésus, notre grand prêtre) / Jn 18,1-19,42 (La Passion) "
"2059-03-29","Samedi saint","blanc","Vigile pascale Gn 1,1-2,2 (Dieu vit tout ce qu’il avait fait) / Ps 104,1-2a.5-6.10.12-14ab.24.35c ou bien Ps 33,4-7.12-13.20.22 / Gn 22,1-18 (Sacrifice et délivrance d’Isaac) / Ps 16,5.8-11 / Ex 14,15-15.1a (Les fils d’Israël avaient marché à pied sec au milieu de la mer) / Ex 15,1b.2-6.17-18 / Is 54,5-14 (Le Seigneur a pitié de toi) / Ps 30,3-6.12-13 / Is 55,1-11 (Venez à moi, et vous vivrez) / Is 12,2.4bcd-6 / Ba 3,9-15.32-4,4 (Marche vers la splendeur du Seigneur) / Ps 19,8-11 / Ez 36,16-17a.18-28 (Je répandrai sur vous une eau pure) / Ps 42,3.5efgh;42,3.4 ou bien Ps 51,12-15.18-19 ou bien si baptême Is 12,2-6 / Rm 6,3b-11 (Ressuscité d’entre les morts, le Christ ne meurt plus) / Ps 118,1.2.16-17.22-23 / Mt 28,1-10 (Vous cherchez Jésus de Nazareth, il est ressuscité) "
"2059-03-30","Pâques, dimanche de la résurrection","blanc","Ac 10,34a.37-43 (Les apôtres témoins de la Résurrection) / Ps 118,1-4.16-17.22-23 (Ce jour de joie) / Col 3,1-4 (Ressuscités avec Christ) ou 1Co 5,6b-8 (Purifiez-vous des vieux ferments) / Jn 20,1-9 (Le tombeau vide) ou le soir Lc 24,13-35 (Reste avec nous car le soir approche) "
"2059-03-31","Lundi de Pâques","blanc","Ac 2,14.22b-32 / Ps 16,1-2a.5.7-10.2b.11 / Mt 28,8-15 "
"2059-04-01","Mardi de Pâques","blanc","Ac 2,36-41 / Ps 33,4-5.18-20.22 / Jn 20,11-18 "
"2059-04-02","Mercredi de Pâques","blanc","Ac 3,1-10 / Ps 105,1-4.6-9 / Lc 24,13-35 "
"2059-04-03","Jeudi de Pâques","blanc","Ac 3,11-26 / Ps 8,4-9 / Lc 24,35-48 "
"2059-04-04","Vendredi de Pâques","blanc","Ac 4,1-12 / Ps 118,1-2.4.22-26 / Jn 21,1-14 "
"2059-04-05","Samedi de Pâques","blanc","Ac 4,13-21 / Ps 118,1.14-21 / Mc 16,9-15 "
"2059-04-06","2ème dimanche de Pâques","blanc","Ac 2,42-47 (Les premiers jours de l'Eglise) / Ps 118,1.4.13-14.19.21-25 (Eternel est son amour) / 1P 1,3-9 (Renés pour l'espérance) / Jn 20,19-31 (Thomas, le huitième jour) "
"2059-04-07","Annonciation du Seigneur","blanc","Is 7,10-14;8,10 (On l'appellera Dieu avec nous) / Ps 40,7-11 (Voici, je viens) / He 10,4-10 (Le Christ entrant dans le monde) / Lc 1,26-38 (Il sera appelé Fils de Dieu) "
"2059-04-08","Férie","blanc","Ac 4,32-37 / Ps 93,1-2.5 / Jn 3,7-15 "
"2059-04-09","Férie","blanc","Ac 5,17-26 / Ps 34,2-9 / Jn 3,16-21 "
"2059-04-10","Férie","blanc","Ac 5,27-33 / Ps 34,2.9.17-20 / Jn 3,31-36 "
"2059-04-11","St Stanislas, évêque de Cracovie, martyr, †1079 à Cracovie (Pologne)","rouge","Ac 5,34-42 / Ps 27,1.4.13-14 / Jn 6,1-15 "
"2059-04-12","Férie","blanc","Ac 6,1-7 / Ps 33,1-2.4-5.18-19 / Jn 6,16-21 "
"2059-04-13","3ème dimanche de Pâques","blanc","Ac 2,14.22b-33 (Discours de Pierre) / Ps 16,1-2a.5.7-10.2b.11 (Tu ne peux m'abandonner à la mort) / 1P 1,17-21 (Le Christ agneau pascal) / Lc 24,13-35 (Le chemin d'Emmaüs) "
"2059-04-14","Férie","blanc","Ac 6,8-15 / Ps 119,23-24.26-27.29-30 / Jn 6,22-29 "
"2059-04-15","Férie","blanc","Ac 7,51-8,1a / Ps 31,3.4.6.8-9.17-20 / Jn 6,30-35 "
"2059-04-16","Férie","blanc","Ac 8,1b-8 / Ps 66,1-7 / Jn 6,35-40 "
"2059-04-17","[Canada] Ste Kateri Tekakwitha, religieuse, †1680 à Kahnawake (Canada)","blanc","Ac 8,26-40 / Ps 66,5.8-9.16-17.20 / Jn 6,44-51 "
"2059-04-18","Férie","blanc","Ac 9,1-20 / Ps 117,1-2 / Jn 6,52-59 "
"2059-04-19","Férie","blanc","Ac 9,31-42 / Ps 116,12-17 / Jn 6,60-69 "
"2059-04-20","4ème dimanche de Pâques","blanc","Ac 2,14a.36-41 (Les premiers convertis) / Ps 23,1-6 (Le Seigneur est mon berger) / 1P 2,20b-25 (Le berger qui veille sur nous) / Jn 10,1-10 (La porte des brebis) "
"2059-04-21","St Anselme, évêque de Cantorbéry, docteur de l'Église, †1109 à Cantorbéry (Royaume-Uni)","blanc","Ac 11,1-18 / Ps 42,2-3;42,3-4 / Jn 10,1-10 "
"2059-04-22","Férie","blanc","Ac 11,19-26 / Ps 87,1.5c.2-3.5a.5b.6-7 / Jn 10,22-30 "
"2059-04-23","St Georges, officier de l'armée de Dioclétian, martyr, †303 à Lod (Israël), et St Adalbert, évêque de Prague, martyr, †997 à Gdansk (Pologne)","rouge","Ac 12,24-13,5 / Ps 67,2-3.5-6.8 / Jn 12,44-50 "
"2059-04-24","St Fidèle de Sigmaringen, capucin, martyr, †1622 à Seewis (Suisse)","rouge","Ac 13,13-25 / Ps 89,2-3.21-22.25-27 / Jn 13,16-20 "
"2059-04-25","St Marc, évangéliste, martyr, †68 à Alexandrie (Égypte)","rouge","1P 5,5b-14 / Ps 89,2-3.6-7.16-17 / Mc 16,15-20 "
"2059-04-26","Férie","blanc","Ac 13,44-52 / Ps 98,1-4 / Jn 14,7-14 "
"2059-04-27","5ème dimanche de Pâques","blanc","Ac 6,1-7 (L'élection des sept) / Ps 33,1-5.18-19 (Notre espoir est en Dieu) / 1P 2,4-9 (Le peuple sacerdotal) / Jn 14,1-12 (Lui seul conduit au Père) "
"2059-04-28","St Pierre Chanel, mariste, martyr, †1841 à Wallis-et-Futuna (France), St Louis Marie Grignion de Montfort, prêtre, †1716 à Saint-Laurent-sur-Sèvre (France)","rouge~blanc","Ac 14,5-18 / Ps 115,1-4.15-16 / Jn 14,21-26 "
"2059-04-29","Ste Catherine de Sienne (Caterina Benincasa), tertiaire dominicaine, docteur de l'Église, †1380 à Rome (Italie)","blanc","Ac 14,19-28 / Ps 145,10-13.3a.21 / Jn 14,27-31a "
"2059-04-30","St Pie V, pape, †1572 à Rome (Italie), et [Afrique du Nord] Notre-Dame d'Afrique, et [Canada] Ste Marie Guyard de l'Incarnation, fondatrice des Ursulines, †1672 à Québec (Canada)","blanc","Ac 15,1-6 / Ps 122,1-5 / Jn 15,1-8 "
"2059-05-01","St Joseph, travailleur","blanc","Ac 15,7-21 / Ps 96,1-3.10 / Mt 13,54-58 (Le fils du charpentier) "
"2059-05-02","St Athanase, évêque d'Alexandrie, docteur de l'Église, †373 à Alexandrie (Égypte)","blanc","Ac 15,22-31 / Ps 57,8-12 / Jn 15,12-17 "
"2059-05-03","St Philippe, apôtre, martyr, †80 à Pamukkale (Turquie), et St Jacques le Mineur, apôtre, †62 à Jérusalem (État de Palestine / Israël)","rouge","1Co 15,1-8 / Ps 19,2-5 / Jn 14,6-14 "
"2059-05-04","6ème dimanche de Pâques","blanc","Ac 8,5-8.14-17 (Les Samaritains reçoivent l'Esprit Saint) / Ps 66,1-7.16.20 (La joie qu'il nous donne) / 1P 3,15-18 (Rendre compte de l'espérance) / Jn 14,15-21 (Je ne vous laisserai pas) "
"2059-05-05","Férie","blanc","Ac 16,11-15 / Ps 149,1-6.9 / Jn 15,26-16,4 "
"2059-05-06","[Canada] St François de Montmorency-Laval, évêque de Québec, †1708 à Québec (Canada)","blanc","Ac 16,22-34 / Ps 138,1-3.7-8 / Jn 16,5-11 "
"2059-05-07","Férie","blanc","Ac 17,15.22-18,1 / Ps 148,1-2.11-14 / Jn 16,12-15 "
"2059-05-08","Ascension","blanc","Ac 1,1-11 (L'Ascension du Seigneur) / Ps 47,2-6.6-9 (Au-dessus de tous) / Ep 1,17-23 (La domination universelle du Christ) / Mt 28,16-20 (Allez, baptisez, enseignez) "
"2059-05-09","Férie","blanc","Ac 18,9-18 / Ps 47,2-7 / Jn 16,20-23a "
"2059-05-10","[Belgique]St Père Damien (Jef de Veuster), picpucien, †1889 à Kalawao (États-Unis)","blanc","Ac 18,23-28 / Ps 47,2-3.8-10 / Jn 16,23b-28 "
"2059-05-11","7ème dimanche de Pâques","blanc","Ac 1,12-14 (Marie et les disciples après l'Ascension) / Ps 27,1.4.7-8 (De qui aurais-je crainte) / 1P 4,13-16 (Souffrir pour le Christ) / Jn 17,1b-11a (Père, glorifie ton Fils) "
"2059-05-12","St Nérée, St Achille et St Pancrace, martyrs, †304 à Rome (Italie)","rouge","Ac 19,1-8 / Ps 68,2-7.36 / Jn 16,29-33 "
"2059-05-13","Notre Dame de Fatima","blanc","Ac 20,17-27 / Ps 68,10-11.20-21 / Jn 17,1-11a "
"2059-05-14","[sauf Luxembourg] St Matthias, apôtre, martyr, †63 à Jérusalem (État de Palestine / Israël)","rouge","Ac 1,15-17.20-26 / Ps 113,1-8 / Jn 15,9-17 "
"2059-05-15","Férie","blanc","Ac 22,30;23,6-11 / Ps 16,1-2a.5.7-10.2b.11 / Jn 17,20-26 "
"2059-05-16","Férie","blanc","Ac 25,13-21 / Ps 103,1-2.11-12.19-20 / Jn 21,15-19 "
"2059-05-17","Férie","blanc","Ac 26,16-20.23-24.28-31 / Ps 11,4-5.7 / Jn 21,20-25 "
"2059-05-18","Pentecôte","rouge","Ac 2,1-11 (La venue du Saint-Esprit) / Ps 104,1.24.29-31.34 (Tu renouvelles la face de la terre) / 1Co 12,3b-7.12-13 (L'Esprit fait l'unité dans la diversité / Jn 20,19-23 (Recevez l'Esprit Saint) "
"2059-05-19","Vierge Marie, Mère de l'Église","blanc","Gn 3,9-15.20 / Ac 1,12-14 / Jn 19,25-34 "
"2059-05-20","St Bernardin, franciscain, †1444 à L'Aquila (Italie)","blanc","Si 2,1-11 / Ps 37,3-4.18-19.27-28.39-40 / Mc 9,30-37 "
"2059-05-21","St Christophe Magallanès, prêtre, et ses compagnons, martyrs, †1926-1928 au Mexique, et [Canada] St Eugène de Mazenod, fondateur des Oblats de Marie-Immaculée, †1861 à Marseille (France)","rouge~blanc","Si 4,11-19 / Ps 119,165.168.171-172.174-175 / Mc 9,38-40 "
"2059-05-22","Ste Margherite Lotti, augustine, †1453 à Cascia (Italie)","blanc","Si 5,1-8 / Ps 1,1-6 / Mc 9,41-50 "
"2059-05-23","De la férie","vert","Si 6,5-17 / Ps 119,12.16.18.27.34-35 / Mc 10,1-12 "
"2059-05-24","De la férie","vert","Si 17,1-15 / Ps 103,13-18 / Mc 10,13-16 "
"2059-05-25","Sainte Trinité","blanc","Ex 34,4b-6.8-9 (Moïse sur le Sinaï) / Dn 3,52-56 (Louange et Gloire) / 2Co 13,11-13 (Salutation trinitaire) / Jn 3,16-18 (Dieu a tant aimé le monde) "
"2059-05-26","St Philippe Néri, fondateur de l'Oratoire, †1595 à Rome (Italie)","blanc","Si 17,24-29 / Ps 32,1-2.5-7 / Mc 10,17-27 "
"2059-05-27","St Augustin, évêque de Cantorbéry, †605 à Cantorbéry (Royaume-Uni)","blanc","Si 35,1-12 / Ps 50,4.7.8.12.14.23 / Mc 10,28-31 "
"2059-05-28","De la férie","vert","Si 36,1.4-5a.10-17 / Ps 79,8-9.11.13 / Mc 10,32-45 "
"2059-05-29","De la férie","vert","Si 42,15-25 / Ps 33,2-9 / Mc 10,46-52 "
"2059-05-30","[France] Ste Jeanne d'Arc, †1431 à Rouen (France)","blanc","Si 44,1.9-13 / Ps 149,1-6.9 / Mc 11,11-25 "
"2059-05-31","Visitation de la Vierge Marie","blanc","Rm 12,9-16b / Is 12,2.4-6 / Lc 1,39-56 "
"2059-06-01","Saint Sacrement","blanc","Dt 8,2-3.14b-16a (Dieu nourrit son peuple) / Ps 147,12-15.19-20 (Le Seigneur te rassasie) / 1Co 10,16-17 (Un seul pain, un seul corps) / Jn 6,51-58 (Le vrai pain pour la vie du monde) "
"2059-06-02","St Marcellin, St Pierre, martyrs, †304 à Rome (Italie), et St Pothin, évêque, Ste Blandine et leurs compagnons, martyrs, †177 à Lyon (France)","rouge","Tb 1,1-2;2,1-9 / Ps 112,1-6 / Mc 12,1-12 "
"2059-06-03","St Charles Lwanga et ses compagnons, martyrs, †1886 à Namugongo (Ouganda)","rouge","Tb 2,10-23 / Ps 112,1-2.5.7-9 / Mc 12,13-17 "
"2059-06-04","[France] Ste Clotilde, reine des francs, †545 à Tours (France)","blanc","Tb 3,1-11.24-25 / Ps 25,2-9 / Mc 12,18-27 "
"2059-06-05","St Boniface, évêque de Mayence, martyr, †754 à Dokkum (Pays-Bas)","rouge","Tb 6,10-11a;7,1.9-17;8,4-10 / Ps 128,1-5 / Mc 12,28b-34 "
"2059-06-06","Sacré-Coeur de Jésus","blanc","Dt 7,6-11 (Tu es un peuple consacré) / Ps 103,1-4.6-8.13 (La tendresse d'un père) / 1Jn 4,7-16 (L'amour vient de Dieu) / Mt 11,25-30 (Mon fardeau est léger) "
"2059-06-07","Le Coeur immaculé de Marie","blanc","2Co 5,14-21 (Celui qui n’a pas connu le péché, Dieu l’a pour nous identifié au péché) / Ps 103,1-2.3-4.8-9.11-12 (Le Seigneur est tendresse et pitié) / Mt 5,33-37 (Moi, je vous dis de ne pas jurer du tout) "
"2059-06-08","10ème dimanche du temps ordinaire","vert","Os 6,3-6 (Dieu désire l'amour) / Ps 50,1.4.8.12-15 (Offre à Dieu ton action de grâce) / Rm 4,18-25 (La foi d'Abraham) / Mt 9,9-13 (Venu appeler les pécheurs) "
"2059-06-09","St Éphrem, diacre, docteur de l'Église, †373 à Şanlıurfa (Turquie)","blanc","2Co 1,1-7 / Ps 34,2-9 / Mt 5,1-12 "
"2059-06-10","De la férie","vert","2Co 1,18-22 / Ps 119,129-133.135 / Mt 5,13-16 "
"2059-06-11","St Barnabé, compagnon de Saint Paul, martyr, †61 à Salamine (Chypre)","rouge","Ac 11,21b-26;13,1-3 (Le compagnon de St Paul) / Ps 99,5-9 / Mt 5,17-19 "
"2059-06-12","De la férie","vert","2Co 3,15-4,1.3-6 / Ps 85,9-14 / Mt 5,20-26 "
"2059-06-13","St Antoine de Padoue (Fernando Martins de Bulhões), franciscain, docteur de l'Église, †1231 à Padoue (Italie)","blanc","2Co 4,7-15 / Ps 116,10-11.15-18 / Mt 5,27-32 "
"2059-06-14","De la férie","vert","2Co 5,14-21 / Ps 103,1-4.8-9.11-12 / Mt 5,33-37 "
"2059-06-15","11ème dimanche du temps ordinaire","vert","Ex 19,2-6a (L'appel de Moïse) / Ps 100,1-3.5 (Nous sommes son peuple) / Rm 5,6-11 (Réconciliés par la mort du Christ) / Mt 9,36-10,8 (L'appel des Douze) "
"2059-06-16","De la férie","vert","2Co 6,1-10 / Ps 98,1-4 / Mt 5,38-42 "
"2059-06-17","De la férie","vert","2Co 8,1-9 / Ps 146,2.5-10 / Mt 5,43-48 "
"2059-06-18","De la férie","vert","2Co 9,6-11 / Ps 112,1-5.9 / Mt 6,1-6.16-18 "
"2059-06-19","St Romuald, fondateur des Camaldules, †1027 à Val di Castro (Italie)","blanc","2Co 11,1-11 / Ps 111,1-4.7-8 / Mt 6,7-15 "
"2059-06-20","De la férie","vert","2Co 11,18.21b-30 / Ps 34,2-7 / Mt 6,19-23 "
"2059-06-21","St Louis de Gonzague, religieux jésuite, †1591 à Rome (Italie)","blanc","2Co 12,1-10 / Ps 34,8-13 / Mt 6,24-34 "
"2059-06-22","12ème dimanche du temps ordinaire","vert","Jr 20,10-13 (La confiance du prophète persécuté) / Ps 69,8.10.14.30-31.33-34 (Dieu n'oublie pas les siens) / Rm 5,12-15 (Le Christ nouvel Adam) / Mt 10,26-33 (Ne craignez pas) "
"2059-06-23","De la férie","vert","Gn 12,1-9 / Ps 33,12-13.18-20.22 / Mt 7,1-5 "
"2059-06-24","Nativité de St Jean Baptiste","blanc","Is 49,1-6 (Le Seigneur m'a appelé) / Ps 139,1-3.13-15 (Dès le sein de ma mère) / Ac 13,22-26 (Pour préparer la venue de Jésus) / Lc 1,57-66.80 (Dieu a choisi mon nom) "
"2059-06-25","De la férie","vert","Gn 15,1-12.17-18a / Ps 105,1-4.6-9 / Mt 7,15-20 "
"2059-06-26","De la férie","vert","Gn 16,1-12.15-16 / Ps 106,1-5 / Mt 7,21-29 "
"2059-06-27","St Cyrille, évêque d'Alexandrie, docteur de l'Église, †444 à Alexandrie (Égypte)","blanc","Gn 17,1.9-10.15-22 / Ps 128,1-5 / Mt 8,1-4 "
"2059-06-28","St Irénée, évêque de Lyon, martyr, †202 à Lyon (France)","rouge","Gn 18,1-15 / Lc 1,46-50.53-55 / Mt 8,5-17 "
"2059-06-29","St Pierre, apôtre, martyr, †64 à Rome (Italie), et St Paul, martyr, †67 à Rome (Italie)","rouge","Ac 12,1-11 (Pierre est délivré) / Ps 34,2-9 (Dieu délivre ses amis) / 2Tm 4,6-8.16-18 (La confiance de Paul) / Mt 16,13-19 (La foi de Pierre) "
"2059-06-30","Sts premiers martyrs de l'Église, †64 à Rome (Italie)","rouge","Gn 18,16-33 / Ps 103,1-4.8-11 / Mt 8,18-22 "
"2059-07-01","De la férie","vert","Gn 19,15-29 / Ps 26,2-3.9-12 / Mt 8,23-27 "
"2059-07-02","De la férie","vert","Gn 21,3.8-21 / Ps 34,7-8.10-13 / Mt 8,28-34 "
"2059-07-03","St Thomas, apôtre, martyr, †70 à Chennai (Inde)","rouge","Ep 2,19-22 / Ps 117,1-2 / Jn 20,24-29 "
"2059-07-04","Ste Elisabeth, franciscaine, †1336 à Estremoz (Portugal)","blanc","Gn 23,1-4.19;24,1-8.62-67 / Ps 106,1-5 / Mt 9,9-13 "
"2059-07-05","St Antoine-Marie Zaccaria, fondateur des Barnabites, †1539 à Crémone (Italie)","blanc","Gn 27,1-5.15-29 / Ps 135,1-6 / Mt 9,14-17 "
"2059-07-06","14ème dimanche du temps ordinaire","vert","Za 9,9-10 (Ton roi, humble, brisera la guerre) / Ps 145,1-2.8-11.13-14 (Il soutient ceux qui tombent) / Rm 8,9.11-13 (L'Esprit ou la chair) / Mt 11,25-30 (Mon fardeau est léger) "
"2059-07-07","De la férie","vert","Gn 28,10-22a / Ps 91,1-4.14-15 / Mt 9,18-26 "
"2059-07-08","De la férie","vert","Gn 32,23-32 / Ps 17,1-2.4-5.7-15 / Mt 9,32-38 "
"2059-07-09","St Augustin Zhao Rong et ses compagnons, évêques, prêtres, religieux, laïcs, martyrs, †1648-1930 en Chine","rouge","Gn 41,55-57;42,5-7a.17-24a / Ps 33,2-3.10-11.18-19 / Mt 10,1-7 "
"2059-07-10","De la férie","vert","Gn 44,18-21.23b-29;45,1-5 / Ps 105,16-21 / Mt 10,7-15 "
"2059-07-11","St Benoît de Nursie, fondateur des Bénédictins, †547 à Montecassino (Italie)","blanc","Pr 2,1-9 / Ps 34,2-4.6.9.12.14-15 / Mt 19,27-29 "
"2059-07-12","De la férie","vert","Gn 49,29-33;50,15-24 / Ps 105,1-4.6-7 / Mt 10,24-33 "
"2059-07-13","15ème dimanche du temps ordinaire","vert","Is 55,10-11 (La Parole qui abreuve la terre) / Ps 65,10-13.12b.14 (Tu rends la terre fertile) / Rm 8,18-23 (La création enfantera) / Mt 13,1-23 (La parabole du semeur) "
"2059-07-14","St Camille de Lellis, fondateur des Religieux Hospitaliers, †1614 à Rome (Italie)","blanc","Ex 1,8-14.22 / Ps 124,2-5.7 / Mt 10,34-11,1 "
"2059-07-15","St Bonaventure, évêque d'Albano, docteur de l'Église, †1274 à Lyon (France)","blanc","Ex 2,1-15a / Ps 69,3.14.30-31.33-34 / Mt 11,20-24 "
"2059-07-16","Notre Dame du Mont Carmel","blanc","Ex 3,1-6.9-12 / Ps 103,1-4.6-7 / Mt 11,25-27 "
"2059-07-17","De la férie","vert","Ex 3,13-20 / Ps 105,1.5.8-9.24-27 / Mt 11,28-30 "
"2059-07-18","De la férie","vert","Ex 11,10-12,14 / Ps 116,12-13.15-18 / Mt 12,1-8 "
"2059-07-19","De la férie","vert","Ex 12,37-42 / Ps 136,1.10-15.23-24 / Mt 12,14-21 "
"2059-07-20","16ème dimanche du temps ordinaire","vert","Sg 12,13.16-19 (La patience de Dieu) / Ps 86,5-6.9-10.15-16 (Seigneur, lent à la colère) / Rm 8,26-27 (L'Esprit Saint prie en nous) / Mt 13,24-43 (L'ivraie, la moutarde, le levain) "
"2059-07-21","St Laurent de Brindes (Giulio Cesare Russo), capucin, docteur de l'Église, †1619 à Lisbonne (Portugal)","blanc","Ex 14,5-18 / Ex 15,1-5 / Mt 12,38-42 "
"2059-07-22","Ste Marie de Magdala, disciple du Seigneur","blanc","Ct 3,1-4a ou 2Co 5,14-17 / Ps 64,2.3-4.5-6.8-9 / Jn 20,1.11-18 (Marie Madeleine au tombeau) "
"2059-07-23","Ste Brigitte de Suède, religieuse, †1373 à Rome (Italie)","blanc","Ex 16,1-5.9-15 / Ps 78,17-19.22.24-25.27.29 / Mt 13,1-9 "
"2059-07-24","St Charbel Makhlouf, moine, †1898 à Annaya (Liban)","blanc","Ex 19,1-2.9-11.16-20 / Dn 3,52-56 / Mt 13,10-17 "
"2059-07-25","St Jacques le majeur, apôtre, martyr, †43 à Jérusalem (État de Palestine / Israël)","rouge","2Co 4,7-15 / Ps 126,1-6 / Mt 20,20-28 "
"2059-07-26","St Joachim et Ste Anne, parents de la Vierge Marie","blanc","Ex 24,3-8 / Ps 50,1-2.5.7.14-15 / Mt 13,24-30 "
"2059-07-27","17ème dimanche du temps ordinaire","vert","1R 3,5.7-12 (La prière de Salomon) / Ps 119,57.72.76-77.127-130 (J'aime ta loi plus que l'or) / Rm 8,28-30 (Le dessein d'amour de Dieu) / Mt 13,44-52 (Le trésor, la perle, le filet) "
"2059-07-28","De la férie","vert","Ex 32,15-24.30-34 / Ps 106,19-23 / Mt 13,31-35 "
"2059-07-29","Ste Marthe, hôtesse du Seigneur, †68 à Avignon (France)","blanc","Ex 33,7-11.18-23;34,4-9.28 / Ps 103,6-13 / Lc 10,38-42 (Marthe reçoit Jésus) "
"2059-07-30","St Pierre Chrysologue, évêque de Ravenne, docteur de l'Église, †450 à Imola (Italie)","blanc","Ex 34,29-35 / Ps 99,5-7.9 / Mt 13,44-46 "
"2059-07-31","St Ignace de Loyola, fondateur des Jésuites, †1556 à Rome (Italie)","blanc","Ex 40,16-21.34-38 / Ps 84,3-6.11 / Mt 13,47-53 "
"2059-08-01","St Alphonse Marie de Liguori, évêque de Sant'Agata dei Goti, fondateur des Redemptoristes, docteur de l'Église, †1787 à Nocera de'Pagani (Italie)","blanc","Lv 23,1.4-11.15-16.27.34b-37 / Ps 81,3-6.10-11 / Mt 13,54-58 "
"2059-08-02","St Eusèbe, évêque de Verceil, †371 à Verceil (Italie), et St Pierre Julien Eymard, fondateur de la Société des Prêtres du Saint Sacrement, †1868 à La Mure (France)","blanc","Lv 25,1.8-17 / Ps 67,2-3.5.7-8 / Mt 14,1-12 "
"2059-08-03","18ème dimanche du temps ordinaire","vert","Is 55,1-3 (Venez, sans payer) / Ps 145,8-9.15-18 (Tu leur donnes la nourriture) / Rm 8,35.37-39 (Rien ne nous séparera du Christ) / Mt 14,13-21 (La multiplication des pains) "
"2059-08-04","St Jean-Marie Vianney, curé, †1859 à Ars-sur-Formans (France)","blanc","Nb 11,4b-15 / Ps 81,12-17 / Mt 14,13-21 "
"2059-08-05","Dédicace de la Basilique de Santa Maria Maggiore","blanc","Nb 12,1-13 / Ps 51,3-6.12-13 / Mt 14,22-36 "
"2059-08-06","Transfiguration du Seigneur","blanc","Dn 7,9-10.13-14 ou 2P 1,16-19 / Ps 97,1-2.4-6.9 / Mt 17,1-9 "
"2059-08-07","St Sixte II, pape, et ses compagnons, martyrs, †258 à Rome (Italie), et St Gaétan de Thienne, fondateur des Théatins, †1547 à Naples (Italie), et [Belgique] Ste Julienne de Cornillon, augustine, †1258 à Fosses-la-Ville (Belgique)","rouge~blanc","Nb 20,1-13 / Ps 95,1-2.6-9 / Mt 16,13-23 "
"2059-08-08","St Dominique, fondateur des Dominicains, †1221 à Bologne (Italie)","blanc","Dt 4,32-40 / Ps 77,12-16.21 / Mt 16,24-28 "
"2059-08-09","Ste Edith Stein, martyre, †1942 à Oświęcim (Pologne)","rouge","Os 2,16-17.21-22 / Ps 45,11-12.14-17 / Mt 25,1-13 "
"2059-08-10","19ème dimanche du temps ordinaire","vert","1R 19,9a.11-13a (La brise légère de Dieu) / Ps 85,9-14 (Le Seigneur donnera ses bienfaits) / Rm 9,1-5 (Les privilèges d'Israël) / Mt 14,22-33 (La marche sur la mer) "
"2059-08-11","Ste Claire, fondatrice des Clarisses, †1253 à Assise (Italie), et [Luxembourg] Bx Schecelin, ermite, †1138 à Hostert (Luxembourg)","blanc","Dt 10,12-22 / Ps 147,12-15.19-20 / Mt 17,22-27 "
"2059-08-12","Ste Jeanne de Chantal (Jeanne-Françoise Frémyot), fondatrice des Visitandines, †1641 à Moulins (France)","blanc","Dt 31,1-8 / Dt 32,3.4.7-9.12 / Mt 18,1-5.10.12.14 "
"2059-08-13","St Pontien, pape, martyr, et St Hippolyte, prêtre, martyr, †235 en Sardaigne (Italie)","rouge","Dt 34,1-12 / Ps 66,1-3.5.8.16-17 / Mt 18,15-20 "
"2059-08-14","St Maximilien-Marie Kolbe, franciscain, martyr, †1941 à Oświęcim (Pologne)","rouge","Jos 3,7-10a.11.13-17 / Ps 114,1-6 / Mt 18,21-19,1 "
"2059-08-15","Assomption de la Vierge Marie","blanc","Messe de la veille 1Ch 15,3-4.15-16;16,1-2 (Ils amenèrent l’arche de Dieu et l’installèrent au milieu de la tente que David avait dressée pour elle) / Ps 132,7-8.9-10.13-14 / 1Co 15,54b-57 (Dieu nous donne la victoire par notre Seigneur Jésus Christ) / Lc 11,27-28 (Heureuse la mère qui t’a porté en elle !) / Messe du jour Ap 11,19;12,1-6.10 (Une femme dans le ciel) / Ps 45,11-16 (Ton sourire dans la gloire) / 1Co 15,20-27a (Tous revivront dans le Christ) / Lc 1,39-56 (Marie exalte le Seigneur) "
"2059-08-16","St Etienne I, roi de Hongrie, †1038 à Székesfehérvár (Hongrie)","blanc","Jos 24,14-29 / Ps 16,1-2a.5.7-8.2b.11 / Mt 19,13-15 "
"2059-08-17","20ème dimanche du temps ordinaire","vert","Is 56,1.6-7 (Dieu accueille l'étranger) / Ps 67,2-3.5.7-8 (Que la terre tout entière l'adore) / Rm 11,13-15.29-32 (La miséricorde pour Israël) / Mt 15,21-28 (La foi de la Cananéenne) "
"2059-08-18","De la férie","vert","Jg 2,11-19 / Ps 106,2.4.6.35-37.39-40.43-44 / Mt 19,16-22 "
"2059-08-19","St Jean Eudes, fondateur des Eudistes, †1680 à Caen (France)","blanc","Jg 6,11-24a / Ps 85,9.11-14 / Mt 19,23-30 "
"2059-08-20","St Bernard de Clairvaux, cistercien, docteur de l'Église, †1153 à Ville-sous-la-Ferté (France)","blanc","Jg 9,6-15 / Ps 21,2-7 / Mt 20,1-16 "
"2059-08-21","St Pie X, pape, †1914 à Rome (Italie)","blanc","Jg 11,29-39a / Ps 40,5.7-10 / Mt 22,1-14 "
"2059-08-22","La Vierge Marie Reine","blanc","Rt 1,1.3-6.14b-16.22 / Ps 146,5-10 / Mt 22,34-40 "
"2059-08-23","Ste Rose (Isabel Flores de Oliva), dominicaine, †1617 à Lima (Pérou)","blanc","Rt 2,1-3.8-11;4,13-17 / Ps 128,1-5 / Mt 23,1-12 "
"2059-08-24","21ème dimanche du temps ordinaire","vert","Is 22,19-23 (Dieu donne le pouvoir) / Ps 138,1-3.6.8 (Le Seigneur fait tout pour moi) / Rm 11,33-36 (La profondeur de Dieu) / Mt 16,13-20 (Les clefs du Royaume) "
"2059-08-25","St Louis IX, roi de France, †1270 à Tunis (Tunisie), et St Joseph Calasanz, fondateur des Pères Piaristes, †1648 à Rome (Italie)","blanc","1Th 1,1-5.8b-10 / Ps 149,1-6.9 / Mt 23,13-22 "
"2059-08-26","[France] St Césaire, évêque d'Arles, †542 à Arles (France)","blanc","1Th 2,1-8 / Ps 139,1-2.5a.3-4 / Mt 23,23-26 "
"2059-08-27","Ste Monique, mère de St Augustin, †387 à Ostie (Italie)","blanc","1Th 2,9-13 / Ps 139,7-12 / Mt 23,27-32 "
"2059-08-28","St Augustin, évêque d'Annaba, docteur de l'Église, †430 à Annaba (Algérie)","blanc","1Th 3,7-13 / Ps 90,3-4.12-14.17 / Mt 24,42-51 "
"2059-08-29","St Jean Baptiste, martyr, †28 à Jerusalem (État de Palestine / Israël), et [Luxembourg] Dédicace de la cathédrale","rouge~blanc","1Th 4,1-8 / Ps 97,1-2.5-6.10.12 / Mc 6,17-29 (Jean Baptiste décapité) "
"2059-08-30","De la férie","vert","1Th 4,9-11 / Ps 98,1.7-9 / Mt 25,14-30 "
"2059-08-31","22ème dimanche du temps ordinaire","vert","Jr 20,7-9 (Seigneur, tu m'as séduit) / Ps 63,2-6.8-9 (Mon âme a soif de toi) / Rm 12,1-2 (Le culte véritable) / Mt 16,21-27 (Prendre sa croix) "
"2059-09-01","De la férie","vert","1Th 4,13-17 / Ps 96,1-2.4-5.11-13 / Lc 4,16-30 "
"2059-09-02","De la férie","vert","1Th 5,1-6.9-11 / Ps 27,1.4.13-14 / Lc 4,31-37 "
"2059-09-03","St Grégoire le grand, pape, docteur de l'Église, †604 à Rome (Italie)","blanc","Col 1,1-8 / Ps 52,10-11 / Lc 4,38-44 "
"2059-09-04","De la férie","vert","Col 1,9-14 / Ps 98,2-6 / Lc 5,1-11 "
"2059-09-05","Ste Teresa de Calcutta (Anjezë Gonxha Bojaxhiu), fondatrice des Missionnaires de la Charité, †1997 à Calcutta (Inde)","blanc","Col 1,15-20 / Ps 100,1-5 / Lc 5,33-39 "
"2059-09-06","De la férie","vert","Col 1,21-23 / Ps 54,3-4.6.8 / Lc 6,1-5 "
"2059-09-07","23ème dimanche du temps ordinaire","vert","Ez 33,7-9 (Avertis le pécheur) / Ps 95,1-2.6-9 (Ne fermez pas votre coeur) / Rm 13,8-10 (La loi d'amour) / Mt 18,15-20 (Le pardon en Église) "
"2059-09-08","Nativité de la Vierge Marie","blanc","Rm 8,28-30 / Is 61,10-11;62,1-3 / Mt 1,1-16.18-23 "
"2059-09-09","St Pierre Claver, jésuite, †1654 à Carthagène des Indes (Colombie)","blanc","Col 2,6-15 / Ps 145,1-2.8-11 / Lc 6,12-19 "
"2059-09-10","De la férie","vert","Col 3,1-11 / Ps 145,2-3.10-13 / Lc 6,20-26 "
"2059-09-11","De la férie","vert","Col 3,12-17 / Ps 150,1-6 / Lc 6,27-38 "
"2059-09-12","Saint Nom de la Vierge Marie","blanc","1Tm 1,1-2.12-14 / Ps 16,1-2a.5.7-8.2b.11 / Lc 6,39-42 "
"2059-09-13","St Jean Chrysostome, évêque d'Istanbul, docteur de l'Église, †407 à Comana (Turquie)","blanc","1Tm 1,15-17 / Ps 113,1-7 / Lc 6,43-49 "
"2059-09-14","La Croix glorieuse","rouge","Nb 21,4b-9 (Le serpent de bronze) ou Ph 2,6-11 (Il s'est abaissé : c'est pourquoi Dieu l'a exalté) / Ps 78,3-4.34-39 (Et lui pardonnait) / Jn 3,13-17 (Il faut que soit élevé le Fils de l'homme) "
"2059-09-15","Notre Dame des Douleurs","blanc","1Tm 2,1-8 / Ps 28,1-2.7-9 / Lc 2,33-35 (Prophétie de Siméon) "
"2059-09-16","St Corneille, pape, martyr, †253 à Civitavecchia (Italie), et St Cyprien, évêque de Carthage, martyr, †258 à Carthage (Tunisie)","rouge","1Tm 3,1-13 / Ps 101,1-3.5-6 / Lc 7,11-17 "
"2059-09-17","St Robert Bellarmino, jésuite, docteur de l'Église, †1621 à Rome (Italie) et [Belgique] St Lambert, martyre, évêque de Tongres-Maastricht, †705 à Liège (Belgique)","blanc~rouge","1Tm 3,14-16 / Ps 111,1-6 / Lc 7,31-35 "
"2059-09-18","[Luxembourg] St Lambert, martyr, évêque de Tongres-Maastricht, †705 à Liège (Belgique)","rouge","1Tm 4,12-16 / Ps 111,7-10 / Lc 7,36-50 "
"2059-09-19","St Janvier, évêque de Benevento, martyr, †304 à Pouzzoles (Italie)","rouge","1Tm 6,2c-12 / Ps 49,6-9.17-20 / Lc 8,1-3 "
"2059-09-20","St André Kim Tae-gon, prêtre, St Paul Chong Ha-sang et leurs compagnons, martyrs, †1839 à 1864 en Corée","rouge","1Tm 6,13-16 / Ps 100,1-5 / Lc 8,4-15 "
"2059-09-21","25ème dimanche du temps ordinaire","vert","Is 55,6-9 (Mes pensées ne sont pas vos pensées) / Ps 145,2-3.8-9.17-18 (A sa grandeur pas de limite) / Ph 1,20c-24.27a (Vivre, c'est le Christ) / Mt 20,1-16 (Le salaire des derniers) "
"2059-09-22","[Suisse] St Maurice d'Agaune et ses compagnons, martyrs, †3e siècle dans le Valais (Suisse)","rouge","Esd 1,1-6 / Ps 126,1-5 / Lc 8,16-18 "
"2059-09-23","St Pio de Pietrelcina (Francesco Forgione), capucin, †1968 à San Giovanni Rotondo (Italie)","blanc","Ga 2,19-20 / Ps 128,1-5 / Mt 16,24-27 "
"2059-09-24","De la férie","vert","Esd 9,5-9 / Tb 13,2-5.7 / Lc 9,1-6 "
"2059-09-25","[Suisse] St Nicolas de de Flüe, ermite, †1487 à Sachseln (Suisse)","rouge","Ag 1,1-8 / Ps 149,1-6.9 / Lc 9,7-9 "
"2059-09-26","St Côme et St Damien, martyrs, †303 à Nebi Huri (Syrie), et [Canada] St Jean de Brébeuf, St Isaac Jogues, St René Goupil et leurs autres compagnons, martyrs, †1642-1649 au Canada","rouge","Ag 1,15b-2,9 / Ps 43,1-4 / Lc 9,18-22 "
"2059-09-27","St Vincent de Paul, fondateur des Lazaristes, †1660 à Paris (France)","blanc","Za 2,5-9.14-15a / Jr 31,10-13 / Lc 9,43-45 "
"2059-09-28","26ème dimanche du temps ordinaire","vert","Ez 18,25-28 (Se convertir pour vivre) / Ps 25,4-9 (Fais-moi connaître ta route) / Ph 2,1-11 (Vivre pour les autres comme le Christ) / Mt 21,28-32 (La parabole des deux fils) "
"2059-09-29","Sts Michel, Gabriel et Raphaël, archanges","blanc","Dn 7,9-10.13.14 ou Ap 12,7-12a / Ps 138,1-5 / Jn 1,47-51 "
"2059-09-30","St Jérôme, prêtre, docteur de l'Église, †420 à Bethléem (État de Palestine)","blanc","Za 8,20-23 / Ps 87,1-7 / Lc 9,51-56 "
"2059-10-01","Ste Thérèse de l'Enfant-Jésus (Marie-Françoise Thérèse Martin), carmélite, docteur de l'Église, †1897 à Lisieux (France)","blanc","Ne 2,1-8 / Ps 137,1-6 / Lc 9,57-62 "
"2059-10-02","Saints Anges gardiens","blanc","Ne 8,1-4a.5-6.8-12 / Ps 19,8-11 / Mt 18,1-5.10 (Leurs anges dans les cieux) "
"2059-10-03","De la férie","vert","Ba 1,15-22 / Ps 79,1-5.8-9 / Lc 10,13-16 "
"2059-10-04","St François d'Assise (Giovanni di Pietro Bernardone), fondateur des Frères Mineurs, †1226 à Assise (Italie)","blanc","Ba 4,5-12.27-29 / Ps 69,33-34.36.37b / Lc 10,17-24 "
"2059-10-05","27ème dimanche du temps ordinaire","vert","Is 5,1-7 (La mauvaise vigne) / Ps 80,9-10.13-16a.19-20 (Regarde ta vigne) / Ph 4,6-9 (Dans la paix de Dieu) / Mt 21,33-43 (Les vignerons meurtriers) "
"2059-10-06","St Bruno, fondateur de la Grande-Chartreuse, †1101 à Serra San Bruno (Italie)","blanc","Jon 1,1-2,1.11 / Jon 2,2.4-5.8 / Lc 10,25-37 "
"2059-10-07","Notre Dame du Rosaire","blanc","Jon 3,1-10 / Ps 130,1-4.7-8 / Lc 10,38-42 "
"2059-10-08","De la férie","vert","Jon 4,1-11 / Ps 86,3-6.9-10 / Lc 11,1-4 "
"2059-10-09","St Denis, évêque de Paris, et ses compagnons, martyrs, †250-272 à Montmartre (France), et St Jean Léonardi, prêtre de Lucca, †1609 à Rome (Italie)","rouge~blanc","Ml 3,13-20a / Ps 1,1-6 / Lc 11,5-13 "
"2059-10-10","De la férie","vert","Jl 1,13-15;2,1-2 / Ps 9,2-3.6.8-9.16 / Lc 11,15-26 "
"2059-10-11","St Jean XXIII, pape, †1963 à Rome (Italie)","blanc","Jl 4,12-21 / Ps 97,1-2.5-6.11-12 / Lc 11,27-28 "
"2059-10-12","28ème dimanche du temps ordinaire","vert","Is 25,6-9 (Le banquet éternel) / Ps 23,1-6 (Il me guide et me rassure) / Ph 4,12-14.19-20 (Le Christ seule richesse) / Mt 22,1-14 (La parabole des invités) "
"2059-10-13","De la férie","vert","Rm 1,1-7 / Ps 98,1-4 / Lc 11,29-32 "
"2059-10-14","St Calixte I, pape, martyr, †222 à Rome (Italie)","rouge","Rm 1,16-25 / Ps 19,2-5 / Lc 11,37-41 "
"2059-10-15","Ste Thérèse de Jésus (Teresa Sánchez de Cepeda y Ahumada), docteur de l'Église, †1582 à Alba de Tormes (Espagne)","blanc","Rm 2,1-11 / Ps 62,6-9 / Lc 11,42-46 "
"2059-10-16","Ste Edwige, religieuse, †1243 à Trzebnica (Pologne), et Ste Marguerite-Marie Alacoque, visitandine, †1690 à Paray-le-Monial (France), et [Canada] Ste Marguerite d'Youville (Marie-Marguerite Dufrost de Lajemmerais), fondatrice des Soeurs de la Charite, †1771 à Montreal (Canada)","blanc","Rm 3,21-30 / Ps 130,1-6 / Lc 11,47-54 "
"2059-10-17","St Ignace, évêque d'Antakya, martyr, †107 à Rome (Italie)","rouge","Rm 4,1-8 / Ps 32,1-2.5.7.11 / Lc 12,1-7 "
"2059-10-18","St Luc, évangéliste, †80 à Thèbes (Égypte)","rouge","2Tm 4,9-17 / Ps 145,10-13.17-18 / Lc 10,1-9 "
"2059-10-19","29ème dimanche du temps ordinaire","vert","Is 45,1.4-6a (Il n'y a pas d'autre Dieu) / Ps 96,1.3-5.7-10 (La gloire de son nom) / 1Th 1,1-5b (Paul félicite la communauté) / Mt 22,15-21 (Dieu et César) "
"2059-10-20","De la férie","vert","Rm 4,20-25 / Lc 1,69-75 / Lc 12,13-21 "
"2059-10-21","De la férie","vert","Rm 5,12.15b.17-19.20b-21 / Ps 40,7-10.17 / Lc 12,35-38 "
"2059-10-22","St Jean Paul II, pape, †2005 à Rome (Italie), et [Canada] Dédicace des églises consacrées dont on ne connaît pas la date de consécration","blanc","Rm 6,12-18 / Ps 124,2-5.7 / Lc 12,39-48 "
"2059-10-23","St Jean de Capistran, franciscain, †1456 à Ilok (Croatie)","blanc","Rm 6,19-23 / Ps 1,1-6 / Lc 12,49-53 "
"2059-10-24","St Antoine-Marie Claret, évêque de Santiago de Cuba, fondateur des Clarétins, †1870 à Fontfroide (France)","blanc","Rm 7,18-25a / Ps 119,66.68.76-77.93-94 / Lc 12,54-59 "
"2059-10-25","De la férie","vert","Rm 8,1-11 / Ps 24,1-6 / Lc 13,1-9 "
"2059-10-26","30ème dimanche du temps ordinaire","vert","Ex 22,20-26 (Le cri des pauvres) / Ps 18,2-4.20.47.51 (Je t'aime, Seigneur, ma force) / 1Th 1,5c-10 (Le rayonnement de votre foi) / Mt 22,34-40 (Le grand commandement) "
"2059-10-27","De la férie","vert","Rm 8,12-17 / Ps 68,2.4.6-7.20-21 / Lc 13,10-17 "
"2059-10-28","St Simon, apôtre, martyr, et St Jude, apôtre, martyr","rouge","Ep 2,19-22 / Ps 19,2-5 / Lc 6,12-19 "
"2059-10-29","De la férie","vert","Rm 8,26-30 / Ps 13,4-6 / Lc 13,22-30 "
"2059-10-30","De la férie","vert","Rm 8,31b-39 / Ps 109,21-22.26-27.30-31 / Lc 13,31-35 "
"2059-10-31","De la férie","vert","Rm 9,1-5 / Ps 147,12-15.19-20 / Lc 14,1-6 "
"2059-11-01","Tous les saints","blanc","Ap 7,2-4.9-14 (Une foule immense) / Ps 24,1-6 (Ceux qui t'ont cherché) / 1Jn 3,1-3 (Déjà enfants de Dieu) / Mt 5,1-12a (Récompensés dans les cieux) "
"2059-11-02","Commémoration de tous les fidèles défunts","violet","Sg 2,23;3,1-6.9 (La vie de tout homme est dans la main de Dieu) / Ps 4,2.7.9 / Rm 6,3-9 (Passer par la mort avec le Christ pour vivre avec lui) / Jn 5,24-29 (Voici l'heure d'entrer dans la vie) "
"2059-11-03","St Martin de Porrès, dominicain, †1639 à Lima (Pérou), et [Belgique, Luxembourg] St Hubert, évêque de Tongres-Maastricht, †727 à Tervuren (Belgique)","blanc","Rm 11,29-36 / Ps 69,30-31.33-34.36-37 / Lc 14,12-14 "
"2059-11-04","St Charles Borromée, évêque de Milan, †1584 à Milan (Italie)","blanc","Rm 12,5-16a / Ps 131,1-3 / Lc 14,15-24 "
"2059-11-05","De la férie","vert","Rm 13,8-10 / Ps 112,1-2.4-5.8.9 / Lc 14,25-33 "
"2059-11-06","De la férie","vert","Rm 14,7-12 / Ps 27,1.4.13-14 / Lc 15,1-10 "
"2059-11-07","[Luxembourg] St Willibrord, évêque d'Utrecht, †739 à Echternach (Luxembourg)","blanc","Rm 15,14-21 / Ps 98,1-4 / Lc 16,1-8 "
"2059-11-08","De la férie","vert","Rm 16,3-9.16.22-27 / Ps 145,2-5.10-11 / Lc 16,9-15 "
"2059-11-09","Dédicace de la basilique San Giovanni in Laterano, cathédrale de Rome","blanc","Ez 47,1-2.8-9.12 (Le Seigneur dans son temple) ou 1Co 3,9b-11.16-17 (Vous êtes le temple) / Ps 46,2-3.5-6.8-10 (Voici la demeure de Dieu) / Jn 2,13-22 (Le Christ, nouveau temple) "
"2059-11-10","St Léon le Grand, pape, docteur de l'Église, †461 à Rome (Italie)","blanc","Sg 1,1-7 / Ps 139,1-2.5a.3-4.7-10 / Lc 17,1-6 "
"2059-11-11","St Martin, évêque de Tours, †397 à Candes-Saint-Martin (France)","blanc","Sg 2,23-3,9 / Ps 34,2-3.16-19 / Lc 17,7-10 "
"2059-11-12","St Josaphat Koncévitch, évêque de Polatsk, martyr, †1623 à Vitebsk (Bélarus)","rouge","Sg 6,1-11 / Ps 82,3-4.6-7 / Lc 17,11-19 "
"2059-11-13","De la férie","vert","Sg 7,22-8,1 / Ps 119,89-91.130.135.175 / Lc 17,20-25 "
"2059-11-14","De la férie","vert","Sg 13,1-9 / Ps 19,2-5 / Lc 17,26-37 "
"2059-11-15","St Albert, évêque de Regensburg, docteur de l'Église, †1280 à Cologne (Allemagne)","blanc","Sg 18,14-16;19,6-9 / Ps 105,2-3.36-37.42-43 / Lc 18,1-8 "
"2059-11-16","33ème dimanche du temps ordinaire","vert","Pr 31,10-13.19-20.30-31 (La femme vaillante) / Ps 128,1-6 (Le bonheur de ta famille) / 1Th 5,1-6 (Le jour de son retour) / Mt 25,14-30 (La parabole des talents) "
"2059-11-17","Ste Elisabeth de Hongrie, duchesse de Thüringen, †1231 à Marbourg (Allemagne)","blanc","1M 1,10-15.41-43.54-57.62-64 / Ps 119,53.61.134.150.155.158 / Lc 18,35-43 "
"2059-11-18","Dédicace des basiliques romaines de St-Pierre-du-Vatican et de St-Paul-hors-les-murs","blanc","Ac 28,11-16.30-31 (Paul arrive à Rome) / Ps 3,2-7 / Mt 14,22-33 (Pierre sur les eaux) "
"2059-11-19","De la férie","vert","2M 7,1.20-31 / Ps 17,1-2.5-6.8.15 / Lc 19,11-28 "
"2059-11-20","De la férie","vert","1M 2,15-29 / Ps 50,1-2.5.7.14-15 / Lc 19,41-44 "
"2059-11-21","Présentation de la Bienheureuse Vierge Marie","blanc","1M 4,36-37.52-59 / 1Ch 29,10-12 / Lc 19,45-48 "
"2059-11-22","Ste Cécile, martyre, †230 à Rome (Italie)","rouge","1M 6,1-13 / Ps 9,2-4.6.16.19 / Lc 20,27-40 "
"2059-11-23","Christ, Roi de l'univers","blanc","Ez 34,11-12.15-17 (Dieu berger et juge) / Ps 23,1-6 (Il me guide et me rassure) / 1Co 15,20-26.28 (Le pouvoir royal du Christ) / Mt 25,31-46 (C'est à moi que vous l'avez fait) "
"2059-11-24","St André Dung-Lac, St Jean-Théophane Vénard et leurs compagnons, martyrs, †1845-1862 au Viêt Nam","rouge","Dn 1,1-6.8-20 / Dn 3,52-56 / Lc 21,1-4 "
"2059-11-25","Ste Catherine, martyre, †307 à Alexandrie (Égypte)","rouge","Dn 2,31-45 / Dn 3,57-61 / Lc 21,5-11 "
"2059-11-26","[Belgique] St Jean Berchmans, jésuite, †1621 à Rome (Italie)","blanc","Dn 5,1-6.13-14.16-17.23-28 / Dn 3,62-67 / Lc 21,12-19 "
"2059-11-27","De la férie","vert","Dn 6,12-28 / Dn 3,68-74 / Lc 21,20-28 "
"2059-11-28","De la férie","vert","Dn 7,2-14 / Dn 3,75-81 / Lc 21,29-33 "
"2059-11-29","De la férie","vert","Dn 7,15-27 / Dn 3,82-87 / Lc 21,34-36 "
